{
  "nvSuccessDeleteBlob" : {
    "_id" : "wm-nvSuccessDeleteBlob-wm.NotificationVariable-1508226705749",
    "name" : "nvSuccessDeleteBlob",
    "owner" : "Page",
    "category" : "wm.NotificationVariable",
    "dataBinding" : [ {
      "target" : "content",
      "value" : "inline",
      "type" : "string"
    }, {
      "target" : "text",
      "value" : "Document deleted successfully",
      "type" : "string"
    }, {
      "target" : "duration",
      "value" : "5000",
      "type" : "number"
    }, {
      "target" : "class",
      "value" : "Success",
      "type" : "string"
    }, {
      "target" : "toasterPosition",
      "value" : "bottom right",
      "type" : "string"
    } ],
    "operation" : "toast"
  },
  "PlatformPdfData" : {
    "_id" : "wm-PlatformPdfData-wm.LiveVariable-1508225635680",
    "name" : "PlatformPdfData",
    "owner" : "Page",
    "category" : "wm.LiveVariable",
    "dataBinding" : [ ],
    "operation" : "read",
    "dataSet" : [ ],
    "type" : "Pdf",
    "isList" : false,
    "saveInPhonegap" : false,
    "maxResults" : 5,
    "designMaxResults" : 5,
    "inFlightBehavior" : "executeLast",
    "startUpdate" : true,
    "autoUpdate" : true,
    "transformationRequired" : false,
    "liveSource" : "platform",
    "ignoreCase" : true,
    "matchMode" : "start",
    "orderBy" : "id asc",
    "propertiesMap" : {
      "columns" : [ {
        "fieldName" : "asset",
        "type" : "integer",
        "fullyQualifiedType" : "integer",
        "columnName" : "asset_id",
        "isPrimaryKey" : false,
        "notNull" : false,
        "length" : 0,
        "precision" : 10,
        "generator" : "assigned",
        "isRelated" : true,
        "relatedTableName" : "asset",
        "relatedEntityName" : "Asset",
        "relatedColumnName" : "assetId",
        "relatedFieldName" : "asset.id",
        "isList" : false,
        "targetTable" : "asset",
        "scale" : 0,
        "columns" : [ {
          "fieldName" : "property",
          "type" : "integer",
          "fullyQualifiedType" : "integer",
          "columnName" : "property_id",
          "isPrimaryKey" : false,
          "notNull" : true,
          "length" : 0,
          "precision" : 10,
          "generator" : "assigned",
          "isRelated" : true,
          "relatedColumnName" : "propertyId",
          "targetTable" : "property",
          "scale" : 0
        }, {
          "fieldName" : "option",
          "type" : "integer",
          "fullyQualifiedType" : "integer",
          "columnName" : "next_court_action_id",
          "isPrimaryKey" : false,
          "notNull" : false,
          "length" : 0,
          "precision" : 10,
          "generator" : "assigned",
          "isRelated" : true,
          "relatedColumnName" : "nextCourtActionId",
          "targetTable" : "option",
          "scale" : 0
        }, {
          "fieldName" : "occupancy",
          "type" : "integer",
          "fullyQualifiedType" : "integer",
          "columnName" : "occupancy_id",
          "isPrimaryKey" : false,
          "notNull" : true,
          "length" : 0,
          "precision" : 10,
          "generator" : "assigned",
          "isRelated" : true,
          "relatedColumnName" : "occupancyId",
          "targetTable" : "occupancy",
          "scale" : 0
        }, {
          "fieldName" : "assetStatus",
          "type" : "integer",
          "fullyQualifiedType" : "integer",
          "columnName" : "status_id",
          "isPrimaryKey" : false,
          "notNull" : true,
          "length" : 0,
          "precision" : 10,
          "generator" : "assigned",
          "isRelated" : true,
          "relatedColumnName" : "statusId",
          "targetTable" : "asset_status",
          "scale" : 0
        }, {
          "fieldName" : "id",
          "type" : "integer",
          "fullyQualifiedType" : "integer",
          "columnName" : "id",
          "isPrimaryKey" : true,
          "notNull" : true,
          "length" : 0,
          "precision" : 10,
          "generator" : "identity",
          "isRelated" : false,
          "scale" : 0
        }, {
          "fieldName" : "batch",
          "type" : "string",
          "fullyQualifiedType" : "string",
          "columnName" : "batch",
          "isPrimaryKey" : false,
          "notNull" : true,
          "length" : 25,
          "precision" : 0,
          "generator" : "assigned",
          "isRelated" : false,
          "scale" : 0
        }, {
          "fieldName" : "nextCourtDate",
          "type" : "datetime",
          "fullyQualifiedType" : "datetime",
          "columnName" : "next_court_date",
          "isPrimaryKey" : false,
          "notNull" : false,
          "length" : 0,
          "precision" : 0,
          "generator" : "assigned",
          "isRelated" : false,
          "scale" : 0
        }, {
          "fieldName" : "deedDate",
          "type" : "date",
          "fullyQualifiedType" : "date",
          "columnName" : "deed_date",
          "isPrimaryKey" : false,
          "notNull" : false,
          "length" : 0,
          "precision" : 0,
          "generator" : "assigned",
          "isRelated" : false,
          "scale" : 0
        }, {
          "fieldName" : "listingUrl",
          "type" : "string",
          "fullyQualifiedType" : "string",
          "columnName" : "listing_url",
          "isPrimaryKey" : false,
          "notNull" : false,
          "length" : 250,
          "precision" : 0,
          "generator" : "assigned",
          "isRelated" : false,
          "scale" : 0
        }, {
          "fieldName" : "note",
          "type" : "text",
          "fullyQualifiedType" : "text",
          "columnName" : "note",
          "isPrimaryKey" : false,
          "notNull" : false,
          "length" : 250,
          "precision" : 0,
          "generator" : "assigned",
          "isRelated" : false,
          "scale" : 0
        }, {
          "fieldName" : "openTaxes",
          "type" : "big_decimal",
          "fullyQualifiedType" : "big_decimal",
          "columnName" : "open_taxes",
          "isPrimaryKey" : false,
          "notNull" : false,
          "length" : 0,
          "precision" : 19,
          "generator" : "assigned",
          "isRelated" : false,
          "scale" : 4
        }, {
          "fieldName" : "externalEventId",
          "type" : "string",
          "fullyQualifiedType" : "string",
          "columnName" : "external_event_id",
          "isPrimaryKey" : false,
          "notNull" : false,
          "length" : 1024,
          "precision" : 0,
          "generator" : "assigned",
          "isRelated" : false,
          "scale" : 0
        }, {
          "fieldName" : "externalAssetId",
          "type" : "integer",
          "fullyQualifiedType" : "integer",
          "columnName" : "external_asset_id",
          "isPrimaryKey" : false,
          "notNull" : false,
          "length" : 0,
          "precision" : 10,
          "generator" : "assigned",
          "isRelated" : false,
          "scale" : 0
        }, {
          "fieldName" : "gas",
          "type" : "string",
          "fullyQualifiedType" : "string",
          "columnName" : "gas",
          "isPrimaryKey" : false,
          "notNull" : false,
          "length" : 50,
          "precision" : 0,
          "generator" : "assigned",
          "isRelated" : false,
          "scale" : 0
        }, {
          "fieldName" : "electric",
          "type" : "string",
          "fullyQualifiedType" : "string",
          "columnName" : "electric",
          "isPrimaryKey" : false,
          "notNull" : false,
          "length" : 50,
          "precision" : 0,
          "generator" : "assigned",
          "isRelated" : false,
          "scale" : 0
        } ]
      }, {
        "fieldName" : "certificate",
        "type" : "integer",
        "fullyQualifiedType" : "integer",
        "columnName" : "certificate_id",
        "isPrimaryKey" : false,
        "notNull" : true,
        "length" : 0,
        "precision" : 10,
        "generator" : "assigned",
        "isRelated" : true,
        "relatedTableName" : "certificate",
        "relatedEntityName" : "Certificate",
        "relatedColumnName" : "certificateId",
        "relatedFieldName" : "certificate.id",
        "isList" : false,
        "targetTable" : "certificate",
        "scale" : 0,
        "columns" : [ {
          "fieldName" : "county",
          "type" : "integer",
          "fullyQualifiedType" : "integer",
          "columnName" : "county_id",
          "isPrimaryKey" : false,
          "notNull" : true,
          "length" : 0,
          "precision" : 10,
          "generator" : "assigned",
          "isRelated" : true,
          "relatedColumnName" : "countyId",
          "targetTable" : "county",
          "scale" : 0
        }, {
          "fieldName" : "property",
          "type" : "integer",
          "fullyQualifiedType" : "integer",
          "columnName" : "property_id",
          "isPrimaryKey" : false,
          "notNull" : true,
          "length" : 0,
          "precision" : 10,
          "generator" : "assigned",
          "isRelated" : true,
          "relatedColumnName" : "propertyId",
          "targetTable" : "property",
          "scale" : 0
        }, {
          "fieldName" : "certificateStatus",
          "type" : "string",
          "fullyQualifiedType" : "string",
          "columnName" : "status",
          "isPrimaryKey" : false,
          "notNull" : true,
          "length" : 25,
          "precision" : 0,
          "generator" : "assigned",
          "isRelated" : true,
          "relatedColumnName" : "status",
          "targetTable" : "certificate_status",
          "scale" : 0
        }, {
          "fieldName" : "id",
          "type" : "integer",
          "fullyQualifiedType" : "integer",
          "columnName" : "id",
          "isPrimaryKey" : true,
          "notNull" : true,
          "length" : 0,
          "precision" : 10,
          "generator" : "identity",
          "isRelated" : false,
          "scale" : 0
        }, {
          "fieldName" : "certificateNumber",
          "type" : "string",
          "fullyQualifiedType" : "string",
          "columnName" : "certificate_number",
          "isPrimaryKey" : false,
          "notNull" : true,
          "length" : 50,
          "precision" : 0,
          "generator" : "assigned",
          "isRelated" : false,
          "scale" : 0
        }, {
          "fieldName" : "taxYear",
          "type" : "integer",
          "fullyQualifiedType" : "integer",
          "columnName" : "tax_year",
          "isPrimaryKey" : false,
          "notNull" : true,
          "length" : 0,
          "precision" : 10,
          "generator" : "assigned",
          "isRelated" : false,
          "scale" : 0
        }, {
          "fieldName" : "pin",
          "type" : "string",
          "fullyQualifiedType" : "string",
          "columnName" : "PIN",
          "isPrimaryKey" : false,
          "notNull" : true,
          "length" : 50,
          "precision" : 0,
          "generator" : "assigned",
          "isRelated" : false,
          "scale" : 0
        }, {
          "fieldName" : "volume",
          "type" : "integer",
          "fullyQualifiedType" : "integer",
          "columnName" : "volume",
          "isPrimaryKey" : false,
          "notNull" : true,
          "length" : 0,
          "precision" : 10,
          "generator" : "assigned",
          "isRelated" : false,
          "scale" : 0
        }, {
          "fieldName" : "vol",
          "type" : "string",
          "fullyQualifiedType" : "string",
          "columnName" : "vol",
          "isPrimaryKey" : false,
          "notNull" : true,
          "length" : 4,
          "precision" : 0,
          "generator" : "assigned",
          "isRelated" : false,
          "scale" : 0
        }, {
          "fieldName" : "bidRate",
          "type" : "big_decimal",
          "fullyQualifiedType" : "big_decimal",
          "columnName" : "bid_rate",
          "isPrimaryKey" : false,
          "notNull" : true,
          "length" : 0,
          "precision" : 15,
          "generator" : "assigned",
          "isRelated" : false,
          "scale" : 9
        }, {
          "fieldName" : "dateSold",
          "type" : "date",
          "fullyQualifiedType" : "date",
          "columnName" : "date_sold",
          "isPrimaryKey" : false,
          "notNull" : true,
          "length" : 0,
          "precision" : 0,
          "generator" : "assigned",
          "isRelated" : false,
          "scale" : 0
        }, {
          "fieldName" : "expirationDate",
          "type" : "date",
          "fullyQualifiedType" : "date",
          "columnName" : "expiration_date",
          "isPrimaryKey" : false,
          "notNull" : true,
          "length" : 0,
          "precision" : 0,
          "generator" : "assigned",
          "isRelated" : false,
          "scale" : 0
        }, {
          "fieldName" : "bank",
          "type" : "string",
          "fullyQualifiedType" : "string",
          "columnName" : "bank",
          "isPrimaryKey" : false,
          "notNull" : false,
          "length" : 50,
          "precision" : 0,
          "generator" : "assigned",
          "isRelated" : false,
          "scale" : 0
        }, {
          "fieldName" : "storageStatus",
          "type" : "string",
          "fullyQualifiedType" : "string",
          "columnName" : "storage_status",
          "isPrimaryKey" : false,
          "notNull" : true,
          "length" : 50,
          "precision" : 0,
          "generator" : "assigned",
          "isRelated" : false,
          "scale" : 0
        }, {
          "fieldName" : "releasedDate",
          "type" : "date",
          "fullyQualifiedType" : "date",
          "columnName" : "released_date",
          "isPrimaryKey" : false,
          "notNull" : false,
          "length" : 0,
          "precision" : 0,
          "generator" : "assigned",
          "isRelated" : false,
          "scale" : 0
        }, {
          "fieldName" : "currentPenaltyPeriod",
          "type" : "integer",
          "fullyQualifiedType" : "integer",
          "columnName" : "current_penalty_period",
          "isPrimaryKey" : false,
          "notNull" : true,
          "length" : 0,
          "precision" : 10,
          "generator" : "assigned",
          "isRelated" : false,
          "scale" : 0
        }, {
          "fieldName" : "statusChangeDate",
          "type" : "date",
          "fullyQualifiedType" : "date",
          "columnName" : "status_change_date",
          "isPrimaryKey" : false,
          "notNull" : false,
          "length" : 0,
          "precision" : 0,
          "generator" : "assigned",
          "isRelated" : false,
          "scale" : 0
        }, {
          "fieldName" : "selectPrint",
          "type" : "boolean",
          "fullyQualifiedType" : "boolean",
          "columnName" : "select_print",
          "isPrimaryKey" : false,
          "notNull" : true,
          "length" : 0,
          "precision" : 0,
          "generator" : "assigned",
          "isRelated" : false,
          "scale" : 0
        }, {
          "fieldName" : "taxYearNotices",
          "type" : "string",
          "fullyQualifiedType" : "string",
          "columnName" : "tax_year_notices",
          "isPrimaryKey" : false,
          "notNull" : false,
          "length" : 220,
          "precision" : 0,
          "generator" : "assigned",
          "isRelated" : false,
          "scale" : 0
        }, {
          "fieldName" : "lastImportId",
          "type" : "integer",
          "fullyQualifiedType" : "integer",
          "columnName" : "last_import_id",
          "isPrimaryKey" : false,
          "notNull" : false,
          "length" : 0,
          "precision" : 10,
          "generator" : "assigned",
          "isRelated" : false,
          "scale" : 0
        }, {
          "fieldName" : "specialInstallment",
          "type" : "string",
          "fullyQualifiedType" : "string",
          "columnName" : "special_installment",
          "isPrimaryKey" : false,
          "notNull" : false,
          "length" : 50,
          "precision" : 0,
          "generator" : "assigned",
          "isRelated" : false,
          "scale" : 0
        }, {
          "fieldName" : "specialWarrant",
          "type" : "string",
          "fullyQualifiedType" : "string",
          "columnName" : "special_warrant",
          "isPrimaryKey" : false,
          "notNull" : false,
          "length" : 50,
          "precision" : 0,
          "generator" : "assigned",
          "isRelated" : false,
          "scale" : 0
        }, {
          "fieldName" : "specialMunicipality",
          "type" : "string",
          "fullyQualifiedType" : "string",
          "columnName" : "special_municipality",
          "isPrimaryKey" : false,
          "notNull" : false,
          "length" : 50,
          "precision" : 0,
          "generator" : "assigned",
          "isRelated" : false,
          "scale" : 0
        }, {
          "fieldName" : "certificateType",
          "type" : "string",
          "fullyQualifiedType" : "string",
          "columnName" : "certificate_type",
          "isPrimaryKey" : false,
          "notNull" : false,
          "length" : 50,
          "precision" : 0,
          "generator" : "assigned",
          "isRelated" : false,
          "scale" : 0
        }, {
          "fieldName" : "subtaxDecision",
          "type" : "string",
          "fullyQualifiedType" : "string",
          "columnName" : "subtax_decision",
          "isPrimaryKey" : false,
          "notNull" : false,
          "length" : 50,
          "precision" : 0,
          "generator" : "assigned",
          "isRelated" : false,
          "scale" : 0
        }, {
          "fieldName" : "subtaxDecisionDate",
          "type" : "date",
          "fullyQualifiedType" : "date",
          "columnName" : "subtax_decision_date",
          "isPrimaryKey" : false,
          "notNull" : false,
          "length" : 0,
          "precision" : 0,
          "generator" : "assigned",
          "isRelated" : false,
          "scale" : 0
        }, {
          "fieldName" : "pinOverride",
          "type" : "string",
          "fullyQualifiedType" : "string",
          "columnName" : "pin_override",
          "isPrimaryKey" : false,
          "notNull" : false,
          "length" : 250,
          "precision" : 0,
          "generator" : "assigned",
          "isRelated" : false,
          "scale" : 0
        }, {
          "fieldName" : "addressOverride",
          "type" : "string",
          "fullyQualifiedType" : "string",
          "columnName" : "address_override",
          "isPrimaryKey" : false,
          "notNull" : false,
          "length" : 250,
          "precision" : 0,
          "generator" : "assigned",
          "isRelated" : false,
          "scale" : 0
        } ]
      }, {
        "fieldName" : "pdfTemplate",
        "type" : "integer",
        "fullyQualifiedType" : "integer",
        "columnName" : "template_id",
        "isPrimaryKey" : false,
        "notNull" : true,
        "length" : 0,
        "precision" : 10,
        "generator" : "assigned",
        "isRelated" : true,
        "relatedTableName" : "pdf_template",
        "relatedEntityName" : "PdfTemplate",
        "relatedColumnName" : "templateId",
        "relatedFieldName" : "pdfTemplate.id",
        "isList" : false,
        "targetTable" : "pdf_template",
        "scale" : 0,
        "columns" : [ {
          "fieldName" : "id",
          "type" : "integer",
          "fullyQualifiedType" : "integer",
          "columnName" : "id",
          "isPrimaryKey" : true,
          "notNull" : true,
          "length" : 0,
          "precision" : 10,
          "generator" : "identity",
          "isRelated" : false,
          "scale" : 0
        }, {
          "fieldName" : "name",
          "type" : "string",
          "fullyQualifiedType" : "string",
          "columnName" : "name",
          "isPrimaryKey" : false,
          "notNull" : true,
          "length" : 50,
          "precision" : 0,
          "generator" : "assigned",
          "isRelated" : false,
          "scale" : 0
        }, {
          "fieldName" : "query",
          "type" : "string",
          "fullyQualifiedType" : "string",
          "columnName" : "query",
          "isPrimaryKey" : false,
          "notNull" : false,
          "length" : 4000,
          "precision" : 0,
          "generator" : "assigned",
          "isRelated" : false,
          "scale" : 0
        }, {
          "fieldName" : "template",
          "type" : "string",
          "fullyQualifiedType" : "string",
          "columnName" : "template",
          "isPrimaryKey" : false,
          "notNull" : false,
          "length" : 6000,
          "precision" : 0,
          "generator" : "assigned",
          "isRelated" : false,
          "scale" : 0
        }, {
          "fieldName" : "documentsDisplay",
          "type" : "boolean",
          "fullyQualifiedType" : "boolean",
          "columnName" : "documents_display",
          "isPrimaryKey" : false,
          "notNull" : true,
          "length" : 0,
          "precision" : 0,
          "generator" : "assigned",
          "isRelated" : false,
          "scale" : 0
        } ]
      }, {
        "fieldName" : "id",
        "type" : "integer",
        "fullyQualifiedType" : "integer",
        "columnName" : "id",
        "isPrimaryKey" : true,
        "notNull" : true,
        "length" : 0,
        "precision" : 10,
        "generator" : "identity",
        "isRelated" : false,
        "scale" : 0
      }, {
        "fieldName" : "createdTimestamp",
        "type" : "timestamp",
        "fullyQualifiedType" : "timestamp",
        "columnName" : "created_timestamp",
        "isPrimaryKey" : false,
        "notNull" : true,
        "length" : 0,
        "precision" : 0,
        "generator" : "assigned",
        "isRelated" : false,
        "scale" : 0
      }, {
        "fieldName" : "link",
        "type" : "string",
        "fullyQualifiedType" : "string",
        "columnName" : "link",
        "isPrimaryKey" : false,
        "notNull" : true,
        "length" : 255,
        "precision" : 0,
        "generator" : "assigned",
        "isRelated" : false,
        "scale" : 0
      }, {
        "fieldName" : "name",
        "type" : "string",
        "fullyQualifiedType" : "string",
        "columnName" : "name",
        "isPrimaryKey" : false,
        "notNull" : false,
        "length" : 50,
        "precision" : 0,
        "generator" : "assigned",
        "isRelated" : false,
        "scale" : 0
      } ],
      "entityName" : "Pdf",
      "fullyQualifiedName" : "com.portal.platform.Pdf",
      "tableType" : "TABLE",
      "primaryFields" : [ "id" ]
    },
    "bindCount" : 1,
    "tableName" : "pdf",
    "tableType" : "TABLE",
    "properties" : [ "asset", "certificate", "pdfTemplate" ],
    "relatedTables" : [ {
      "columnName" : "asset",
      "relationName" : "asset",
      "type" : "Asset",
      "watchOn" : "PlatformAssetData",
      "package" : "com.portal.platform.Pdf"
    }, {
      "columnName" : "certificate",
      "relationName" : "certificate",
      "type" : "Certificate",
      "watchOn" : "PlatformCertificateData",
      "package" : "com.portal.platform.Pdf"
    }, {
      "columnName" : "pdfTemplate",
      "relationName" : "pdfTemplate",
      "type" : "PdfTemplate",
      "watchOn" : "PlatformPdfTemplateData",
      "package" : "com.portal.platform.Pdf"
    } ],
    "filterFields" : { },
    "package" : "com.portal.platform.Pdf"
  },
  "svDeleteBlobFromAzure" : {
    "_id" : "wm-svDeleteBlobFromAzure-wm.ServiceVariable-1508226280754",
    "name" : "svDeleteBlobFromAzure",
    "owner" : "Page",
    "category" : "wm.ServiceVariable",
    "dataBinding" : [ {
      "target" : "deleteFlag",
      "value" : "pdf",
      "type" : "string"
    }, {
      "target" : "url",
      "value" : "bind:Widgets.DocumentLiveList.selecteditem.link",
      "type" : "string"
    }, {
      "target" : "docId",
      "value" : "bind:Widgets.DocumentLiveList.selecteditem.id",
      "type" : "string"
    } ],
    "type" : "string",
    "service" : "PdfJavaService",
    "operation" : "DeleteBlobFromAzureStorage",
    "operationId" : "PdfJavaController_DeleteBlobFromAzureStorage",
    "operationType" : "delete",
    "serviceType" : "JavaService",
    "dataSet" : [ ],
    "isList" : false,
    "maxResults" : 20,
    "onSuccess" : "Actions.nvSuccessDeleteBlob.invoke();Variables.PlatformPdfData.listRecords();Widgets.deleteBlobFromAzure.close()",
    "startUpdate" : false,
    "autoUpdate" : true,
    "inFlightBehavior" : "executeLast",
    "transformationRequired" : false,
    "saveInPhonegap" : false,
    "controller" : "PdfJava"
  }
}