{
  "svAddNote" : {
    "_id" : "wm-svAddNote-wm.ServiceVariable-1474476454747",
    "name" : "svAddNote",
    "owner" : "Page",
    "category" : "wm.ServiceVariable",
    "dataBinding" : [ {
      "target" : "property_id",
      "value" : "bind:$parent.$parent.$parent.$parent.$parent.$parent.Widgets.SearchResultLiveList.selecteditem.property_id",
      "type" : "integer"
    }, {
      "target" : "note",
      "value" : "bind:Widgets.Note.datavalue",
      "type" : "string"
    } ],
    "type" : "com.wavemaker.commons.wrapper.IntegerWrapper",
    "service" : "platform",
    "operation" : "executeAddNote",
    "operationId" : "QueryExecutionController_executeAddNote",
    "operationType" : "post",
    "serviceType" : "DataService",
    "dataSet" : [ ],
    "isList" : false,
    "maxResults" : 20,
    "designMaxResults" : 10,
    "onBeforeUpdate" : "svAddNoteonBeforeUpdate($event, $scope)",
    "onSuccess" : "svAddNoteonSuccess($event, $scope)",
    "startUpdate" : false,
    "autoUpdate" : false,
    "inFlightBehavior" : "executeLast",
    "transformationRequired" : false,
    "saveInPhonegap" : false,
    "controller" : "QueryExecution"
  }
}