{
  "ErrorSQL" : {
    "_id" : "wm-ErrorSQL-wm.NotificationVariable-1475737528775",
    "name" : "ErrorSQL",
    "owner" : "Page",
    "category" : "wm.NotificationVariable",
    "dataBinding" : [ {
      "target" : "content",
      "value" : "inline",
      "type" : "list"
    }, {
      "target" : "duration",
      "value" : "5000",
      "type" : "list"
    }, {
      "target" : "class",
      "value" : "Error",
      "type" : "list"
    }, {
      "target" : "toasterPosition",
      "value" : "bottom right",
      "type" : "list"
    } ],
    "operation" : "toast"
  },
  "SuccessUpdateCase" : {
    "_id" : "wm-SuccessUpdateCase-wm.NotificationVariable-1475737267967",
    "name" : "SuccessUpdateCase",
    "owner" : "Page",
    "category" : "wm.NotificationVariable",
    "dataBinding" : [ {
      "target" : "content",
      "value" : "inline",
      "type" : "list"
    }, {
      "target" : "text",
      "value" : "Successfully updated the case details",
      "type" : "string"
    }, {
      "target" : "duration",
      "value" : "5000",
      "type" : "list"
    }, {
      "target" : "class",
      "value" : "Success",
      "type" : "list"
    }, {
      "target" : "toasterPosition",
      "value" : "bottom right",
      "type" : "list"
    } ],
    "operation" : "toast"
  },
  "SuccessUpdateCloseMatter" : {
    "_id" : "wm-SuccessUpdateCloseMatter-wm.NotificationVariable-1482232166909",
    "name" : "SuccessUpdateCloseMatter",
    "owner" : "Page",
    "category" : "wm.NotificationVariable",
    "dataBinding" : [ {
      "target" : "content",
      "value" : "inline",
      "type" : "string"
    }, {
      "target" : "text",
      "value" : "Successfully closed the case",
      "type" : "string"
    }, {
      "target" : "duration",
      "value" : "5000",
      "type" : "number"
    }, {
      "target" : "class",
      "value" : "Success",
      "type" : "string"
    }, {
      "target" : "toasterPosition",
      "value" : "bottom right",
      "type" : "string"
    } ],
    "operation" : "toast"
  },
  "svCloseMatterTemplate" : {
    "_id" : "wm-svCloseMatterTemplate-wm.ServiceVariable-1482743024289",
    "name" : "svCloseMatterTemplate",
    "owner" : "Page",
    "category" : "wm.ServiceVariable",
    "dataBinding" : [ {
      "target" : "template_name",
      "value" : "Dismiss Case",
      "type" : "string"
    } ],
    "type" : "com.portal.platform.models.query.QryPdfTemplatePerNameResponse",
    "service" : "platform",
    "operation" : "executeQryPdfTemplatePerName",
    "operationId" : "QueryExecutionController_executeQryPdfTemplatePerName",
    "operationType" : "get",
    "serviceType" : "DataService",
    "dataSet" : [ ],
    "isList" : true,
    "maxResults" : 20,
    "designMaxResults" : 10,
    "startUpdate" : true,
    "autoUpdate" : false,
    "inFlightBehavior" : "executeLast",
    "transformationRequired" : false,
    "saveInPhonegap" : false,
    "controller" : "QueryExecution"
  },
  "svCountyCostDetails" : {
    "_id" : "wm-svLegalDetails-wm.ServiceVariable-1482756220389",
    "name" : "svCountyCostDetails",
    "owner" : "Page",
    "category" : "wm.ServiceVariable",
    "dataBinding" : [ {
      "target" : "selected_certificate_id",
      "value" : "bind:activePageName === \"service\" ? $parent.$parent.$parent.$parent.Widgets.SearchResultLiveList.selecteditem.certificate_id : $parent.Widgets.SearchResultLiveList.selecteditem.certificate_id",
      "type" : "integer"
    } ],
    "type" : "com.portal.platform.models.query.QryLegalCountyCostResponse",
    "service" : "platform",
    "operation" : "executeQryLegalCountyCost",
    "operationId" : "QueryExecutionController_executeQryLegalCountyCost",
    "operationType" : "get",
    "serviceType" : "DataService",
    "dataSet" : [ ],
    "isList" : true,
    "maxResults" : 20,
    "designMaxResults" : 10,
    "startUpdate" : false,
    "autoUpdate" : true,
    "inFlightBehavior" : "executeLast",
    "transformationRequired" : false,
    "saveInPhonegap" : false,
    "controller" : "QueryExecution"
  },
  "svProcUpdateCase" : {
    "_id" : "wm-svProcUpdateCase-wm.ServiceVariable-1482230922606",
    "name" : "svProcUpdateCase",
    "owner" : "Page",
    "category" : "wm.ServiceVariable",
    "dataBinding" : [ {
      "target" : "selected_certificate",
      "value" : "bind:$parent.$parent.$parent.$parent.Widgets.SearchResultLiveList.selecteditem.certificate_id",
      "type" : "integer"
    }, {
      "target" : "case_number",
      "value" : "bind:Widgets.formCaseDetails.formWidgets.textCaseNumber.datavalue",
      "type" : "string"
    }, {
      "target" : "filed_date",
      "value" : "bind:Widgets.formCaseDetails.formWidgets.dateCaseFiled.datavalue",
      "type" : "string"
    }, {
      "target" : "first_court_date",
      "value" : "bind:Widgets.formCaseDetails.formWidgets.dateCourt.datavalue",
      "type" : "string"
    }, {
      "target" : "logged_in_user",
      "value" : "bind:Variables.loggedInUser.dataSet.name",
      "type" : "string"
    }, {
      "target" : "filing_cost",
      "value" : "bind:Widgets.formCaseDetails.formWidgets.textFillingCost.datavalue",
      "type" : "number"
    }, {
      "target" : "filing_revenue",
      "value" : "bind:Widgets.formCaseDetails.formWidgets.textFillingRevenue.datavalue",
      "type" : "number"
    } ],
    "type" : "com.portal.platform.models.procedure.ProcCreateMatterResponse",
    "service" : "platform",
    "operation" : "executeProcCreateMatter",
    "operationId" : "ProcedureExecutionController_executeProcCreateMatter",
    "operationType" : "get",
    "serviceType" : "DataService",
    "dataSet" : [ ],
    "isList" : true,
    "maxResults" : 20,
    "designMaxResults" : 10,
    "onSuccess" : "Variables.SuccessUpdateCase.invoke();Widgets.UpdateCaseDialog.close();svProcUpdateCaseonSuccess($event, $scope)",
    "onError" : "svProcUpdateCaseonError($event, $scope)",
    "startUpdate" : false,
    "autoUpdate" : false,
    "inFlightBehavior" : "executeLast",
    "transformationRequired" : false,
    "saveInPhonegap" : false,
    "controller" : "ProcedureExecution"
  },
  "svQryCloseMatter" : {
    "_id" : "wm-svQryCloseMatter-wm.ServiceVariable-1482231994499",
    "name" : "svQryCloseMatter",
    "owner" : "Page",
    "category" : "wm.ServiceVariable",
    "dataBinding" : [ {
      "target" : "selected_matter_id",
      "value" : "bind:Variables.svQryLegalDetails.dataSet[$i].id",
      "type" : "integer"
    } ],
    "type" : "com.wavemaker.commons.wrapper.IntegerWrapper",
    "service" : "platform",
    "operation" : "executeQryUpdateMatterClosed",
    "operationId" : "QueryExecutionController_executeQryUpdateMatterClosed",
    "operationType" : "put",
    "serviceType" : "DataService",
    "dataSet" : [ ],
    "isList" : false,
    "maxResults" : 20,
    "designMaxResults" : 10,
    "onSuccess" : "svQryCloseMatteronSuccess($event, $scope)",
    "onError" : "svQryCloseMatteronError($event, $scope)",
    "startUpdate" : false,
    "autoUpdate" : false,
    "inFlightBehavior" : "executeLast",
    "transformationRequired" : false,
    "saveInPhonegap" : false,
    "controller" : "QueryExecution"
  },
  "svQryLegalDetails" : {
    "_id" : "wm-svQryLegalDetails-wm.ServiceVariable-1475659864892",
    "name" : "svQryLegalDetails",
    "owner" : "Page",
    "category" : "wm.ServiceVariable",
    "dataBinding" : [ {
      "target" : "selected_certificate_id",
      "value" : "bind:activePageName === \"service\" ? $parent.Widgets.SearchResultLiveList.selecteditem.certificate_id : $parent.Widgets.SearchResultLiveList.selecteditem.certificate_id",
      "type" : "integer"
    } ],
    "type" : "com.portal.platform.models.query.QryLegalByCertificateIdResponse",
    "service" : "platform",
    "operation" : "executeQryLegalByCertificateId",
    "operationId" : "QueryExecutionController_executeQryLegalByCertificateId",
    "operationType" : "get",
    "serviceType" : "DataService",
    "dataSet" : [ ],
    "isList" : true,
    "maxResults" : 20,
    "designMaxResults" : 10,
    "startUpdate" : false,
    "autoUpdate" : true,
    "inFlightBehavior" : "executeLast",
    "transformationRequired" : false,
    "saveInPhonegap" : false,
    "controller" : "QueryExecution"
  },
  "svUpdateCase" : {
    "_id" : "wm-svUpdateCase-wm.ServiceVariable-1475737267966",
    "name" : "svUpdateCase",
    "owner" : "Page",
    "category" : "wm.ServiceVariable",
    "dataBinding" : [ {
      "target" : "matter_number",
      "value" : "bind:Widgets.textCaseNumber.datavalue",
      "type" : "string"
    }, {
      "target" : "filed_date",
      "value" : "bind:Widgets.dateCaseFiled.datavalue",
      "type" : "string"
    }, {
      "target" : "initial_court_date",
      "value" : "bind:Widgets.dateCourt.datavalue",
      "type" : "string"
    }, {
      "target" : "closed_date",
      "value" : "bind:Widgets.dateDismissal.datavalue",
      "type" : "string"
    }, {
      "target" : "pin_override",
      "value" : "bind:Widgets.textPIN.datavalue",
      "type" : "string"
    }, {
      "target" : "address_override",
      "value" : "bind:Widgets.textAddress.datavalue",
      "type" : "string"
    }, {
      "target" : "certificate_id",
      "value" : "bind:Widgets.labelCertificateID.caption",
      "type" : "integer"
    } ],
    "type" : "com.wavemaker.commons.wrapper.IntegerWrapper",
    "service" : "platform",
    "operation" : "executeQryUpdateCase",
    "operationId" : "QueryExecutionController_executeQryUpdateCase",
    "operationType" : "put",
    "serviceType" : "DataService",
    "dataSet" : [ ],
    "isList" : false,
    "maxResults" : 20,
    "designMaxResults" : 10,
    "onSuccess" : "Variables.SuccessUpdateCase.invoke();Variables.svQryLegalDetails.invoke();Widgets.UpdateCaseDialog.close()",
    "onError" : "svUpdateCaseonError($event, $scope)",
    "startUpdate" : false,
    "autoUpdate" : false,
    "inFlightBehavior" : "executeLast",
    "transformationRequired" : false,
    "saveInPhonegap" : false,
    "controller" : "QueryExecution"
  },
  "svUpdateExpiration" : {
    "_id" : "wm-svUpdateExpiration-wm.ServiceVariable-1476697906685",
    "name" : "svUpdateExpiration",
    "owner" : "Page",
    "category" : "wm.ServiceVariable",
    "dataBinding" : [ {
      "target" : "expiration_date",
      "value" : "bind:Widgets.dateExpiration.datavalue",
      "type" : "string"
    } ],
    "type" : "com.wavemaker.commons.wrapper.IntegerWrapper",
    "service" : "platform",
    "operation" : "executeQryUpdateExpirationDate",
    "operationId" : "QueryExecutionController_executeQryUpdateExpirationDate",
    "operationType" : "put",
    "serviceType" : "DataService",
    "dataSet" : [ ],
    "isList" : false,
    "maxResults" : 20,
    "designMaxResults" : 10,
    "onSuccess" : "svUpdateExpirationonSuccess($event, $scope)",
    "onError" : "svUpdateExpirationonError($event, $scope)",
    "startUpdate" : false,
    "autoUpdate" : false,
    "inFlightBehavior" : "executeLast",
    "transformationRequired" : false,
    "saveInPhonegap" : false,
    "controller" : "QueryExecution"
  }
}