{
  "ErrorUpdateAvailableSub" : {
    "_id" : "wm-notificationVariable1-wm.NotificationVariable-1484821321292",
    "name" : "ErrorUpdateAvailableSub",
    "owner" : "Page",
    "category" : "wm.NotificationVariable",
    "dataBinding" : [ {
      "target" : "content",
      "value" : "inline",
      "type" : "string"
    }, {
      "target" : "duration",
      "value" : "5000",
      "type" : "number"
    }, {
      "target" : "class",
      "value" : "Error",
      "type" : "string"
    }, {
      "target" : "toasterPosition",
      "value" : "bottom right",
      "type" : "string"
    } ],
    "operation" : "toast"
  },
  "SuccessUpdateAvailableSub" : {
    "_id" : "wm-SuccessUpdateAvailableSub-wm.NotificationVariable-1484821245001",
    "name" : "SuccessUpdateAvailableSub",
    "owner" : "Page",
    "category" : "wm.NotificationVariable",
    "dataBinding" : [ {
      "target" : "content",
      "value" : "inline",
      "type" : "string"
    }, {
      "target" : "text",
      "value" : "Successfully updated available sub",
      "type" : "string"
    }, {
      "target" : "duration",
      "value" : "5000",
      "type" : "number"
    }, {
      "target" : "class",
      "value" : "Success",
      "type" : "string"
    }, {
      "target" : "toasterPosition",
      "value" : "bottom right",
      "type" : "string"
    } ],
    "operation" : "toast"
  },
  "svPortalAuctionDataFromPropertyID" : {
    "_id" : "wm-svPortalAuctionDataFromPropertyID-wm.ServiceVariable-1473676064542",
    "name" : "svPortalAuctionDataFromPropertyID",
    "owner" : "Page",
    "category" : "wm.ServiceVariable",
    "dataBinding" : [ {
      "target" : "property_id",
      "value" : "bind:$parent.Widgets.SearchResultLiveList.selecteditem.property_id",
      "type" : "integer"
    } ],
    "type" : "com.portal.platform.models.query.QryPortalInspectionFilterByIdResponse",
    "service" : "platform",
    "operation" : "executeQryPortalInspectionFilterByID",
    "operationId" : "QueryExecutionController_executeQryPortalInspectionFilterByID",
    "operationType" : "get",
    "serviceType" : "DataService",
    "dataSet" : [ ],
    "isList" : true,
    "maxResults" : 20,
    "designMaxResults" : 10,
    "startUpdate" : false,
    "autoUpdate" : true,
    "inFlightBehavior" : "executeLast",
    "transformationRequired" : false,
    "saveInPhonegap" : false,
    "controller" : "QueryExecution"
  },
  "svQryFetchAvailableSub" : {
    "_id" : "wm-svQryFetchAvailableSub-wm.ServiceVariable-1484816084793",
    "name" : "svQryFetchAvailableSub",
    "owner" : "Page",
    "category" : "wm.ServiceVariable",
    "dataBinding" : [ {
      "target" : "selected_auction_id",
      "value" : "bind:Variables.svPortalAuctionDataFromPropertyID.dataSet[$i].auction_id",
      "type" : "integer"
    } ],
    "type" : "com.portal.platform.models.query.QryGetAvailableSubResponse",
    "service" : "platform",
    "operation" : "executeQryGetAvailableSub",
    "operationId" : "QueryExecutionController_executeQryGetAvailableSub",
    "operationType" : "get",
    "serviceType" : "DataService",
    "dataSet" : [ ],
    "isList" : true,
    "maxResults" : -1,
    "designMaxResults" : 10,
    "startUpdate" : false,
    "autoUpdate" : true,
    "inFlightBehavior" : "executeLast",
    "transformationRequired" : false,
    "saveInPhonegap" : false,
    "controller" : "QueryExecution"
  },
  "svUpdateAvailableSub" : {
    "_id" : "wm-svUpdateAvailableSub-wm.ServiceVariable-1484820871733",
    "name" : "svUpdateAvailableSub",
    "owner" : "Page",
    "category" : "wm.ServiceVariable",
    "dataBinding" : [ {
      "target" : "inst1",
      "value" : "bind:Widgets.AuctionTaxSub.formWidgets.inst1.datavalue",
      "type" : "number"
    }, {
      "target" : "inst2",
      "value" : "bind:Widgets.AuctionTaxSub.formWidgets.inst2.datavalue",
      "type" : "number"
    }, {
      "target" : "total",
      "value" : "bind:Widgets.AuctionTaxSub.formWidgets.total.datavalue",
      "type" : "number"
    }, {
      "target" : "selected_sub_id",
      "value" : "bind:Variables.svQryFetchAvailableSub.dataSet[$i].id",
      "type" : "integer"
    } ],
    "type" : "com.wavemaker.commons.wrapper.IntegerWrapper",
    "service" : "platform",
    "operation" : "executeQryUpdateAvailableSub",
    "operationId" : "QueryExecutionController_executeQryUpdateAvailableSub",
    "operationType" : "put",
    "serviceType" : "DataService",
    "dataSet" : [ ],
    "isList" : false,
    "maxResults" : 20,
    "designMaxResults" : 10,
    "onSuccess" : "Widgets.UpdateSubDialog.close();Variables.SuccessUpdateAvailableSub.invoke();Variables.svPortalAuctionDataFromPropertyID.invoke();Variables.svQryFetchAvailableSub.invoke()",
    "onError" : "svUpdateAvailableSubonError($event, $scope)",
    "startUpdate" : false,
    "autoUpdate" : false,
    "inFlightBehavior" : "executeLast",
    "transformationRequired" : false,
    "saveInPhonegap" : false,
    "controller" : "QueryExecution"
  }
}