{
  "ContactType" : {
    "_id" : "wm-ContactType-wm.LiveVariable-1512129693899",
    "name" : "ContactType",
    "owner" : "Page",
    "category" : "wm.LiveVariable",
    "dataBinding" : [ {
      "target" : "type",
      "value" : "contact_type",
      "type" : "string"
    } ],
    "operation" : "read",
    "dataSet" : [ ],
    "type" : "Option",
    "isList" : false,
    "saveInPhonegap" : false,
    "maxResults" : 20,
    "designMaxResults" : 10,
    "inFlightBehavior" : "executeLast",
    "startUpdate" : true,
    "autoUpdate" : true,
    "transformationRequired" : false,
    "liveSource" : "platform",
    "ignoreCase" : true,
    "matchMode" : "start",
    "orderBy" : "id asc",
    "propertiesMap" : {
      "columns" : [ {
        "fieldName" : "id",
        "type" : "integer",
        "fullyQualifiedType" : "integer",
        "columnName" : "id",
        "isPrimaryKey" : true,
        "notNull" : true,
        "length" : 0,
        "precision" : 10,
        "generator" : "identity",
        "isRelated" : false,
        "scale" : 0
      }, {
        "fieldName" : "name",
        "type" : "string",
        "fullyQualifiedType" : "string",
        "columnName" : "name",
        "isPrimaryKey" : false,
        "notNull" : true,
        "length" : 25,
        "precision" : 0,
        "generator" : "assigned",
        "isRelated" : false,
        "scale" : 0
      }, {
        "fieldName" : "type",
        "type" : "string",
        "fullyQualifiedType" : "string",
        "columnName" : "type",
        "isPrimaryKey" : false,
        "notNull" : true,
        "length" : 25,
        "precision" : 0,
        "generator" : "assigned",
        "isRelated" : false,
        "scale" : 0
      } ],
      "entityName" : "Option",
      "fullyQualifiedName" : "com.portal.platform.Option",
      "tableType" : "TABLE",
      "primaryFields" : [ "id" ]
    },
    "bindCount" : 2,
    "tableName" : "option",
    "tableType" : "TABLE",
    "properties" : [ ],
    "relatedTables" : [ ],
    "filterFields" : { },
    "package" : "com.portal.platform.Option"
  },
  "PlatformContactData" : {
    "_id" : "wm-PlatformContactData-wm.LiveVariable-1506430894648",
    "name" : "PlatformContactData",
    "owner" : "Page",
    "category" : "wm.LiveVariable",
    "dataBinding" : [ ],
    "operation" : "read",
    "dataSet" : [ ],
    "type" : "Contact",
    "isList" : true,
    "saveInPhonegap" : false,
    "maxResults" : 20,
    "designMaxResults" : 10,
    "inFlightBehavior" : "executeLast",
    "startUpdate" : true,
    "autoUpdate" : false,
    "transformationRequired" : false,
    "liveSource" : "platform",
    "ignoreCase" : true,
    "matchMode" : "start",
    "orderBy" : "id asc",
    "propertiesMap" : {
      "columns" : [ {
        "fieldName" : "state",
        "type" : "integer",
        "fullyQualifiedType" : "integer",
        "columnName" : "address_state_id",
        "isPrimaryKey" : false,
        "notNull" : false,
        "length" : 0,
        "precision" : 10,
        "generator" : "assigned",
        "isRelated" : true,
        "relatedTableName" : "state",
        "relatedEntityName" : "State",
        "relatedColumnName" : "addressStateId",
        "relatedFieldName" : "state.id",
        "isList" : false,
        "targetTable" : "state",
        "scale" : 0,
        "columns" : [ {
          "fieldName" : "id",
          "type" : "integer",
          "fullyQualifiedType" : "integer",
          "columnName" : "id",
          "isPrimaryKey" : true,
          "notNull" : true,
          "length" : 0,
          "precision" : 10,
          "generator" : "identity",
          "isRelated" : false,
          "scale" : 0
        }, {
          "fieldName" : "state",
          "type" : "string",
          "fullyQualifiedType" : "string",
          "columnName" : "state",
          "isPrimaryKey" : false,
          "notNull" : true,
          "length" : 2,
          "precision" : 0,
          "generator" : "assigned",
          "isRelated" : false,
          "scale" : 0
        }, {
          "fieldName" : "interestType",
          "type" : "string",
          "fullyQualifiedType" : "string",
          "columnName" : "interest_type",
          "isPrimaryKey" : false,
          "notNull" : false,
          "length" : 9,
          "precision" : 0,
          "generator" : "assigned",
          "isRelated" : false,
          "scale" : 0
        }, {
          "fieldName" : "frequency",
          "type" : "string",
          "fullyQualifiedType" : "string",
          "columnName" : "frequency",
          "isPrimaryKey" : false,
          "notNull" : false,
          "length" : 2,
          "precision" : 0,
          "generator" : "assigned",
          "isRelated" : false,
          "scale" : 0
        }, {
          "fieldName" : "certPeriod",
          "type" : "integer",
          "fullyQualifiedType" : "integer",
          "columnName" : "cert_period",
          "isPrimaryKey" : false,
          "notNull" : false,
          "length" : 0,
          "precision" : 10,
          "generator" : "assigned",
          "isRelated" : false,
          "scale" : 0
        }, {
          "fieldName" : "subPeriod",
          "type" : "integer",
          "fullyQualifiedType" : "integer",
          "columnName" : "sub_period",
          "isPrimaryKey" : false,
          "notNull" : false,
          "length" : 0,
          "precision" : 10,
          "generator" : "assigned",
          "isRelated" : false,
          "scale" : 0
        }, {
          "fieldName" : "subRate",
          "type" : "big_decimal",
          "fullyQualifiedType" : "big_decimal",
          "columnName" : "sub_rate",
          "isPrimaryKey" : false,
          "notNull" : false,
          "length" : 0,
          "precision" : 15,
          "generator" : "assigned",
          "isRelated" : false,
          "scale" : 9
        }, {
          "fieldName" : "termMonths",
          "type" : "integer",
          "fullyQualifiedType" : "integer",
          "columnName" : "term_months",
          "isPrimaryKey" : false,
          "notNull" : false,
          "length" : 0,
          "precision" : 10,
          "generator" : "assigned",
          "isRelated" : false,
          "scale" : 0
        }, {
          "fieldName" : "active",
          "type" : "boolean",
          "fullyQualifiedType" : "boolean",
          "columnName" : "active",
          "isPrimaryKey" : false,
          "notNull" : true,
          "length" : 0,
          "precision" : 0,
          "generator" : "assigned",
          "isRelated" : false,
          "scale" : 0
        }, {
          "fieldName" : "roundingThreshold",
          "type" : "float",
          "fullyQualifiedType" : "float",
          "columnName" : "rounding_threshold",
          "isPrimaryKey" : false,
          "notNull" : true,
          "length" : 0,
          "precision" : 3,
          "generator" : "assigned",
          "isRelated" : false,
          "defaultValue" : "0",
          "scale" : 2
        } ]
      }, {
        "fieldName" : "option",
        "type" : "integer",
        "fullyQualifiedType" : "integer",
        "columnName" : "type_id",
        "isPrimaryKey" : false,
        "notNull" : true,
        "length" : 0,
        "precision" : 10,
        "generator" : "assigned",
        "isRelated" : true,
        "relatedTableName" : "option",
        "relatedEntityName" : "Option",
        "relatedColumnName" : "typeId",
        "relatedFieldName" : "option.id",
        "isList" : false,
        "targetTable" : "option",
        "scale" : 0,
        "columns" : [ {
          "fieldName" : "id",
          "type" : "integer",
          "fullyQualifiedType" : "integer",
          "columnName" : "id",
          "isPrimaryKey" : true,
          "notNull" : true,
          "length" : 0,
          "precision" : 10,
          "generator" : "identity",
          "isRelated" : false,
          "scale" : 0
        }, {
          "fieldName" : "name",
          "type" : "string",
          "fullyQualifiedType" : "string",
          "columnName" : "name",
          "isPrimaryKey" : false,
          "notNull" : true,
          "length" : 25,
          "precision" : 0,
          "generator" : "assigned",
          "isRelated" : false,
          "scale" : 0
        }, {
          "fieldName" : "type",
          "type" : "string",
          "fullyQualifiedType" : "string",
          "columnName" : "type",
          "isPrimaryKey" : false,
          "notNull" : true,
          "length" : 25,
          "precision" : 0,
          "generator" : "assigned",
          "isRelated" : false,
          "scale" : 0
        } ]
      }, {
        "fieldName" : "id",
        "type" : "integer",
        "fullyQualifiedType" : "integer",
        "columnName" : "id",
        "isPrimaryKey" : true,
        "notNull" : true,
        "length" : 0,
        "precision" : 10,
        "generator" : "identity",
        "isRelated" : false,
        "scale" : 0
      }, {
        "fieldName" : "company",
        "type" : "string",
        "fullyQualifiedType" : "string",
        "columnName" : "company",
        "isPrimaryKey" : false,
        "notNull" : false,
        "length" : 50,
        "precision" : 0,
        "generator" : "assigned",
        "isRelated" : false,
        "scale" : 0
      }, {
        "fieldName" : "name",
        "type" : "string",
        "fullyQualifiedType" : "string",
        "columnName" : "name",
        "isPrimaryKey" : false,
        "notNull" : false,
        "length" : 50,
        "precision" : 0,
        "generator" : "assigned",
        "isRelated" : false,
        "scale" : 0
      }, {
        "fieldName" : "email",
        "type" : "string",
        "fullyQualifiedType" : "string",
        "columnName" : "email",
        "isPrimaryKey" : false,
        "notNull" : false,
        "length" : 50,
        "precision" : 0,
        "generator" : "assigned",
        "isRelated" : false,
        "scale" : 0
      }, {
        "fieldName" : "phone",
        "type" : "long",
        "fullyQualifiedType" : "long",
        "columnName" : "phone",
        "isPrimaryKey" : false,
        "notNull" : false,
        "length" : 0,
        "precision" : 19,
        "generator" : "assigned",
        "isRelated" : false,
        "scale" : 0
      }, {
        "fieldName" : "addressLine1",
        "type" : "string",
        "fullyQualifiedType" : "string",
        "columnName" : "address_line1",
        "isPrimaryKey" : false,
        "notNull" : false,
        "length" : 250,
        "precision" : 0,
        "generator" : "assigned",
        "isRelated" : false,
        "scale" : 0
      }, {
        "fieldName" : "addressCity",
        "type" : "string",
        "fullyQualifiedType" : "string",
        "columnName" : "address_city",
        "isPrimaryKey" : false,
        "notNull" : false,
        "length" : 50,
        "precision" : 0,
        "generator" : "assigned",
        "isRelated" : false,
        "scale" : 0
      }, {
        "fieldName" : "addressZip",
        "type" : "integer",
        "fullyQualifiedType" : "integer",
        "columnName" : "address_zip",
        "isPrimaryKey" : false,
        "notNull" : false,
        "length" : 0,
        "precision" : 10,
        "generator" : "assigned",
        "isRelated" : false,
        "scale" : 0
      }, {
        "fieldName" : "appetite",
        "type" : "string",
        "fullyQualifiedType" : "string",
        "columnName" : "appetite",
        "isPrimaryKey" : false,
        "notNull" : false,
        "length" : 250,
        "precision" : 0,
        "generator" : "assigned",
        "isRelated" : false,
        "scale" : 0
      } ],
      "entityName" : "Contact",
      "fullyQualifiedName" : "com.portal.platform.Contact",
      "tableType" : "TABLE",
      "primaryFields" : [ "id" ]
    },
    "isDefault" : true,
    "bindCount" : 3,
    "tableName" : "contact",
    "tableType" : "TABLE",
    "properties" : [ "state", "option" ],
    "relatedTables" : [ {
      "columnName" : "state",
      "relationName" : "state",
      "type" : "State",
      "watchOn" : "PlatformStateData",
      "package" : "com.portal.platform.Contact"
    }, {
      "columnName" : "option",
      "relationName" : "option",
      "type" : "Option",
      "watchOn" : "PlatformOptionData",
      "package" : "com.portal.platform.Contact"
    } ],
    "filterFields" : { },
    "package" : "com.portal.platform.Contact"
  },
  "SearchContact" : {
    "_id" : "wm-SearchContact-wm.LiveVariable-1512129593699",
    "name" : "SearchContact",
    "owner" : "Page",
    "category" : "wm.LiveVariable",
    "dataBinding" : [ ],
    "operation" : "read",
    "dataSet" : [ ],
    "type" : "Contact",
    "isList" : false,
    "saveInPhonegap" : false,
    "maxResults" : 20,
    "designMaxResults" : 10,
    "inFlightBehavior" : "executeLast",
    "startUpdate" : true,
    "autoUpdate" : true,
    "transformationRequired" : false,
    "liveSource" : "platform",
    "ignoreCase" : true,
    "matchMode" : "start",
    "orderBy" : "id asc",
    "propertiesMap" : {
      "columns" : [ {
        "fieldName" : "state",
        "type" : "integer",
        "fullyQualifiedType" : "integer",
        "columnName" : "address_state_id",
        "isPrimaryKey" : false,
        "notNull" : false,
        "length" : 0,
        "precision" : 10,
        "generator" : "assigned",
        "isRelated" : true,
        "relatedTableName" : "state",
        "relatedEntityName" : "State",
        "relatedColumnName" : "addressStateId",
        "relatedFieldName" : "state.id",
        "isList" : false,
        "targetTable" : "state",
        "scale" : 0,
        "columns" : [ {
          "fieldName" : "id",
          "type" : "integer",
          "fullyQualifiedType" : "integer",
          "columnName" : "id",
          "isPrimaryKey" : true,
          "notNull" : true,
          "length" : 0,
          "precision" : 10,
          "generator" : "identity",
          "isRelated" : false,
          "scale" : 0
        }, {
          "fieldName" : "state",
          "type" : "string",
          "fullyQualifiedType" : "string",
          "columnName" : "state",
          "isPrimaryKey" : false,
          "notNull" : true,
          "length" : 2,
          "precision" : 0,
          "generator" : "assigned",
          "isRelated" : false,
          "scale" : 0
        }, {
          "fieldName" : "interestType",
          "type" : "string",
          "fullyQualifiedType" : "string",
          "columnName" : "interest_type",
          "isPrimaryKey" : false,
          "notNull" : false,
          "length" : 9,
          "precision" : 0,
          "generator" : "assigned",
          "isRelated" : false,
          "scale" : 0
        }, {
          "fieldName" : "frequency",
          "type" : "string",
          "fullyQualifiedType" : "string",
          "columnName" : "frequency",
          "isPrimaryKey" : false,
          "notNull" : false,
          "length" : 2,
          "precision" : 0,
          "generator" : "assigned",
          "isRelated" : false,
          "scale" : 0
        }, {
          "fieldName" : "certPeriod",
          "type" : "integer",
          "fullyQualifiedType" : "integer",
          "columnName" : "cert_period",
          "isPrimaryKey" : false,
          "notNull" : false,
          "length" : 0,
          "precision" : 10,
          "generator" : "assigned",
          "isRelated" : false,
          "scale" : 0
        }, {
          "fieldName" : "subPeriod",
          "type" : "integer",
          "fullyQualifiedType" : "integer",
          "columnName" : "sub_period",
          "isPrimaryKey" : false,
          "notNull" : false,
          "length" : 0,
          "precision" : 10,
          "generator" : "assigned",
          "isRelated" : false,
          "scale" : 0
        }, {
          "fieldName" : "subRate",
          "type" : "big_decimal",
          "fullyQualifiedType" : "big_decimal",
          "columnName" : "sub_rate",
          "isPrimaryKey" : false,
          "notNull" : false,
          "length" : 0,
          "precision" : 15,
          "generator" : "assigned",
          "isRelated" : false,
          "scale" : 9
        }, {
          "fieldName" : "termMonths",
          "type" : "integer",
          "fullyQualifiedType" : "integer",
          "columnName" : "term_months",
          "isPrimaryKey" : false,
          "notNull" : false,
          "length" : 0,
          "precision" : 10,
          "generator" : "assigned",
          "isRelated" : false,
          "scale" : 0
        }, {
          "fieldName" : "active",
          "type" : "boolean",
          "fullyQualifiedType" : "boolean",
          "columnName" : "active",
          "isPrimaryKey" : false,
          "notNull" : true,
          "length" : 0,
          "precision" : 0,
          "generator" : "assigned",
          "isRelated" : false,
          "scale" : 0
        }, {
          "fieldName" : "roundingThreshold",
          "type" : "float",
          "fullyQualifiedType" : "float",
          "columnName" : "rounding_threshold",
          "isPrimaryKey" : false,
          "notNull" : true,
          "length" : 0,
          "precision" : 3,
          "generator" : "assigned",
          "isRelated" : false,
          "defaultValue" : "0",
          "scale" : 2
        } ]
      }, {
        "fieldName" : "option",
        "type" : "integer",
        "fullyQualifiedType" : "integer",
        "columnName" : "type_id",
        "isPrimaryKey" : false,
        "notNull" : true,
        "length" : 0,
        "precision" : 10,
        "generator" : "assigned",
        "isRelated" : true,
        "relatedTableName" : "option",
        "relatedEntityName" : "Option",
        "relatedColumnName" : "typeId",
        "relatedFieldName" : "option.id",
        "isList" : false,
        "targetTable" : "option",
        "scale" : 0,
        "columns" : [ {
          "fieldName" : "id",
          "type" : "integer",
          "fullyQualifiedType" : "integer",
          "columnName" : "id",
          "isPrimaryKey" : true,
          "notNull" : true,
          "length" : 0,
          "precision" : 10,
          "generator" : "identity",
          "isRelated" : false,
          "scale" : 0
        }, {
          "fieldName" : "name",
          "type" : "string",
          "fullyQualifiedType" : "string",
          "columnName" : "name",
          "isPrimaryKey" : false,
          "notNull" : true,
          "length" : 25,
          "precision" : 0,
          "generator" : "assigned",
          "isRelated" : false,
          "scale" : 0
        }, {
          "fieldName" : "type",
          "type" : "string",
          "fullyQualifiedType" : "string",
          "columnName" : "type",
          "isPrimaryKey" : false,
          "notNull" : true,
          "length" : 25,
          "precision" : 0,
          "generator" : "assigned",
          "isRelated" : false,
          "scale" : 0
        } ]
      }, {
        "fieldName" : "id",
        "type" : "integer",
        "fullyQualifiedType" : "integer",
        "columnName" : "id",
        "isPrimaryKey" : true,
        "notNull" : true,
        "length" : 0,
        "precision" : 10,
        "generator" : "identity",
        "isRelated" : false,
        "scale" : 0
      }, {
        "fieldName" : "company",
        "type" : "string",
        "fullyQualifiedType" : "string",
        "columnName" : "company",
        "isPrimaryKey" : false,
        "notNull" : false,
        "length" : 50,
        "precision" : 0,
        "generator" : "assigned",
        "isRelated" : false,
        "scale" : 0
      }, {
        "fieldName" : "name",
        "type" : "string",
        "fullyQualifiedType" : "string",
        "columnName" : "name",
        "isPrimaryKey" : false,
        "notNull" : false,
        "length" : 50,
        "precision" : 0,
        "generator" : "assigned",
        "isRelated" : false,
        "scale" : 0
      }, {
        "fieldName" : "email",
        "type" : "string",
        "fullyQualifiedType" : "string",
        "columnName" : "email",
        "isPrimaryKey" : false,
        "notNull" : false,
        "length" : 50,
        "precision" : 0,
        "generator" : "assigned",
        "isRelated" : false,
        "scale" : 0
      }, {
        "fieldName" : "phone",
        "type" : "long",
        "fullyQualifiedType" : "long",
        "columnName" : "phone",
        "isPrimaryKey" : false,
        "notNull" : false,
        "length" : 0,
        "precision" : 19,
        "generator" : "assigned",
        "isRelated" : false,
        "scale" : 0
      }, {
        "fieldName" : "addressLine1",
        "type" : "string",
        "fullyQualifiedType" : "string",
        "columnName" : "address_line1",
        "isPrimaryKey" : false,
        "notNull" : false,
        "length" : 250,
        "precision" : 0,
        "generator" : "assigned",
        "isRelated" : false,
        "scale" : 0
      }, {
        "fieldName" : "addressCity",
        "type" : "string",
        "fullyQualifiedType" : "string",
        "columnName" : "address_city",
        "isPrimaryKey" : false,
        "notNull" : false,
        "length" : 50,
        "precision" : 0,
        "generator" : "assigned",
        "isRelated" : false,
        "scale" : 0
      }, {
        "fieldName" : "addressZip",
        "type" : "integer",
        "fullyQualifiedType" : "integer",
        "columnName" : "address_zip",
        "isPrimaryKey" : false,
        "notNull" : false,
        "length" : 0,
        "precision" : 10,
        "generator" : "assigned",
        "isRelated" : false,
        "scale" : 0
      }, {
        "fieldName" : "appetite",
        "type" : "string",
        "fullyQualifiedType" : "string",
        "columnName" : "appetite",
        "isPrimaryKey" : false,
        "notNull" : false,
        "length" : 250,
        "precision" : 0,
        "generator" : "assigned",
        "isRelated" : false,
        "scale" : 0
      } ],
      "entityName" : "Contact",
      "fullyQualifiedName" : "com.portal.platform.Contact",
      "tableType" : "TABLE",
      "primaryFields" : [ "id" ]
    },
    "bindCount" : 1,
    "tableName" : "contact",
    "tableType" : "TABLE",
    "properties" : [ "state", "option" ],
    "relatedTables" : [ {
      "columnName" : "state",
      "relationName" : "state",
      "type" : "State",
      "watchOn" : "PlatformStateData",
      "package" : "com.portal.platform.Contact"
    }, {
      "columnName" : "option",
      "relationName" : "option",
      "type" : "Option",
      "watchOn" : "PlatformOptionData",
      "package" : "com.portal.platform.Contact"
    } ],
    "filterFields" : { },
    "package" : "com.portal.platform.Contact"
  },
  "UpdateContact" : {
    "_id" : "wm-UpdateContact-wm.LiveVariable-1506666491918",
    "name" : "UpdateContact",
    "owner" : "Page",
    "category" : "wm.LiveVariable",
    "dataBinding" : [ ],
    "operation" : "read",
    "dataSet" : [ ],
    "type" : "Contact",
    "isList" : true,
    "saveInPhonegap" : false,
    "maxResults" : 20,
    "designMaxResults" : 10,
    "inFlightBehavior" : "executeLast",
    "startUpdate" : true,
    "autoUpdate" : true,
    "transformationRequired" : false,
    "liveSource" : "platform",
    "ignoreCase" : true,
    "matchMode" : "start",
    "orderBy" : "id asc",
    "propertiesMap" : {
      "columns" : [ {
        "fieldName" : "state",
        "type" : "integer",
        "fullyQualifiedType" : "integer",
        "columnName" : "address_state_id",
        "isPrimaryKey" : false,
        "notNull" : false,
        "length" : 0,
        "precision" : 10,
        "generator" : "assigned",
        "isRelated" : true,
        "relatedTableName" : "state",
        "relatedEntityName" : "State",
        "relatedColumnName" : "addressStateId",
        "relatedFieldName" : "state.id",
        "isList" : false,
        "targetTable" : "state",
        "scale" : 0,
        "columns" : [ {
          "fieldName" : "id",
          "type" : "integer",
          "fullyQualifiedType" : "integer",
          "columnName" : "id",
          "isPrimaryKey" : true,
          "notNull" : true,
          "length" : 0,
          "precision" : 10,
          "generator" : "identity",
          "isRelated" : false,
          "scale" : 0
        }, {
          "fieldName" : "state",
          "type" : "string",
          "fullyQualifiedType" : "string",
          "columnName" : "state",
          "isPrimaryKey" : false,
          "notNull" : true,
          "length" : 2,
          "precision" : 0,
          "generator" : "assigned",
          "isRelated" : false,
          "scale" : 0
        }, {
          "fieldName" : "interestType",
          "type" : "string",
          "fullyQualifiedType" : "string",
          "columnName" : "interest_type",
          "isPrimaryKey" : false,
          "notNull" : false,
          "length" : 9,
          "precision" : 0,
          "generator" : "assigned",
          "isRelated" : false,
          "scale" : 0
        }, {
          "fieldName" : "frequency",
          "type" : "string",
          "fullyQualifiedType" : "string",
          "columnName" : "frequency",
          "isPrimaryKey" : false,
          "notNull" : false,
          "length" : 2,
          "precision" : 0,
          "generator" : "assigned",
          "isRelated" : false,
          "scale" : 0
        }, {
          "fieldName" : "certPeriod",
          "type" : "integer",
          "fullyQualifiedType" : "integer",
          "columnName" : "cert_period",
          "isPrimaryKey" : false,
          "notNull" : false,
          "length" : 0,
          "precision" : 10,
          "generator" : "assigned",
          "isRelated" : false,
          "scale" : 0
        }, {
          "fieldName" : "subPeriod",
          "type" : "integer",
          "fullyQualifiedType" : "integer",
          "columnName" : "sub_period",
          "isPrimaryKey" : false,
          "notNull" : false,
          "length" : 0,
          "precision" : 10,
          "generator" : "assigned",
          "isRelated" : false,
          "scale" : 0
        }, {
          "fieldName" : "subRate",
          "type" : "big_decimal",
          "fullyQualifiedType" : "big_decimal",
          "columnName" : "sub_rate",
          "isPrimaryKey" : false,
          "notNull" : false,
          "length" : 0,
          "precision" : 15,
          "generator" : "assigned",
          "isRelated" : false,
          "scale" : 9
        }, {
          "fieldName" : "termMonths",
          "type" : "integer",
          "fullyQualifiedType" : "integer",
          "columnName" : "term_months",
          "isPrimaryKey" : false,
          "notNull" : false,
          "length" : 0,
          "precision" : 10,
          "generator" : "assigned",
          "isRelated" : false,
          "scale" : 0
        }, {
          "fieldName" : "active",
          "type" : "boolean",
          "fullyQualifiedType" : "boolean",
          "columnName" : "active",
          "isPrimaryKey" : false,
          "notNull" : true,
          "length" : 0,
          "precision" : 0,
          "generator" : "assigned",
          "isRelated" : false,
          "scale" : 0
        }, {
          "fieldName" : "roundingThreshold",
          "type" : "float",
          "fullyQualifiedType" : "float",
          "columnName" : "rounding_threshold",
          "isPrimaryKey" : false,
          "notNull" : true,
          "length" : 0,
          "precision" : 3,
          "generator" : "assigned",
          "isRelated" : false,
          "defaultValue" : "0",
          "scale" : 2
        } ]
      }, {
        "fieldName" : "option",
        "type" : "integer",
        "fullyQualifiedType" : "integer",
        "columnName" : "type_id",
        "isPrimaryKey" : false,
        "notNull" : true,
        "length" : 0,
        "precision" : 10,
        "generator" : "assigned",
        "isRelated" : true,
        "relatedTableName" : "option",
        "relatedEntityName" : "Option",
        "relatedColumnName" : "typeId",
        "relatedFieldName" : "option.id",
        "isList" : false,
        "targetTable" : "option",
        "scale" : 0,
        "columns" : [ {
          "fieldName" : "id",
          "type" : "integer",
          "fullyQualifiedType" : "integer",
          "columnName" : "id",
          "isPrimaryKey" : true,
          "notNull" : true,
          "length" : 0,
          "precision" : 10,
          "generator" : "identity",
          "isRelated" : false,
          "scale" : 0
        }, {
          "fieldName" : "name",
          "type" : "string",
          "fullyQualifiedType" : "string",
          "columnName" : "name",
          "isPrimaryKey" : false,
          "notNull" : true,
          "length" : 25,
          "precision" : 0,
          "generator" : "assigned",
          "isRelated" : false,
          "scale" : 0
        }, {
          "fieldName" : "type",
          "type" : "string",
          "fullyQualifiedType" : "string",
          "columnName" : "type",
          "isPrimaryKey" : false,
          "notNull" : true,
          "length" : 25,
          "precision" : 0,
          "generator" : "assigned",
          "isRelated" : false,
          "scale" : 0
        } ]
      }, {
        "fieldName" : "id",
        "type" : "integer",
        "fullyQualifiedType" : "integer",
        "columnName" : "id",
        "isPrimaryKey" : true,
        "notNull" : true,
        "length" : 0,
        "precision" : 10,
        "generator" : "identity",
        "isRelated" : false,
        "scale" : 0
      }, {
        "fieldName" : "company",
        "type" : "string",
        "fullyQualifiedType" : "string",
        "columnName" : "company",
        "isPrimaryKey" : false,
        "notNull" : false,
        "length" : 50,
        "precision" : 0,
        "generator" : "assigned",
        "isRelated" : false,
        "scale" : 0
      }, {
        "fieldName" : "name",
        "type" : "string",
        "fullyQualifiedType" : "string",
        "columnName" : "name",
        "isPrimaryKey" : false,
        "notNull" : false,
        "length" : 50,
        "precision" : 0,
        "generator" : "assigned",
        "isRelated" : false,
        "scale" : 0
      }, {
        "fieldName" : "email",
        "type" : "string",
        "fullyQualifiedType" : "string",
        "columnName" : "email",
        "isPrimaryKey" : false,
        "notNull" : false,
        "length" : 50,
        "precision" : 0,
        "generator" : "assigned",
        "isRelated" : false,
        "scale" : 0
      }, {
        "fieldName" : "phone",
        "type" : "long",
        "fullyQualifiedType" : "long",
        "columnName" : "phone",
        "isPrimaryKey" : false,
        "notNull" : false,
        "length" : 0,
        "precision" : 19,
        "generator" : "assigned",
        "isRelated" : false,
        "scale" : 0
      }, {
        "fieldName" : "addressLine1",
        "type" : "string",
        "fullyQualifiedType" : "string",
        "columnName" : "address_line1",
        "isPrimaryKey" : false,
        "notNull" : false,
        "length" : 250,
        "precision" : 0,
        "generator" : "assigned",
        "isRelated" : false,
        "scale" : 0
      }, {
        "fieldName" : "addressCity",
        "type" : "string",
        "fullyQualifiedType" : "string",
        "columnName" : "address_city",
        "isPrimaryKey" : false,
        "notNull" : false,
        "length" : 50,
        "precision" : 0,
        "generator" : "assigned",
        "isRelated" : false,
        "scale" : 0
      }, {
        "fieldName" : "addressZip",
        "type" : "integer",
        "fullyQualifiedType" : "integer",
        "columnName" : "address_zip",
        "isPrimaryKey" : false,
        "notNull" : false,
        "length" : 0,
        "precision" : 10,
        "generator" : "assigned",
        "isRelated" : false,
        "scale" : 0
      }, {
        "fieldName" : "appetite",
        "type" : "string",
        "fullyQualifiedType" : "string",
        "columnName" : "appetite",
        "isPrimaryKey" : false,
        "notNull" : false,
        "length" : 250,
        "precision" : 0,
        "generator" : "assigned",
        "isRelated" : false,
        "scale" : 0
      } ],
      "entityName" : "Contact",
      "fullyQualifiedName" : "com.portal.platform.Contact",
      "tableType" : "TABLE",
      "primaryFields" : [ "id" ]
    },
    "isDefault" : true,
    "bindCount" : 1,
    "tableName" : "contact",
    "tableType" : "TABLE",
    "properties" : [ "state", "option" ],
    "relatedTables" : [ {
      "columnName" : "state",
      "relationName" : "state",
      "type" : "State",
      "watchOn" : "PlatformStateData",
      "package" : "com.portal.platform.Contact"
    }, {
      "columnName" : "option",
      "relationName" : "option",
      "type" : "Option",
      "watchOn" : "PlatformOptionData",
      "package" : "com.portal.platform.Contact"
    } ],
    "package" : "com.portal.platform.Contact"
  }
}