{
  "lvAssessment" : {
    "_id" : "wm-lvAssessment-wm.LiveVariable-1502445886454",
    "name" : "lvAssessment",
    "owner" : "Page",
    "category" : "wm.LiveVariable",
    "dataBinding" : [ {
      "target" : "propertyId",
      "value" : "bind:$parent.$parent.$parent.$parent.Widgets.SearchResultLiveList.selecteditem.property_id",
      "type" : "number"
    } ],
    "operation" : "read",
    "dataSet" : [ ],
    "type" : "Assessment",
    "isList" : false,
    "saveInPhonegap" : false,
    "maxResults" : -1,
    "designMaxResults" : 10,
    "inFlightBehavior" : "executeLast",
    "startUpdate" : false,
    "autoUpdate" : true,
    "transformationRequired" : false,
    "liveSource" : "platform",
    "ignoreCase" : true,
    "matchMode" : "exact",
    "orderBy" : "id asc",
    "propertiesMap" : {
      "columns" : [ {
        "fieldName" : "propertyClass",
        "type" : "integer",
        "fullyQualifiedType" : "integer",
        "columnName" : "property_class_id",
        "isPrimaryKey" : false,
        "notNull" : true,
        "length" : 0,
        "precision" : 10,
        "generator" : "assigned",
        "isRelated" : true,
        "relatedTableName" : "property_class",
        "relatedEntityName" : "PropertyClass",
        "relatedColumnName" : "propertyClassId",
        "relatedFieldName" : "propertyClass.id",
        "isList" : false,
        "targetTable" : "property_class",
        "scale" : 0,
        "columns" : [ {
          "fieldName" : "county",
          "type" : "integer",
          "fullyQualifiedType" : "integer",
          "columnName" : "county_id",
          "isPrimaryKey" : false,
          "notNull" : false,
          "length" : 0,
          "precision" : 10,
          "generator" : "assigned",
          "isRelated" : true,
          "relatedColumnName" : "countyId",
          "targetTable" : "county",
          "scale" : 0
        }, {
          "fieldName" : "id",
          "type" : "integer",
          "fullyQualifiedType" : "integer",
          "columnName" : "ID",
          "isPrimaryKey" : true,
          "notNull" : true,
          "length" : 0,
          "precision" : 10,
          "generator" : "identity",
          "isRelated" : false,
          "scale" : 0
        }, {
          "fieldName" : "code",
          "type" : "string",
          "fullyQualifiedType" : "string",
          "columnName" : "code",
          "isPrimaryKey" : false,
          "notNull" : true,
          "length" : 50,
          "precision" : 0,
          "generator" : "assigned",
          "isRelated" : false,
          "scale" : 0
        }, {
          "fieldName" : "description",
          "type" : "string",
          "fullyQualifiedType" : "string",
          "columnName" : "description",
          "isPrimaryKey" : false,
          "notNull" : false,
          "length" : 255,
          "precision" : 0,
          "generator" : "assigned",
          "isRelated" : false,
          "scale" : 0
        }, {
          "fieldName" : "zoning",
          "type" : "string",
          "fullyQualifiedType" : "string",
          "columnName" : "zoning",
          "isPrimaryKey" : false,
          "notNull" : true,
          "length" : 12,
          "precision" : 0,
          "generator" : "assigned",
          "isRelated" : false,
          "scale" : 0
        }, {
          "fieldName" : "improvementLevel",
          "type" : "string",
          "fullyQualifiedType" : "string",
          "columnName" : "improvement_level",
          "isPrimaryKey" : false,
          "notNull" : true,
          "length" : 220,
          "precision" : 0,
          "generator" : "assigned",
          "isRelated" : false,
          "scale" : 0
        }, {
          "fieldName" : "filter",
          "type" : "character",
          "fullyQualifiedType" : "character",
          "columnName" : "filter",
          "isPrimaryKey" : false,
          "notNull" : true,
          "length" : 1,
          "precision" : 0,
          "generator" : "assigned",
          "isRelated" : false,
          "scale" : 0
        }, {
          "fieldName" : "taxRate",
          "type" : "big_decimal",
          "fullyQualifiedType" : "big_decimal",
          "columnName" : "tax_rate",
          "isPrimaryKey" : false,
          "notNull" : false,
          "length" : 0,
          "precision" : 28,
          "generator" : "assigned",
          "isRelated" : false,
          "scale" : 6
        }, {
          "fieldName" : "eqlrate07",
          "type" : "big_decimal",
          "fullyQualifiedType" : "big_decimal",
          "columnName" : "eqlrate07",
          "isPrimaryKey" : false,
          "notNull" : false,
          "length" : 0,
          "precision" : 28,
          "generator" : "assigned",
          "isRelated" : false,
          "scale" : 6
        }, {
          "fieldName" : "eqlrate08",
          "type" : "big_decimal",
          "fullyQualifiedType" : "big_decimal",
          "columnName" : "eqlrate08",
          "isPrimaryKey" : false,
          "notNull" : false,
          "length" : 0,
          "precision" : 28,
          "generator" : "assigned",
          "isRelated" : false,
          "scale" : 6
        }, {
          "fieldName" : "eqlrate09",
          "type" : "big_decimal",
          "fullyQualifiedType" : "big_decimal",
          "columnName" : "eqlrate09",
          "isPrimaryKey" : false,
          "notNull" : false,
          "length" : 0,
          "precision" : 28,
          "generator" : "assigned",
          "isRelated" : false,
          "scale" : 6
        }, {
          "fieldName" : "eqlrate10",
          "type" : "big_decimal",
          "fullyQualifiedType" : "big_decimal",
          "columnName" : "eqlrate10",
          "isPrimaryKey" : false,
          "notNull" : false,
          "length" : 0,
          "precision" : 28,
          "generator" : "assigned",
          "isRelated" : false,
          "scale" : 6
        }, {
          "fieldName" : "eqlrate11",
          "type" : "big_decimal",
          "fullyQualifiedType" : "big_decimal",
          "columnName" : "eqlrate11",
          "isPrimaryKey" : false,
          "notNull" : false,
          "length" : 0,
          "precision" : 28,
          "generator" : "assigned",
          "isRelated" : false,
          "scale" : 6
        } ]
      }, {
        "fieldName" : "property",
        "type" : "integer",
        "fullyQualifiedType" : "integer",
        "columnName" : "property_id",
        "isPrimaryKey" : false,
        "notNull" : true,
        "length" : 0,
        "precision" : 10,
        "generator" : "assigned",
        "isRelated" : true,
        "relatedTableName" : "property",
        "relatedEntityName" : "Property",
        "relatedColumnName" : "propertyId",
        "relatedFieldName" : "property.id",
        "isList" : false,
        "targetTable" : "property",
        "scale" : 0,
        "columns" : [ {
          "fieldName" : "county",
          "type" : "integer",
          "fullyQualifiedType" : "integer",
          "columnName" : "county_id",
          "isPrimaryKey" : false,
          "notNull" : true,
          "length" : 0,
          "precision" : 10,
          "generator" : "assigned",
          "isRelated" : true,
          "relatedColumnName" : "countyId",
          "targetTable" : "county",
          "scale" : 0
        }, {
          "fieldName" : "grade",
          "type" : "integer",
          "fullyQualifiedType" : "integer",
          "columnName" : "grade_id",
          "isPrimaryKey" : false,
          "notNull" : true,
          "length" : 0,
          "precision" : 10,
          "generator" : "assigned",
          "isRelated" : true,
          "relatedColumnName" : "gradeId",
          "targetTable" : "grade",
          "scale" : 0
        }, {
          "fieldName" : "propertyExterior",
          "type" : "integer",
          "fullyQualifiedType" : "integer",
          "columnName" : "property_exterior_id",
          "isPrimaryKey" : false,
          "notNull" : false,
          "length" : 0,
          "precision" : 10,
          "generator" : "assigned",
          "isRelated" : true,
          "relatedColumnName" : "propertyExteriorId",
          "targetTable" : "property_exterior",
          "scale" : 0
        }, {
          "fieldName" : "propertyType",
          "type" : "integer",
          "fullyQualifiedType" : "integer",
          "columnName" : "property_type_id",
          "isPrimaryKey" : false,
          "notNull" : false,
          "length" : 0,
          "precision" : 10,
          "generator" : "assigned",
          "isRelated" : true,
          "relatedColumnName" : "propertyTypeId",
          "targetTable" : "property_type",
          "scale" : 0
        }, {
          "fieldName" : "propertyByReplacedBy",
          "type" : "integer",
          "fullyQualifiedType" : "integer",
          "columnName" : "replaced_by",
          "isPrimaryKey" : false,
          "notNull" : false,
          "length" : 0,
          "precision" : 10,
          "generator" : "assigned",
          "isRelated" : true,
          "relatedColumnName" : "replacedBy",
          "targetTable" : "property",
          "scale" : 0
        }, {
          "fieldName" : "sourceByAddressSource1",
          "type" : "string",
          "fullyQualifiedType" : "string",
          "columnName" : "address_source1",
          "isPrimaryKey" : false,
          "notNull" : false,
          "length" : 4,
          "precision" : 0,
          "generator" : "assigned",
          "isRelated" : true,
          "relatedColumnName" : "addressSource1",
          "targetTable" : "source",
          "scale" : 0
        }, {
          "fieldName" : "sourceByAddressSource2",
          "type" : "string",
          "fullyQualifiedType" : "string",
          "columnName" : "address_source2",
          "isPrimaryKey" : false,
          "notNull" : false,
          "length" : 4,
          "precision" : 0,
          "generator" : "assigned",
          "isRelated" : true,
          "relatedColumnName" : "addressSource2",
          "targetTable" : "source",
          "scale" : 0
        }, {
          "fieldName" : "township",
          "type" : "integer",
          "fullyQualifiedType" : "integer",
          "columnName" : "township_id",
          "isPrimaryKey" : false,
          "notNull" : true,
          "length" : 0,
          "precision" : 10,
          "generator" : "assigned",
          "isRelated" : true,
          "relatedColumnName" : "townshipId",
          "targetTable" : "township",
          "scale" : 0
        }, {
          "fieldName" : "id",
          "type" : "integer",
          "fullyQualifiedType" : "integer",
          "columnName" : "ID",
          "isPrimaryKey" : true,
          "notNull" : true,
          "length" : 0,
          "precision" : 10,
          "generator" : "identity",
          "isRelated" : false,
          "scale" : 0
        }, {
          "fieldName" : "pin",
          "type" : "string",
          "fullyQualifiedType" : "string",
          "columnName" : "pin",
          "isPrimaryKey" : false,
          "notNull" : true,
          "length" : 220,
          "precision" : 0,
          "generator" : "assigned",
          "isRelated" : false,
          "scale" : 0
        }, {
          "fieldName" : "updatedTimestamp",
          "type" : "datetime",
          "fullyQualifiedType" : "datetime",
          "columnName" : "updated_timestamp",
          "isPrimaryKey" : false,
          "notNull" : true,
          "length" : 0,
          "precision" : 0,
          "generator" : "assigned",
          "isRelated" : false,
          "scale" : 0
        }, {
          "fieldName" : "dead",
          "type" : "boolean",
          "fullyQualifiedType" : "boolean",
          "columnName" : "dead",
          "isPrimaryKey" : false,
          "notNull" : true,
          "length" : 0,
          "precision" : 0,
          "generator" : "assigned",
          "isRelated" : false,
          "scale" : 0
        }, {
          "fieldName" : "volume",
          "type" : "integer",
          "fullyQualifiedType" : "integer",
          "columnName" : "volume",
          "isPrimaryKey" : false,
          "notNull" : false,
          "length" : 0,
          "precision" : 10,
          "generator" : "assigned",
          "isRelated" : false,
          "scale" : 0
        }, {
          "fieldName" : "addressLine1",
          "type" : "string",
          "fullyQualifiedType" : "string",
          "columnName" : "address_line1",
          "isPrimaryKey" : false,
          "notNull" : false,
          "length" : 220,
          "precision" : 0,
          "generator" : "assigned",
          "isRelated" : false,
          "scale" : 0
        }, {
          "fieldName" : "addressLine2",
          "type" : "string",
          "fullyQualifiedType" : "string",
          "columnName" : "address_line2",
          "isPrimaryKey" : false,
          "notNull" : false,
          "length" : 220,
          "precision" : 0,
          "generator" : "assigned",
          "isRelated" : false,
          "scale" : 0
        }, {
          "fieldName" : "addressCity",
          "type" : "string",
          "fullyQualifiedType" : "string",
          "columnName" : "address_city",
          "isPrimaryKey" : false,
          "notNull" : false,
          "length" : 220,
          "precision" : 0,
          "generator" : "assigned",
          "isRelated" : false,
          "scale" : 0
        }, {
          "fieldName" : "addressZip",
          "type" : "string",
          "fullyQualifiedType" : "string",
          "columnName" : "address_zip",
          "isPrimaryKey" : false,
          "notNull" : false,
          "length" : 10,
          "precision" : 0,
          "generator" : "assigned",
          "isRelated" : false,
          "scale" : 0
        }, {
          "fieldName" : "yearBuilt",
          "type" : "integer",
          "fullyQualifiedType" : "integer",
          "columnName" : "year_built",
          "isPrimaryKey" : false,
          "notNull" : false,
          "length" : 0,
          "precision" : 10,
          "generator" : "assigned",
          "isRelated" : false,
          "scale" : 0
        }, {
          "fieldName" : "yearImproved",
          "type" : "integer",
          "fullyQualifiedType" : "integer",
          "columnName" : "year_improved",
          "isPrimaryKey" : false,
          "notNull" : false,
          "length" : 0,
          "precision" : 10,
          "generator" : "assigned",
          "isRelated" : false,
          "scale" : 0
        }, {
          "fieldName" : "sqftLiving",
          "type" : "integer",
          "fullyQualifiedType" : "integer",
          "columnName" : "sqft_living",
          "isPrimaryKey" : false,
          "notNull" : false,
          "length" : 0,
          "precision" : 10,
          "generator" : "assigned",
          "isRelated" : false,
          "scale" : 0
        }, {
          "fieldName" : "sqftTotal",
          "type" : "integer",
          "fullyQualifiedType" : "integer",
          "columnName" : "sqft_total",
          "isPrimaryKey" : false,
          "notNull" : false,
          "length" : 0,
          "precision" : 10,
          "generator" : "assigned",
          "isRelated" : false,
          "scale" : 0
        }, {
          "fieldName" : "lotSize",
          "type" : "big_decimal",
          "fullyQualifiedType" : "big_decimal",
          "columnName" : "lot_size",
          "isPrimaryKey" : false,
          "notNull" : false,
          "length" : 0,
          "precision" : 10,
          "generator" : "assigned",
          "isRelated" : false,
          "scale" : 0
        }, {
          "fieldName" : "addressVerified",
          "type" : "boolean",
          "fullyQualifiedType" : "boolean",
          "columnName" : "address_verified",
          "isPrimaryKey" : false,
          "notNull" : true,
          "length" : 0,
          "precision" : 0,
          "generator" : "assigned",
          "isRelated" : false,
          "scale" : 0
        }, {
          "fieldName" : "latitude",
          "type" : "float",
          "fullyQualifiedType" : "float",
          "columnName" : "latitude",
          "isPrimaryKey" : false,
          "notNull" : false,
          "length" : 0,
          "precision" : 9,
          "generator" : "assigned",
          "isRelated" : false,
          "scale" : 6
        }, {
          "fieldName" : "longitude",
          "type" : "float",
          "fullyQualifiedType" : "float",
          "columnName" : "longitude",
          "isPrimaryKey" : false,
          "notNull" : false,
          "length" : 0,
          "precision" : 9,
          "generator" : "assigned",
          "isRelated" : false,
          "scale" : 6
        }, {
          "fieldName" : "lastImportId",
          "type" : "integer",
          "fullyQualifiedType" : "integer",
          "columnName" : "last_import_id",
          "isPrimaryKey" : false,
          "notNull" : false,
          "length" : 0,
          "precision" : 10,
          "generator" : "assigned",
          "isRelated" : false,
          "scale" : 0
        }, {
          "fieldName" : "pinNd",
          "type" : "string",
          "fullyQualifiedType" : "string",
          "columnName" : "pin_nd",
          "isPrimaryKey" : false,
          "notNull" : false,
          "length" : 4000,
          "precision" : 0,
          "generator" : "assigned",
          "isRelated" : false,
          "systemInserted" : true,
          "systemUpdated" : true,
          "scale" : 0
        }, {
          "fieldName" : "pinBuilding",
          "type" : "string",
          "fullyQualifiedType" : "string",
          "columnName" : "pin_building",
          "isPrimaryKey" : false,
          "notNull" : false,
          "length" : 14,
          "precision" : 0,
          "generator" : "assigned",
          "isRelated" : false,
          "systemInserted" : true,
          "systemUpdated" : true,
          "scale" : 0
        }, {
          "fieldName" : "metesAndBounds",
          "type" : "string",
          "fullyQualifiedType" : "string",
          "columnName" : "metes_and_bounds",
          "isPrimaryKey" : false,
          "notNull" : false,
          "length" : 220,
          "precision" : 0,
          "generator" : "assigned",
          "isRelated" : false,
          "scale" : 0
        } ]
      }, {
        "fieldName" : "id",
        "type" : "integer",
        "fullyQualifiedType" : "integer",
        "columnName" : "ID",
        "isPrimaryKey" : true,
        "notNull" : true,
        "length" : 0,
        "precision" : 10,
        "generator" : "identity",
        "isRelated" : false,
        "scale" : 0
      }, {
        "fieldName" : "updatedTimestamp",
        "type" : "date",
        "fullyQualifiedType" : "date",
        "columnName" : "updated_timestamp",
        "isPrimaryKey" : false,
        "notNull" : true,
        "length" : 0,
        "precision" : 0,
        "generator" : "assigned",
        "isRelated" : false,
        "scale" : 0
      }, {
        "fieldName" : "taxYear",
        "type" : "integer",
        "fullyQualifiedType" : "integer",
        "columnName" : "tax_year",
        "isPrimaryKey" : false,
        "notNull" : true,
        "length" : 0,
        "precision" : 10,
        "generator" : "assigned",
        "isRelated" : false,
        "scale" : 0
      }, {
        "fieldName" : "assesseeName",
        "type" : "string",
        "fullyQualifiedType" : "string",
        "columnName" : "assessee_name",
        "isPrimaryKey" : false,
        "notNull" : false,
        "length" : 100,
        "precision" : 0,
        "generator" : "assigned",
        "isRelated" : false,
        "scale" : 0
      }, {
        "fieldName" : "assesseeAddressLine1",
        "type" : "string",
        "fullyQualifiedType" : "string",
        "columnName" : "assessee_address_line1",
        "isPrimaryKey" : false,
        "notNull" : false,
        "length" : 100,
        "precision" : 0,
        "generator" : "assigned",
        "isRelated" : false,
        "scale" : 0
      }, {
        "fieldName" : "assesseeAddressCity",
        "type" : "string",
        "fullyQualifiedType" : "string",
        "columnName" : "assessee_address_city",
        "isPrimaryKey" : false,
        "notNull" : false,
        "length" : 50,
        "precision" : 0,
        "generator" : "assigned",
        "isRelated" : false,
        "scale" : 0
      }, {
        "fieldName" : "assesseeAddressState",
        "type" : "string",
        "fullyQualifiedType" : "string",
        "columnName" : "assessee_address_state",
        "isPrimaryKey" : false,
        "notNull" : false,
        "length" : 2,
        "precision" : 0,
        "generator" : "assigned",
        "isRelated" : false,
        "scale" : 0
      }, {
        "fieldName" : "assesseeAddressZip",
        "type" : "string",
        "fullyQualifiedType" : "string",
        "columnName" : "assessee_address_zip",
        "isPrimaryKey" : false,
        "notNull" : false,
        "length" : 10,
        "precision" : 0,
        "generator" : "assigned",
        "isRelated" : false,
        "scale" : 0
      }, {
        "fieldName" : "assessedValuationLand",
        "type" : "double",
        "fullyQualifiedType" : "double",
        "columnName" : "assessed_valuation_land",
        "isPrimaryKey" : false,
        "notNull" : false,
        "length" : 0,
        "precision" : 19,
        "generator" : "assigned",
        "isRelated" : false,
        "scale" : 4
      }, {
        "fieldName" : "equalizedValuation",
        "type" : "double",
        "fullyQualifiedType" : "double",
        "columnName" : "equalized_valuation",
        "isPrimaryKey" : false,
        "notNull" : false,
        "length" : 0,
        "precision" : 19,
        "generator" : "assigned",
        "isRelated" : false,
        "scale" : 4
      }, {
        "fieldName" : "assessedValuationBuilding",
        "type" : "double",
        "fullyQualifiedType" : "double",
        "columnName" : "assessed_valuation_building",
        "isPrimaryKey" : false,
        "notNull" : false,
        "length" : 0,
        "precision" : 19,
        "generator" : "assigned",
        "isRelated" : false,
        "scale" : 4
      }, {
        "fieldName" : "assessedValuationTotal",
        "type" : "double",
        "fullyQualifiedType" : "double",
        "columnName" : "assessed_valuation_total",
        "isPrimaryKey" : false,
        "notNull" : false,
        "length" : 0,
        "precision" : 19,
        "generator" : "assigned",
        "isRelated" : false,
        "scale" : 4
      }, {
        "fieldName" : "homeExemption",
        "type" : "double",
        "fullyQualifiedType" : "double",
        "columnName" : "home_exemption",
        "isPrimaryKey" : false,
        "notNull" : false,
        "length" : 0,
        "precision" : 19,
        "generator" : "assigned",
        "isRelated" : false,
        "scale" : 4
      }, {
        "fieldName" : "seniorExemption",
        "type" : "double",
        "fullyQualifiedType" : "double",
        "columnName" : "senior_exemption",
        "isPrimaryKey" : false,
        "notNull" : false,
        "length" : 0,
        "precision" : 19,
        "generator" : "assigned",
        "isRelated" : false,
        "scale" : 4
      }, {
        "fieldName" : "seniorFreeze",
        "type" : "boolean",
        "fullyQualifiedType" : "boolean",
        "columnName" : "senior_freeze",
        "isPrimaryKey" : false,
        "notNull" : false,
        "length" : 0,
        "precision" : 0,
        "generator" : "assigned",
        "isRelated" : false,
        "scale" : 0
      }, {
        "fieldName" : "marketValue",
        "type" : "double",
        "fullyQualifiedType" : "double",
        "columnName" : "market_value",
        "isPrimaryKey" : false,
        "notNull" : true,
        "length" : 0,
        "precision" : 19,
        "generator" : "assigned",
        "isRelated" : false,
        "scale" : 4
      }, {
        "fieldName" : "conditionRating",
        "type" : "string",
        "fullyQualifiedType" : "string",
        "columnName" : "condition_rating",
        "isPrimaryKey" : false,
        "notNull" : false,
        "length" : 50,
        "precision" : 0,
        "generator" : "assigned",
        "isRelated" : false,
        "scale" : 0
      }, {
        "fieldName" : "qualityRating",
        "type" : "string",
        "fullyQualifiedType" : "string",
        "columnName" : "quality_rating",
        "isPrimaryKey" : false,
        "notNull" : false,
        "length" : 50,
        "precision" : 0,
        "generator" : "assigned",
        "isRelated" : false,
        "scale" : 0
      }, {
        "fieldName" : "lastImportId",
        "type" : "integer",
        "fullyQualifiedType" : "integer",
        "columnName" : "last_import_id",
        "isPrimaryKey" : false,
        "notNull" : false,
        "length" : 0,
        "precision" : 10,
        "generator" : "assigned",
        "isRelated" : false,
        "scale" : 0
      } ],
      "entityName" : "Assessment",
      "fullyQualifiedName" : "com.portal.platform.Assessment",
      "tableType" : "TABLE",
      "primaryFields" : [ "id" ]
    },
    "bindCount" : 5,
    "tableName" : "assessment",
    "tableType" : "TABLE",
    "properties" : [ "propertyClass", "property" ],
    "relatedTables" : [ {
      "columnName" : "propertyClass",
      "relationName" : "propertyClass",
      "type" : "PropertyClass",
      "watchOn" : "PlatformPropertyClassData",
      "package" : "com.portal.platform.Assessment"
    }, {
      "columnName" : "property",
      "relationName" : "property",
      "type" : "Property",
      "watchOn" : "PlatformPropertyData",
      "package" : "com.portal.platform.Assessment"
    } ],
    "filterFields" : { },
    "package" : "com.portal.platform.Assessment"
  },
  "lvAuctionResult" : {
    "_id" : "wm-lvAuctionResult-wm.LiveVariable-1474540131551",
    "name" : "lvAuctionResult",
    "owner" : "Page",
    "category" : "wm.LiveVariable",
    "dataBinding" : [ {
      "target" : "propertyId",
      "value" : "bind:$parent.$parent.$parent.$parent.Widgets.SearchResultLiveList.selecteditem.property_id",
      "type" : "number"
    } ],
    "operation" : "read",
    "dataSet" : [ ],
    "type" : "AuctionResult",
    "isList" : true,
    "saveInPhonegap" : false,
    "maxResults" : 20,
    "designMaxResults" : 10,
    "inFlightBehavior" : "executeLast",
    "startUpdate" : true,
    "autoUpdate" : false,
    "transformationRequired" : false,
    "liveSource" : "platform",
    "ignoreCase" : true,
    "matchMode" : "start",
    "orderBy" : "auction.taxYear desc",
    "propertiesMap" : {
      "columns" : [ {
        "fieldName" : "auction",
        "type" : "integer",
        "fullyQualifiedType" : "integer",
        "columnName" : "auction_id",
        "isPrimaryKey" : false,
        "notNull" : true,
        "length" : 0,
        "precision" : 10,
        "generator" : "assigned",
        "isRelated" : true,
        "relatedTableName" : "auction",
        "relatedEntityName" : "Auction",
        "relatedColumnName" : "auctionId",
        "relatedFieldName" : "auction.id",
        "isList" : false,
        "targetTable" : "auction",
        "scale" : 0,
        "columns" : [ {
          "fieldName" : "county",
          "type" : "integer",
          "fullyQualifiedType" : "integer",
          "columnName" : "county_id",
          "isPrimaryKey" : false,
          "notNull" : true,
          "length" : 0,
          "precision" : 10,
          "generator" : "assigned",
          "isRelated" : true,
          "relatedColumnName" : "countyId",
          "targetTable" : "county",
          "scale" : 0
        }, {
          "fieldName" : "property",
          "type" : "integer",
          "fullyQualifiedType" : "integer",
          "columnName" : "property_id",
          "isPrimaryKey" : false,
          "notNull" : true,
          "length" : 0,
          "precision" : 10,
          "generator" : "assigned",
          "isRelated" : true,
          "relatedColumnName" : "propertyId",
          "targetTable" : "property",
          "scale" : 0
        }, {
          "fieldName" : "id",
          "type" : "integer",
          "fullyQualifiedType" : "integer",
          "columnName" : "id",
          "isPrimaryKey" : true,
          "notNull" : true,
          "length" : 0,
          "precision" : 10,
          "generator" : "identity",
          "isRelated" : false,
          "scale" : 0
        }, {
          "fieldName" : "updatedTimestamp",
          "type" : "date",
          "fullyQualifiedType" : "date",
          "columnName" : "updated_timestamp",
          "isPrimaryKey" : false,
          "notNull" : true,
          "length" : 0,
          "precision" : 0,
          "generator" : "assigned",
          "isRelated" : false,
          "scale" : 0
        }, {
          "fieldName" : "taxYear",
          "type" : "integer",
          "fullyQualifiedType" : "integer",
          "columnName" : "tax_year",
          "isPrimaryKey" : false,
          "notNull" : true,
          "length" : 0,
          "precision" : 10,
          "generator" : "assigned",
          "isRelated" : false,
          "scale" : 0
        }, {
          "fieldName" : "sequence",
          "type" : "integer",
          "fullyQualifiedType" : "integer",
          "columnName" : "sequence",
          "isPrimaryKey" : false,
          "notNull" : false,
          "length" : 0,
          "precision" : 10,
          "generator" : "assigned",
          "isRelated" : false,
          "scale" : 0
        }, {
          "fieldName" : "priorYearsDue",
          "type" : "double",
          "fullyQualifiedType" : "double",
          "columnName" : "prior_years_due",
          "isPrimaryKey" : false,
          "notNull" : false,
          "length" : 0,
          "precision" : 19,
          "generator" : "assigned",
          "isRelated" : false,
          "scale" : 4
        }, {
          "fieldName" : "otherDue",
          "type" : "double",
          "fullyQualifiedType" : "double",
          "columnName" : "other_due",
          "isPrimaryKey" : false,
          "notNull" : false,
          "length" : 0,
          "precision" : 19,
          "generator" : "assigned",
          "isRelated" : false,
          "scale" : 4
        }, {
          "fieldName" : "auctionYearBilled",
          "type" : "double",
          "fullyQualifiedType" : "double",
          "columnName" : "auction_year_billed",
          "isPrimaryKey" : false,
          "notNull" : false,
          "length" : 0,
          "precision" : 19,
          "generator" : "assigned",
          "isRelated" : false,
          "scale" : 4
        }, {
          "fieldName" : "auctionYearDue",
          "type" : "double",
          "fullyQualifiedType" : "double",
          "columnName" : "auction_year_due",
          "isPrimaryKey" : false,
          "notNull" : false,
          "length" : 0,
          "precision" : 19,
          "generator" : "assigned",
          "isRelated" : false,
          "scale" : 4
        }, {
          "fieldName" : "auctionInst1Due",
          "type" : "double",
          "fullyQualifiedType" : "double",
          "columnName" : "auction_inst1_due",
          "isPrimaryKey" : false,
          "notNull" : false,
          "length" : 0,
          "precision" : 19,
          "generator" : "assigned",
          "isRelated" : false,
          "scale" : 4
        }, {
          "fieldName" : "auctionInst2Due",
          "type" : "double",
          "fullyQualifiedType" : "double",
          "columnName" : "auction_inst2_due",
          "isPrimaryKey" : false,
          "notNull" : false,
          "length" : 0,
          "precision" : 19,
          "generator" : "assigned",
          "isRelated" : false,
          "scale" : 4
        }, {
          "fieldName" : "saleAmount",
          "type" : "double",
          "fullyQualifiedType" : "double",
          "columnName" : "sale_amount",
          "isPrimaryKey" : false,
          "notNull" : true,
          "length" : 0,
          "precision" : 19,
          "generator" : "assigned",
          "isRelated" : false,
          "scale" : 4
        }, {
          "fieldName" : "removed",
          "type" : "boolean",
          "fullyQualifiedType" : "boolean",
          "columnName" : "removed",
          "isPrimaryKey" : false,
          "notNull" : true,
          "length" : 0,
          "precision" : 0,
          "generator" : "assigned",
          "isRelated" : false,
          "scale" : 0
        }, {
          "fieldName" : "lastImportId",
          "type" : "integer",
          "fullyQualifiedType" : "integer",
          "columnName" : "last_import_id",
          "isPrimaryKey" : false,
          "notNull" : false,
          "length" : 0,
          "precision" : 10,
          "generator" : "assigned",
          "isRelated" : false,
          "scale" : 0
        } ]
      }, {
        "fieldName" : "buyerByBuyerId",
        "type" : "integer",
        "fullyQualifiedType" : "integer",
        "columnName" : "buyer_id",
        "isPrimaryKey" : false,
        "notNull" : true,
        "length" : 0,
        "precision" : 10,
        "generator" : "assigned",
        "isRelated" : true,
        "relatedTableName" : "buyer",
        "relatedEntityName" : "Buyer",
        "relatedColumnName" : "buyerId",
        "relatedFieldName" : "buyerByBuyerId.id",
        "isList" : false,
        "targetTable" : "buyer",
        "scale" : 0,
        "columns" : [ {
          "fieldName" : "buyerGroup",
          "type" : "integer",
          "fullyQualifiedType" : "integer",
          "columnName" : "buyer_group_id",
          "isPrimaryKey" : false,
          "notNull" : false,
          "length" : 0,
          "precision" : 10,
          "generator" : "assigned",
          "isRelated" : true,
          "relatedColumnName" : "buyerGroupId",
          "targetTable" : "buyer_group",
          "scale" : 0
        }, {
          "fieldName" : "id",
          "type" : "integer",
          "fullyQualifiedType" : "integer",
          "columnName" : "id",
          "isPrimaryKey" : true,
          "notNull" : true,
          "length" : 0,
          "precision" : 10,
          "generator" : "identity",
          "isRelated" : false,
          "scale" : 0
        }, {
          "fieldName" : "buyerName",
          "type" : "string",
          "fullyQualifiedType" : "string",
          "columnName" : "buyer_name",
          "isPrimaryKey" : false,
          "notNull" : true,
          "length" : 255,
          "precision" : 0,
          "generator" : "assigned",
          "isRelated" : false,
          "scale" : 0
        }, {
          "fieldName" : "externalId",
          "type" : "string",
          "fullyQualifiedType" : "string",
          "columnName" : "external_id",
          "isPrimaryKey" : false,
          "notNull" : false,
          "length" : 50,
          "precision" : 0,
          "generator" : "assigned",
          "isRelated" : false,
          "scale" : 0
        }, {
          "fieldName" : "cook2010",
          "type" : "double",
          "fullyQualifiedType" : "double",
          "columnName" : "cook_2010",
          "isPrimaryKey" : false,
          "notNull" : false,
          "length" : 0,
          "precision" : 19,
          "generator" : "assigned",
          "isRelated" : false,
          "scale" : 4
        }, {
          "fieldName" : "cook2011",
          "type" : "double",
          "fullyQualifiedType" : "double",
          "columnName" : "cook_2011",
          "isPrimaryKey" : false,
          "notNull" : false,
          "length" : 0,
          "precision" : 19,
          "generator" : "assigned",
          "isRelated" : false,
          "scale" : 4
        }, {
          "fieldName" : "cook2012",
          "type" : "double",
          "fullyQualifiedType" : "double",
          "columnName" : "cook_2012",
          "isPrimaryKey" : false,
          "notNull" : false,
          "length" : 0,
          "precision" : 19,
          "generator" : "assigned",
          "isRelated" : false,
          "scale" : 4
        }, {
          "fieldName" : "cook2013",
          "type" : "double",
          "fullyQualifiedType" : "double",
          "columnName" : "cook_2013",
          "isPrimaryKey" : false,
          "notNull" : false,
          "length" : 0,
          "precision" : 19,
          "generator" : "assigned",
          "isRelated" : false,
          "scale" : 4
        }, {
          "fieldName" : "cook2014",
          "type" : "double",
          "fullyQualifiedType" : "double",
          "columnName" : "cook_2014",
          "isPrimaryKey" : false,
          "notNull" : false,
          "length" : 0,
          "precision" : 19,
          "generator" : "assigned",
          "isRelated" : false,
          "scale" : 4
        }, {
          "fieldName" : "cook2015",
          "type" : "big_decimal",
          "fullyQualifiedType" : "big_decimal",
          "columnName" : "cook_2015",
          "isPrimaryKey" : false,
          "notNull" : false,
          "length" : 0,
          "precision" : 19,
          "generator" : "assigned",
          "isRelated" : false,
          "scale" : 4
        } ]
      }, {
        "fieldName" : "property",
        "type" : "integer",
        "fullyQualifiedType" : "integer",
        "columnName" : "property_id",
        "isPrimaryKey" : false,
        "notNull" : true,
        "length" : 0,
        "precision" : 10,
        "generator" : "assigned",
        "isRelated" : true,
        "relatedTableName" : "property",
        "relatedEntityName" : "Property",
        "relatedColumnName" : "propertyId",
        "relatedFieldName" : "property.id",
        "isList" : false,
        "targetTable" : "property",
        "scale" : 0,
        "columns" : [ {
          "fieldName" : "county",
          "type" : "integer",
          "fullyQualifiedType" : "integer",
          "columnName" : "county_id",
          "isPrimaryKey" : false,
          "notNull" : true,
          "length" : 0,
          "precision" : 10,
          "generator" : "assigned",
          "isRelated" : true,
          "relatedColumnName" : "countyId",
          "targetTable" : "county",
          "scale" : 0
        }, {
          "fieldName" : "grade",
          "type" : "integer",
          "fullyQualifiedType" : "integer",
          "columnName" : "grade_id",
          "isPrimaryKey" : false,
          "notNull" : true,
          "length" : 0,
          "precision" : 10,
          "generator" : "assigned",
          "isRelated" : true,
          "relatedColumnName" : "gradeId",
          "targetTable" : "grade",
          "scale" : 0
        }, {
          "fieldName" : "propertyExterior",
          "type" : "integer",
          "fullyQualifiedType" : "integer",
          "columnName" : "property_exterior_id",
          "isPrimaryKey" : false,
          "notNull" : false,
          "length" : 0,
          "precision" : 10,
          "generator" : "assigned",
          "isRelated" : true,
          "relatedColumnName" : "propertyExteriorId",
          "targetTable" : "property_exterior",
          "scale" : 0
        }, {
          "fieldName" : "propertyType",
          "type" : "integer",
          "fullyQualifiedType" : "integer",
          "columnName" : "property_type_id",
          "isPrimaryKey" : false,
          "notNull" : false,
          "length" : 0,
          "precision" : 10,
          "generator" : "assigned",
          "isRelated" : true,
          "relatedColumnName" : "propertyTypeId",
          "targetTable" : "property_type",
          "scale" : 0
        }, {
          "fieldName" : "propertyByReplacedBy",
          "type" : "integer",
          "fullyQualifiedType" : "integer",
          "columnName" : "replaced_by",
          "isPrimaryKey" : false,
          "notNull" : false,
          "length" : 0,
          "precision" : 10,
          "generator" : "assigned",
          "isRelated" : true,
          "relatedColumnName" : "replacedBy",
          "targetTable" : "property",
          "scale" : 0
        }, {
          "fieldName" : "sourceByAddressSource1",
          "type" : "string",
          "fullyQualifiedType" : "string",
          "columnName" : "address_source1",
          "isPrimaryKey" : false,
          "notNull" : false,
          "length" : 4,
          "precision" : 0,
          "generator" : "assigned",
          "isRelated" : true,
          "relatedColumnName" : "addressSource1",
          "targetTable" : "source",
          "scale" : 0
        }, {
          "fieldName" : "sourceByAddressSource2",
          "type" : "string",
          "fullyQualifiedType" : "string",
          "columnName" : "address_source2",
          "isPrimaryKey" : false,
          "notNull" : false,
          "length" : 4,
          "precision" : 0,
          "generator" : "assigned",
          "isRelated" : true,
          "relatedColumnName" : "addressSource2",
          "targetTable" : "source",
          "scale" : 0
        }, {
          "fieldName" : "township",
          "type" : "integer",
          "fullyQualifiedType" : "integer",
          "columnName" : "township_id",
          "isPrimaryKey" : false,
          "notNull" : true,
          "length" : 0,
          "precision" : 10,
          "generator" : "assigned",
          "isRelated" : true,
          "relatedColumnName" : "townshipId",
          "targetTable" : "township",
          "scale" : 0
        }, {
          "fieldName" : "id",
          "type" : "integer",
          "fullyQualifiedType" : "integer",
          "columnName" : "ID",
          "isPrimaryKey" : true,
          "notNull" : true,
          "length" : 0,
          "precision" : 10,
          "generator" : "identity",
          "isRelated" : false,
          "scale" : 0
        }, {
          "fieldName" : "pin",
          "type" : "string",
          "fullyQualifiedType" : "string",
          "columnName" : "pin",
          "isPrimaryKey" : false,
          "notNull" : true,
          "length" : 220,
          "precision" : 0,
          "generator" : "assigned",
          "isRelated" : false,
          "scale" : 0
        }, {
          "fieldName" : "updatedTimestamp",
          "type" : "datetime",
          "fullyQualifiedType" : "datetime",
          "columnName" : "updated_timestamp",
          "isPrimaryKey" : false,
          "notNull" : true,
          "length" : 0,
          "precision" : 0,
          "generator" : "assigned",
          "isRelated" : false,
          "scale" : 0
        }, {
          "fieldName" : "dead",
          "type" : "boolean",
          "fullyQualifiedType" : "boolean",
          "columnName" : "dead",
          "isPrimaryKey" : false,
          "notNull" : true,
          "length" : 0,
          "precision" : 0,
          "generator" : "assigned",
          "isRelated" : false,
          "scale" : 0
        }, {
          "fieldName" : "volume",
          "type" : "integer",
          "fullyQualifiedType" : "integer",
          "columnName" : "volume",
          "isPrimaryKey" : false,
          "notNull" : false,
          "length" : 0,
          "precision" : 10,
          "generator" : "assigned",
          "isRelated" : false,
          "scale" : 0
        }, {
          "fieldName" : "addressLine1",
          "type" : "string",
          "fullyQualifiedType" : "string",
          "columnName" : "address_line1",
          "isPrimaryKey" : false,
          "notNull" : false,
          "length" : 220,
          "precision" : 0,
          "generator" : "assigned",
          "isRelated" : false,
          "scale" : 0
        }, {
          "fieldName" : "addressLine2",
          "type" : "string",
          "fullyQualifiedType" : "string",
          "columnName" : "address_line2",
          "isPrimaryKey" : false,
          "notNull" : false,
          "length" : 220,
          "precision" : 0,
          "generator" : "assigned",
          "isRelated" : false,
          "scale" : 0
        }, {
          "fieldName" : "addressCity",
          "type" : "string",
          "fullyQualifiedType" : "string",
          "columnName" : "address_city",
          "isPrimaryKey" : false,
          "notNull" : false,
          "length" : 220,
          "precision" : 0,
          "generator" : "assigned",
          "isRelated" : false,
          "scale" : 0
        }, {
          "fieldName" : "addressZip",
          "type" : "string",
          "fullyQualifiedType" : "string",
          "columnName" : "address_zip",
          "isPrimaryKey" : false,
          "notNull" : false,
          "length" : 10,
          "precision" : 0,
          "generator" : "assigned",
          "isRelated" : false,
          "scale" : 0
        }, {
          "fieldName" : "yearBuilt",
          "type" : "integer",
          "fullyQualifiedType" : "integer",
          "columnName" : "year_built",
          "isPrimaryKey" : false,
          "notNull" : false,
          "length" : 0,
          "precision" : 10,
          "generator" : "assigned",
          "isRelated" : false,
          "scale" : 0
        }, {
          "fieldName" : "yearImproved",
          "type" : "integer",
          "fullyQualifiedType" : "integer",
          "columnName" : "year_improved",
          "isPrimaryKey" : false,
          "notNull" : false,
          "length" : 0,
          "precision" : 10,
          "generator" : "assigned",
          "isRelated" : false,
          "scale" : 0
        }, {
          "fieldName" : "sqftLiving",
          "type" : "integer",
          "fullyQualifiedType" : "integer",
          "columnName" : "sqft_living",
          "isPrimaryKey" : false,
          "notNull" : false,
          "length" : 0,
          "precision" : 10,
          "generator" : "assigned",
          "isRelated" : false,
          "scale" : 0
        }, {
          "fieldName" : "sqftTotal",
          "type" : "integer",
          "fullyQualifiedType" : "integer",
          "columnName" : "sqft_total",
          "isPrimaryKey" : false,
          "notNull" : false,
          "length" : 0,
          "precision" : 10,
          "generator" : "assigned",
          "isRelated" : false,
          "scale" : 0
        }, {
          "fieldName" : "lotSize",
          "type" : "big_decimal",
          "fullyQualifiedType" : "big_decimal",
          "columnName" : "lot_size",
          "isPrimaryKey" : false,
          "notNull" : false,
          "length" : 0,
          "precision" : 10,
          "generator" : "assigned",
          "isRelated" : false,
          "scale" : 0
        }, {
          "fieldName" : "addressVerified",
          "type" : "boolean",
          "fullyQualifiedType" : "boolean",
          "columnName" : "address_verified",
          "isPrimaryKey" : false,
          "notNull" : true,
          "length" : 0,
          "precision" : 0,
          "generator" : "assigned",
          "isRelated" : false,
          "scale" : 0
        }, {
          "fieldName" : "latitude",
          "type" : "float",
          "fullyQualifiedType" : "float",
          "columnName" : "latitude",
          "isPrimaryKey" : false,
          "notNull" : false,
          "length" : 0,
          "precision" : 9,
          "generator" : "assigned",
          "isRelated" : false,
          "scale" : 6
        }, {
          "fieldName" : "longitude",
          "type" : "float",
          "fullyQualifiedType" : "float",
          "columnName" : "longitude",
          "isPrimaryKey" : false,
          "notNull" : false,
          "length" : 0,
          "precision" : 9,
          "generator" : "assigned",
          "isRelated" : false,
          "scale" : 6
        }, {
          "fieldName" : "lastImportId",
          "type" : "integer",
          "fullyQualifiedType" : "integer",
          "columnName" : "last_import_id",
          "isPrimaryKey" : false,
          "notNull" : false,
          "length" : 0,
          "precision" : 10,
          "generator" : "assigned",
          "isRelated" : false,
          "scale" : 0
        }, {
          "fieldName" : "pinNd",
          "type" : "string",
          "fullyQualifiedType" : "string",
          "columnName" : "pin_nd",
          "isPrimaryKey" : false,
          "notNull" : false,
          "length" : 4000,
          "precision" : 0,
          "generator" : "assigned",
          "isRelated" : false,
          "systemInserted" : true,
          "systemUpdated" : true,
          "scale" : 0
        }, {
          "fieldName" : "pinBuilding",
          "type" : "string",
          "fullyQualifiedType" : "string",
          "columnName" : "pin_building",
          "isPrimaryKey" : false,
          "notNull" : false,
          "length" : 14,
          "precision" : 0,
          "generator" : "assigned",
          "isRelated" : false,
          "systemInserted" : true,
          "systemUpdated" : true,
          "scale" : 0
        }, {
          "fieldName" : "metesAndBounds",
          "type" : "string",
          "fullyQualifiedType" : "string",
          "columnName" : "metes_and_bounds",
          "isPrimaryKey" : false,
          "notNull" : false,
          "length" : 220,
          "precision" : 0,
          "generator" : "assigned",
          "isRelated" : false,
          "scale" : 0
        } ]
      }, {
        "fieldName" : "buyerBySubBuyerId",
        "type" : "integer",
        "fullyQualifiedType" : "integer",
        "columnName" : "sub_buyer_id",
        "isPrimaryKey" : false,
        "notNull" : false,
        "length" : 0,
        "precision" : 10,
        "generator" : "assigned",
        "isRelated" : true,
        "relatedTableName" : "buyer",
        "relatedEntityName" : "Buyer",
        "relatedColumnName" : "subBuyerId",
        "relatedFieldName" : "buyerBySubBuyerId.id",
        "isList" : false,
        "targetTable" : "buyer",
        "scale" : 0,
        "columns" : [ {
          "fieldName" : "buyerGroup",
          "type" : "integer",
          "fullyQualifiedType" : "integer",
          "columnName" : "buyer_group_id",
          "isPrimaryKey" : false,
          "notNull" : false,
          "length" : 0,
          "precision" : 10,
          "generator" : "assigned",
          "isRelated" : true,
          "relatedColumnName" : "buyerGroupId",
          "targetTable" : "buyer_group",
          "scale" : 0
        }, {
          "fieldName" : "id",
          "type" : "integer",
          "fullyQualifiedType" : "integer",
          "columnName" : "id",
          "isPrimaryKey" : true,
          "notNull" : true,
          "length" : 0,
          "precision" : 10,
          "generator" : "identity",
          "isRelated" : false,
          "scale" : 0
        }, {
          "fieldName" : "buyerName",
          "type" : "string",
          "fullyQualifiedType" : "string",
          "columnName" : "buyer_name",
          "isPrimaryKey" : false,
          "notNull" : true,
          "length" : 255,
          "precision" : 0,
          "generator" : "assigned",
          "isRelated" : false,
          "scale" : 0
        }, {
          "fieldName" : "externalId",
          "type" : "string",
          "fullyQualifiedType" : "string",
          "columnName" : "external_id",
          "isPrimaryKey" : false,
          "notNull" : false,
          "length" : 50,
          "precision" : 0,
          "generator" : "assigned",
          "isRelated" : false,
          "scale" : 0
        }, {
          "fieldName" : "cook2010",
          "type" : "double",
          "fullyQualifiedType" : "double",
          "columnName" : "cook_2010",
          "isPrimaryKey" : false,
          "notNull" : false,
          "length" : 0,
          "precision" : 19,
          "generator" : "assigned",
          "isRelated" : false,
          "scale" : 4
        }, {
          "fieldName" : "cook2011",
          "type" : "double",
          "fullyQualifiedType" : "double",
          "columnName" : "cook_2011",
          "isPrimaryKey" : false,
          "notNull" : false,
          "length" : 0,
          "precision" : 19,
          "generator" : "assigned",
          "isRelated" : false,
          "scale" : 4
        }, {
          "fieldName" : "cook2012",
          "type" : "double",
          "fullyQualifiedType" : "double",
          "columnName" : "cook_2012",
          "isPrimaryKey" : false,
          "notNull" : false,
          "length" : 0,
          "precision" : 19,
          "generator" : "assigned",
          "isRelated" : false,
          "scale" : 4
        }, {
          "fieldName" : "cook2013",
          "type" : "double",
          "fullyQualifiedType" : "double",
          "columnName" : "cook_2013",
          "isPrimaryKey" : false,
          "notNull" : false,
          "length" : 0,
          "precision" : 19,
          "generator" : "assigned",
          "isRelated" : false,
          "scale" : 4
        }, {
          "fieldName" : "cook2014",
          "type" : "double",
          "fullyQualifiedType" : "double",
          "columnName" : "cook_2014",
          "isPrimaryKey" : false,
          "notNull" : false,
          "length" : 0,
          "precision" : 19,
          "generator" : "assigned",
          "isRelated" : false,
          "scale" : 4
        }, {
          "fieldName" : "cook2015",
          "type" : "big_decimal",
          "fullyQualifiedType" : "big_decimal",
          "columnName" : "cook_2015",
          "isPrimaryKey" : false,
          "notNull" : false,
          "length" : 0,
          "precision" : 19,
          "generator" : "assigned",
          "isRelated" : false,
          "scale" : 4
        } ]
      }, {
        "fieldName" : "id",
        "type" : "integer",
        "fullyQualifiedType" : "integer",
        "columnName" : "id",
        "isPrimaryKey" : true,
        "notNull" : true,
        "length" : 0,
        "precision" : 10,
        "generator" : "identity",
        "isRelated" : false,
        "scale" : 0
      }, {
        "fieldName" : "updatedTimestamp",
        "type" : "datetime",
        "fullyQualifiedType" : "datetime",
        "columnName" : "updated_timestamp",
        "isPrimaryKey" : false,
        "notNull" : true,
        "length" : 0,
        "precision" : 0,
        "generator" : "assigned",
        "isRelated" : false,
        "scale" : 0
      }, {
        "fieldName" : "saleDate",
        "type" : "date",
        "fullyQualifiedType" : "date",
        "columnName" : "sale_date",
        "isPrimaryKey" : false,
        "notNull" : true,
        "length" : 0,
        "precision" : 0,
        "generator" : "assigned",
        "isRelated" : false,
        "scale" : 0
      }, {
        "fieldName" : "bidRate",
        "type" : "big_decimal",
        "fullyQualifiedType" : "big_decimal",
        "columnName" : "bid_rate",
        "isPrimaryKey" : false,
        "notNull" : false,
        "length" : 0,
        "precision" : 28,
        "generator" : "assigned",
        "isRelated" : false,
        "scale" : 6
      }, {
        "fieldName" : "bidAmount",
        "type" : "big_decimal",
        "fullyQualifiedType" : "big_decimal",
        "columnName" : "bid_amount",
        "isPrimaryKey" : false,
        "notNull" : false,
        "length" : 0,
        "precision" : 28,
        "generator" : "assigned",
        "isRelated" : false,
        "scale" : 6
      }, {
        "fieldName" : "subSaleDate",
        "type" : "date",
        "fullyQualifiedType" : "date",
        "columnName" : "sub_sale_date",
        "isPrimaryKey" : false,
        "notNull" : false,
        "length" : 0,
        "precision" : 0,
        "generator" : "assigned",
        "isRelated" : false,
        "scale" : 0
      }, {
        "fieldName" : "lastRedemptionDate",
        "type" : "date",
        "fullyQualifiedType" : "date",
        "columnName" : "last_redemption_date",
        "isPrimaryKey" : false,
        "notNull" : false,
        "length" : 0,
        "precision" : 0,
        "generator" : "assigned",
        "isRelated" : false,
        "scale" : 0
      }, {
        "fieldName" : "status",
        "type" : "string",
        "fullyQualifiedType" : "string",
        "columnName" : "status",
        "isPrimaryKey" : false,
        "notNull" : true,
        "length" : 10,
        "precision" : 0,
        "generator" : "assigned",
        "isRelated" : false,
        "scale" : 0
      }, {
        "fieldName" : "dispositionDate",
        "type" : "date",
        "fullyQualifiedType" : "date",
        "columnName" : "disposition_date",
        "isPrimaryKey" : false,
        "notNull" : false,
        "length" : 0,
        "precision" : 0,
        "generator" : "assigned",
        "isRelated" : false,
        "scale" : 0
      }, {
        "fieldName" : "caseNumber",
        "type" : "string",
        "fullyQualifiedType" : "string",
        "columnName" : "case_number",
        "isPrimaryKey" : false,
        "notNull" : false,
        "length" : 50,
        "precision" : 0,
        "generator" : "assigned",
        "isRelated" : false,
        "scale" : 0
      }, {
        "fieldName" : "dispositionResearchDate",
        "type" : "date",
        "fullyQualifiedType" : "date",
        "columnName" : "disposition_research_date",
        "isPrimaryKey" : false,
        "notNull" : true,
        "length" : 0,
        "precision" : 0,
        "generator" : "assigned",
        "isRelated" : false,
        "scale" : 0
      }, {
        "fieldName" : "lastImportId",
        "type" : "integer",
        "fullyQualifiedType" : "integer",
        "columnName" : "last_import_id",
        "isPrimaryKey" : false,
        "notNull" : false,
        "length" : 0,
        "precision" : 10,
        "generator" : "assigned",
        "isRelated" : false,
        "scale" : 0
      } ],
      "entityName" : "AuctionResult",
      "fullyQualifiedName" : "com.portal.platform.AuctionResult",
      "tableType" : "TABLE",
      "primaryFields" : [ "id" ]
    },
    "isDefault" : true,
    "bindCount" : 2,
    "tableName" : "auction_result",
    "tableType" : "TABLE",
    "properties" : [ "auction", "buyerByBuyerId", "property", "buyerBySubBuyerId" ],
    "relatedTables" : [ {
      "columnName" : "auction",
      "relationName" : "auction",
      "type" : "Auction",
      "watchOn" : "PlatformAuctionData",
      "package" : "com.portal.platform.AuctionResult"
    }, {
      "columnName" : "buyerByBuyerId",
      "relationName" : "buyerByBuyerId",
      "type" : "Buyer",
      "watchOn" : "PlatformBuyerData",
      "package" : "com.portal.platform.AuctionResult"
    }, {
      "columnName" : "property",
      "relationName" : "property",
      "type" : "Property",
      "watchOn" : "PlatformPropertyData",
      "package" : "com.portal.platform.AuctionResult"
    }, {
      "columnName" : "buyerBySubBuyerId",
      "relationName" : "buyerBySubBuyerId",
      "type" : "Buyer",
      "watchOn" : "PlatformBuyerData",
      "package" : "com.portal.platform.AuctionResult"
    } ],
    "filterFields" : { },
    "package" : "com.portal.platform.AuctionResult"
  },
  "ncAuctionFailure" : {
    "_id" : "wm-ncAuctionFailure-wm.NotificationVariable-1474564611894",
    "name" : "ncAuctionFailure",
    "owner" : "Page",
    "category" : "wm.NotificationVariable",
    "dataBinding" : [ {
      "target" : "content",
      "value" : "inline",
      "type" : "list"
    }, {
      "target" : "text",
      "value" : "Error while updating Auction.  Please check the values.",
      "type" : "string"
    }, {
      "target" : "duration",
      "value" : "5000",
      "type" : "list"
    }, {
      "target" : "class",
      "value" : "Error",
      "type" : "list"
    }, {
      "target" : "toasterPosition",
      "value" : "bottom right",
      "type" : "list"
    } ],
    "operation" : "toast"
  },
  "ncAuctionResultFailure" : {
    "_id" : "wm-ncAuctionResultFailure-wm.NotificationVariable-1474564719218",
    "name" : "ncAuctionResultFailure",
    "owner" : "Page",
    "category" : "wm.NotificationVariable",
    "dataBinding" : [ {
      "target" : "content",
      "value" : "inline",
      "type" : "list"
    }, {
      "target" : "text",
      "value" : "Error while updating Auction Result. Please check the values.",
      "type" : "string"
    }, {
      "target" : "duration",
      "value" : "5000",
      "type" : "list"
    }, {
      "target" : "class",
      "value" : "Error",
      "type" : "list"
    }, {
      "target" : "toasterPosition",
      "value" : "bottom right",
      "type" : "list"
    } ],
    "operation" : "toast"
  },
  "ncAuctionResultSuccess" : {
    "_id" : "wm-ncAuctionResultSuccess-wm.NotificationVariable-1474564670986",
    "name" : "ncAuctionResultSuccess",
    "owner" : "Page",
    "category" : "wm.NotificationVariable",
    "dataBinding" : [ {
      "target" : "content",
      "value" : "inline",
      "type" : "list"
    }, {
      "target" : "text",
      "value" : "Updated Auction Result Successfully",
      "type" : "string"
    }, {
      "target" : "duration",
      "value" : "5000",
      "type" : "list"
    }, {
      "target" : "class",
      "value" : "Success",
      "type" : "list"
    }, {
      "target" : "toasterPosition",
      "value" : "bottom right",
      "type" : "list"
    } ],
    "operation" : "toast"
  },
  "ncAuctionSuccess" : {
    "_id" : "wm-ncAuctionSuccess-wm.NotificationVariable-1474564549893",
    "name" : "ncAuctionSuccess",
    "owner" : "Page",
    "category" : "wm.NotificationVariable",
    "dataBinding" : [ {
      "target" : "content",
      "value" : "inline",
      "type" : "list"
    }, {
      "target" : "text",
      "value" : "Updated Auction Successfully",
      "type" : "string"
    }, {
      "target" : "duration",
      "value" : "5000",
      "type" : "list"
    }, {
      "target" : "class",
      "value" : "Success",
      "type" : "list"
    }, {
      "target" : "toasterPosition",
      "value" : "bottom right",
      "type" : "list"
    } ],
    "operation" : "toast"
  },
  "svAuctionResult" : {
    "_id" : "wm-svAuctionResult-wm.ServiceVariable-1489126876312",
    "name" : "svAuctionResult",
    "owner" : "Page",
    "category" : "wm.ServiceVariable",
    "dataBinding" : [ {
      "target" : "property_id",
      "value" : "bind:$parent.$parent.$parent.$parent.Widgets.SearchResultLiveList.selecteditem.property_id",
      "type" : "integer"
    } ],
    "type" : "com.portal.platform.models.query.QryAuctionResultResponse",
    "service" : "platform",
    "operation" : "executeQryAuctionResult",
    "operationId" : "QueryExecutionController_executeQryAuctionResult",
    "operationType" : "get",
    "serviceType" : "DataService",
    "dataSet" : [ ],
    "isList" : true,
    "maxResults" : 20,
    "designMaxResults" : 10,
    "orderBy" : "tax_year desc",
    "startUpdate" : false,
    "autoUpdate" : true,
    "inFlightBehavior" : "executeLast",
    "transformationRequired" : false,
    "saveInPhonegap" : false,
    "controller" : "QueryExecution"
  },
  "svQryAssessment" : {
    "_id" : "wm-svQryAssessment-wm.ServiceVariable-1474606513041",
    "name" : "svQryAssessment",
    "owner" : "Page",
    "category" : "wm.ServiceVariable",
    "dataBinding" : [ {
      "target" : "selected_property_id",
      "value" : "bind:$parent.$parent.$parent.$parent.Widgets.SearchResultLiveList.selecteditem.property_id",
      "type" : "integer"
    } ],
    "type" : "com.portal.platform.models.query.QryAssessmentResponse",
    "service" : "platform",
    "operation" : "executeQryAssessment",
    "operationId" : "QueryExecutionController_executeQryAssessment",
    "operationType" : "get",
    "serviceType" : "DataService",
    "dataSet" : [ ],
    "isList" : true,
    "maxResults" : -1,
    "designMaxResults" : 10,
    "orderBy" : "tax_year desc",
    "startUpdate" : false,
    "autoUpdate" : true,
    "inFlightBehavior" : "executeLast",
    "transformationRequired" : false,
    "saveInPhonegap" : false,
    "isDefault" : true,
    "controller" : "QueryExecution"
  },
  "svQryPortalAuctionResultByPropertyID" : {
    "_id" : "wm-svQryPortalAuctionResultByPropertyID-wm.ServiceVariable-1474539136432",
    "name" : "svQryPortalAuctionResultByPropertyID",
    "owner" : "Page",
    "category" : "wm.ServiceVariable",
    "dataBinding" : [ {
      "target" : "property_id",
      "value" : "bind:$parent.Widgets.SearchResultLiveList.selecteditem.property_id",
      "type" : "integer"
    } ],
    "type" : "com.portal.platform.models.query.QryPortalAuctionResultByPropertyIdResponse",
    "service" : "platform",
    "operation" : "executeQryPortalAuctionResultByPropertyID",
    "operationId" : "QueryExecutionController_executeQryPortalAuctionResultByPropertyID",
    "operationType" : "get",
    "serviceType" : "DataService",
    "dataSet" : [ ],
    "isList" : true,
    "maxResults" : 20,
    "designMaxResults" : 10,
    "startUpdate" : false,
    "autoUpdate" : true,
    "inFlightBehavior" : "executeLast",
    "transformationRequired" : false,
    "saveInPhonegap" : false,
    "controller" : "QueryExecution"
  },
  "svQryResearchDate" : {
    "_id" : "wm-svResearchDate-wm.ServiceVariable-1474619234407",
    "name" : "svQryResearchDate",
    "owner" : "Page",
    "category" : "wm.ServiceVariable",
    "dataBinding" : [ {
      "target" : "selected_property_id",
      "value" : "bind:$parent.$parent.$parent.$parent.Widgets.SearchResultLiveList.selecteditem.property_id",
      "type" : "integer"
    } ],
    "type" : "com.portal.platform.models.query.QryResearchDateResponse",
    "service" : "platform",
    "operation" : "executeQryResearchDate",
    "operationId" : "QueryExecutionController_executeQryResearchDate",
    "operationType" : "get",
    "serviceType" : "DataService",
    "dataSet" : [ ],
    "isList" : true,
    "maxResults" : 20,
    "designMaxResults" : 10,
    "orderBy" : "date desc",
    "onSuccess" : "Variables.svQryTaxHistoryResearch.invoke()",
    "startUpdate" : false,
    "autoUpdate" : true,
    "inFlightBehavior" : "executeLast",
    "transformationRequired" : false,
    "saveInPhonegap" : false,
    "controller" : "QueryExecution"
  },
  "svQryStatus" : {
    "_id" : "wm-svQryStatus-wm.ServiceVariable-1475509195559",
    "name" : "svQryStatus",
    "owner" : "Page",
    "category" : "wm.ServiceVariable",
    "dataBinding" : [ ],
    "type" : "com.portal.platform.models.query.QryStatusResponse",
    "service" : "platform",
    "operation" : "executeQryStatus",
    "operationId" : "QueryExecutionController_executeQryStatus",
    "operationType" : "get",
    "serviceType" : "DataService",
    "dataSet" : [ ],
    "isList" : true,
    "maxResults" : -1,
    "designMaxResults" : 10,
    "orderBy" : "status asc",
    "startUpdate" : true,
    "autoUpdate" : true,
    "inFlightBehavior" : "executeLast",
    "transformationRequired" : false,
    "saveInPhonegap" : false,
    "controller" : "QueryExecution"
  },
  "svQryTaxHistoryResearch" : {
    "_id" : "wm-svQryTaxHistoryResearch-wm.ServiceVariable-1474619373706",
    "name" : "svQryTaxHistoryResearch",
    "owner" : "Page",
    "category" : "wm.ServiceVariable",
    "dataBinding" : [ {
      "target" : "selected_property_id",
      "value" : "bind:$parent.$parent.$parent.$parent.Widgets.SearchResultLiveList.selecteditem.property_id",
      "type" : "integer"
    }, {
      "target" : "selected_research_date",
      "value" : "bind:Widgets.ResearchDate.datavalue",
      "type" : "string"
    } ],
    "type" : "com.portal.platform.models.query.QryTaxHistoryResearchResponse",
    "service" : "platform",
    "operation" : "executeQryTaxHistoryResearch",
    "operationId" : "QueryExecutionController_executeQryTaxHistoryResearch",
    "operationType" : "get",
    "serviceType" : "DataService",
    "dataSet" : [ ],
    "isList" : true,
    "maxResults" : -1,
    "designMaxResults" : 10,
    "orderBy" : "tax_year desc",
    "startUpdate" : false,
    "autoUpdate" : false,
    "inFlightBehavior" : "executeLast",
    "transformationRequired" : false,
    "saveInPhonegap" : false,
    "controller" : "QueryExecution"
  },
  "svQryUpdateAuction" : {
    "_id" : "wm-svQryUpdateAuction-wm.ServiceVariable-1474564226348",
    "name" : "svQryUpdateAuction",
    "owner" : "Page",
    "category" : "wm.ServiceVariable",
    "dataBinding" : [ ],
    "type" : "com.wavemaker.commons.wrapper.IntegerWrapper",
    "service" : "platform",
    "operation" : "executeQryUpdateAuction",
    "operationId" : "QueryExecutionController_executeQryUpdateAuction",
    "operationType" : "put",
    "serviceType" : "DataService",
    "dataSet" : [ ],
    "isList" : false,
    "maxResults" : 20,
    "designMaxResults" : 10,
    "onSuccess" : "Variables.ncAuctionSuccess.invoke()",
    "onError" : "svQryUpdateAuctiononError($event, $scope)",
    "startUpdate" : false,
    "autoUpdate" : false,
    "inFlightBehavior" : "executeLast",
    "transformationRequired" : false,
    "saveInPhonegap" : false,
    "controller" : "QueryExecution"
  },
  "svQryUpdateAuctionResult" : {
    "_id" : "wm-svQryUpdateAuctionResult-wm.ServiceVariable-1474564374283",
    "name" : "svQryUpdateAuctionResult",
    "owner" : "Page",
    "category" : "wm.ServiceVariable",
    "dataBinding" : [ ],
    "type" : "com.wavemaker.commons.wrapper.IntegerWrapper",
    "service" : "platform",
    "operation" : "executeQryUpdateAuctionResult",
    "operationId" : "QueryExecutionController_executeQryUpdateAuctionResult",
    "operationType" : "put",
    "serviceType" : "DataService",
    "dataSet" : [ ],
    "isList" : false,
    "maxResults" : 20,
    "designMaxResults" : 10,
    "onSuccess" : "Variables.ncAuctionResultSuccess.invoke()",
    "onError" : "svQryUpdateAuctionResultonError($event, $scope)",
    "startUpdate" : false,
    "autoUpdate" : false,
    "inFlightBehavior" : "executeLast",
    "transformationRequired" : false,
    "saveInPhonegap" : false,
    "controller" : "QueryExecution"
  },
  "svUpdateAuction" : {
    "_id" : "wm-svUpdateAuction-wm.ServiceVariable-1487921634975",
    "name" : "svUpdateAuction",
    "owner" : "Page",
    "category" : "wm.ServiceVariable",
    "dataBinding" : [ ],
    "service" : "platform",
    "operation" : "executeProcUpdateAuction",
    "operationId" : "ProcedureExecutionController_executeProcUpdateAuction",
    "operationType" : "get",
    "serviceType" : "DataService",
    "dataSet" : [ ],
    "isList" : true,
    "maxResults" : 20,
    "designMaxResults" : 10,
    "onSuccess" : "Variables.ncAuctionResultSuccess.invoke();Variables.svAuctionResult.invoke()",
    "onError" : "svUpdateAuctiononError($event, $scope)",
    "startUpdate" : false,
    "autoUpdate" : false,
    "inFlightBehavior" : "executeLast",
    "transformationRequired" : false,
    "saveInPhonegap" : false,
    "controller" : "ProcedureExecution"
  }
}