{
  "basePath" : "/api",
  "tags" : [ {
    "description" : "Rest service swagger documentation",
    "name" : "RestServiceVirtualController"
  } ],
  "host" : "reportallusa.com",
  "paths" : {
    "/parcels.php" : {
      "x-WM-BASE_PATH" : "/parcels.php",
      "x-WM-TAG" : "RestServiceVirtualController",
      "get" : {
        "tags" : [ "RestServiceVirtualController" ],
        "x-WM-METHOD_NAME" : "invoke",
        "x-WM-ACCESS_SPECIFIER" : "APP_ONLY",
        "parameters" : [ {
          "description" : "v",
          "name" : "v",
          "x-WM-EDITABLE" : false,
          "format" : "string",
          "required" : false,
          "type" : "string",
          "in" : "query"
        }, {
          "description" : "client",
          "name" : "client",
          "x-WM-EDITABLE" : false,
          "format" : "string",
          "required" : false,
          "type" : "string",
          "in" : "query"
        }, {
          "description" : "spatial_intersect",
          "name" : "spatial_intersect",
          "x-WM-EDITABLE" : false,
          "format" : "string",
          "required" : false,
          "type" : "string",
          "in" : "query"
        }, {
          "description" : "si_srid",
          "name" : "si_srid",
          "x-WM-EDITABLE" : false,
          "format" : "string",
          "required" : false,
          "type" : "string",
          "in" : "query"
        } ],
        "consumes" : [ "text/xml" ],
        "responses" : {
          "200" : {
            "schema" : {
              "$ref" : "#/definitions/RootResponse"
            },
            "description" : "Success"
          }
        },
        "operationId" : "reportallusa_RestServiceVirtualController-invoke"
      },
      "x-WM-RELATIVE_PATH" : ""
    }
  },
  "schemes" : [ "https" ],
  "swagger" : "2.0",
  "definitions" : {
    "RootResponse" : {
      "x-WM-FULLY_QUALIFIED_NAME" : "reportallusa.RootResponse",
      "x-WM-TAGS" : [ "RestServiceVirtualController" ],
      "properties" : {
        "count" : {
          "format" : "int32",
          "type" : "integer"
        },
        "rpp" : {
          "format" : "int32",
          "type" : "integer"
        },
        "results" : {
          "x-WM-IS_LIST" : true,
          "items" : {
            "$ref" : "#/definitions/resultsEntryItem"
          },
          "type" : "array"
        },
        "status" : {
          "type" : "string"
        },
        "page" : {
          "format" : "int32",
          "type" : "integer"
        },
        "query" : {
          "type" : "string"
        }
      }
    },
    "resultsEntryItem" : {
      "x-WM-FULLY_QUALIFIED_NAME" : "reportallusa.resultsEntryItem",
      "x-WM-TAGS" : [ "RestServiceVirtualController" ],
      "properties" : {
        "census_zip" : {
          "type" : "string"
        },
        "physcity" : {
          "type" : "string"
        },
        "mkt_val_bldg" : {
          "type" : "string"
        },
        "addr_street_suffix" : {
          "type" : "string"
        },
        "mkt_val_tot" : {
          "type" : "string"
        },
        "land_use_class" : {
          "type" : "string"
        },
        "muni_id" : {
          "type" : "string"
        },
        "bldg_sqft" : {
          "type" : "string"
        },
        "acreage_deeded" : {
          "type" : "string"
        },
        "state_abbr" : {
          "type" : "string"
        },
        "acreage_calc" : {
          "type" : "string"
        },
        "mail_name" : {
          "type" : "string"
        },
        "physzip" : {
          "type" : "string"
        },
        "mkt_val_land" : {
          "type" : "string"
        },
        "land_use_code" : {
          "type" : "string"
        },
        "addr_street_type" : {
          "type" : "string"
        },
        "parcel_id" : {
          "type" : "string"
        },
        "ngh_code" : {
          "type" : "string"
        },
        "muni_name" : {
          "type" : "string"
        },
        "sale_price" : {
          "type" : "string"
        },
        "geom_as_wkt" : {
          "type" : "string"
        },
        "mail_address2" : {
          "type" : "string"
        },
        "mail_address3" : {
          "type" : "string"
        },
        "mail_address1" : {
          "type" : "string"
        },
        "addr_street_prefix" : {
          "type" : "string"
        },
        "addr_number" : {
          "type" : "string"
        },
        "school_dist_id" : {
          "type" : "string"
        },
        "trans_date" : {
          "type" : "string"
        },
        "story_height" : {
          "type" : "string"
        },
        "county_id" : {
          "type" : "string"
        },
        "addr_street_name" : {
          "type" : "string"
        },
        "owner" : {
          "type" : "string"
        },
        "county_name" : {
          "type" : "string"
        }
      }
    }
  },
  "info" : {
    "x-WM-SERVICE_TYPE" : "RestService",
    "x-WM-API_ID" : "1e83655c-72bc-4e32-b56b-33896a895cf1",
    "x-WM-USE_PROXY_FOR_WEB" : true,
    "x-WM-SERVICE_ID" : "reportallusa",
    "x-WM-USE_PROXY_FOR_MOBILE" : true,
    "version" : "2.0"
  }
}