{
  "Attendees" : {
    "_id" : "wm-Attendees-wm.Variable-1509090024100",
    "name" : "Attendees",
    "owner" : "Page",
    "category" : "wm.Variable",
    "dataBinding" : [ ],
    "dataSet" : [ {
      "email" : "amaladeepana@gmail.com"
    } ],
    "type" : "string",
    "isList" : true,
    "saveInPhonegap" : false
  },
  "EventFormData" : {
    "_id" : "wm-EventFormData-wm.Variable-1509089963456",
    "name" : "EventFormData",
    "owner" : "Page",
    "category" : "wm.Variable",
    "dataBinding" : [ {
      "target" : "attendees",
      "value" : "bind:Variables.Attendees.dataSet"
    }, {
      "target" : "summary",
      "value" : "bind:Widgets.summary.datavalue"
    }, {
      "target" : "location",
      "value" : "bind:Widgets.location.datavalue"
    }, {
      "target" : "description",
      "value" : "bind:Widgets.description.datavalue"
    } ],
    "dataSet" : {
      "id" : "",
      "summary" : "",
      "location" : "",
      "description" : "",
      "attendees" : [ ]
    },
    "type" : "string",
    "isList" : false,
    "saveInPhonegap" : false
  },
  "InsertOrUpdateEvent" : {
    "_id" : "wm-InsertOrUpdateEvent-wm.ServiceVariable-1509090592208",
    "name" : "InsertOrUpdateEvent",
    "owner" : "Page",
    "category" : "wm.ServiceVariable",
    "dataBinding" : [ {
      "isList" : false,
      "target" : "Event",
      "value" : "bind:Variables.EventFormData.dataSet",
      "type" : "com.google.api.services.calendar.model.Event"
    }, {
      "target" : "startDateTime",
      "value" : "bind:Widgets.startdatetime.datavalue",
      "type" : "integer"
    }, {
      "target" : "timeZoneID",
      "value" : "Asia/Culcutta",
      "type" : "string"
    }, {
      "target" : "endDateTime",
      "value" : "bind:Widgets.enddatetime.datavalue",
      "type" : "integer"
    } ],
    "type" : "object",
    "service" : "GoogleCalendarService",
    "operation" : "insertOrUpdateEvent",
    "operationId" : "GoogleCalendarController_insertOrUpdateEvent",
    "operationType" : "post",
    "serviceType" : "JavaService",
    "dataSet" : [ ],
    "isList" : false,
    "maxResults" : 20,
    "startUpdate" : false,
    "autoUpdate" : false,
    "inFlightBehavior" : "executeLast",
    "transformationRequired" : false,
    "saveInPhonegap" : false,
    "controller" : "GoogleCalendar"
  }
}