{
  "svPortalAuctionDataFromPropertyID" : {
    "_id" : "wm-svPortalAuctionDataFromPropertyID-wm.ServiceVariable-1480327378467",
    "name" : "svPortalAuctionDataFromPropertyID",
    "owner" : "Page",
    "category" : "wm.ServiceVariable",
    "dataBinding" : [ {
      "target" : "property_id",
      "value" : "bind:Widgets.SearchResultLiveList.selecteditem.property_id",
      "type" : "integer"
    } ],
    "type" : "com.portal.platform.models.query.QryPortalInspectionFilterByIdResponse",
    "service" : "platform",
    "operation" : "executeQryPortalInspectionFilterByID",
    "operationId" : "QueryExecutionController_executeQryPortalInspectionFilterByID",
    "operationType" : "get",
    "serviceType" : "DataService",
    "dataSet" : [ ],
    "isList" : true,
    "maxResults" : 20,
    "designMaxResults" : 10,
    "startUpdate" : false,
    "autoUpdate" : true,
    "inFlightBehavior" : "executeLast",
    "transformationRequired" : false,
    "saveInPhonegap" : false,
    "controller" : "QueryExecution"
  },
  "svQryPortalAuctionData" : {
    "_id" : "wm-svQryPortalAuctionData-wm.ServiceVariable-1480327431545",
    "name" : "svQryPortalAuctionData",
    "owner" : "Page",
    "category" : "wm.ServiceVariable",
    "dataBinding" : [ {
      "target" : "property_id",
      "value" : "bind:Widgets.SearchResultLiveList.selecteditem.property_id",
      "type" : "integer"
    } ],
    "type" : "com.portal.platform.models.query.QryPortalAuctionDataResponse",
    "service" : "platform",
    "operation" : "executeQryPortalAuctionData",
    "operationId" : "QueryExecutionController_executeQryPortalAuctionData",
    "operationType" : "get",
    "serviceType" : "DataService",
    "dataSet" : [ ],
    "isList" : true,
    "maxResults" : 20,
    "designMaxResults" : 10,
    "startUpdate" : false,
    "autoUpdate" : true,
    "inFlightBehavior" : "executeLast",
    "transformationRequired" : false,
    "saveInPhonegap" : false,
    "controller" : "QueryExecution"
  }
}