{
  "ClassTypes" : {
    "_id" : "wm-ClassTypes-wm.Variable-1475610119304",
    "name" : "ClassTypes",
    "owner" : "Page",
    "category" : "wm.Variable",
    "dataBinding" : [ ],
    "dataSet" : [ {
      "name" : "Individual",
      "dataValue" : "IND"
    }, {
      "name" : "Corporation",
      "dataValue" : "CORP"
    }, {
      "name" : "Government",
      "dataValue" : "GOV"
    } ],
    "type" : "entry",
    "isList" : true,
    "saveInPhonegap" : false
  },
  "ErrorDeletePartyInterest" : {
    "_id" : "wm-ErrorDeletePartyInterest-wm.NotificationVariable-1475656817547",
    "name" : "ErrorDeletePartyInterest",
    "owner" : "Page",
    "category" : "wm.NotificationVariable",
    "dataBinding" : [ {
      "target" : "content",
      "value" : "inline",
      "type" : "list"
    }, {
      "target" : "text",
      "value" : "An error occurred while deleting",
      "type" : "string"
    }, {
      "target" : "duration",
      "value" : "5000",
      "type" : "list"
    }, {
      "target" : "class",
      "value" : "Error",
      "type" : "list"
    }, {
      "target" : "toasterPosition",
      "value" : "bottom right",
      "type" : "list"
    } ],
    "operation" : "toast"
  },
  "ErrorSQL" : {
    "_id" : "wm-ErrorSQL-wm.NotificationVariable-1475668526429",
    "name" : "ErrorSQL",
    "owner" : "Page",
    "category" : "wm.NotificationVariable",
    "dataBinding" : [ {
      "target" : "content",
      "value" : "inline",
      "type" : "list"
    }, {
      "target" : "duration",
      "value" : "5000",
      "type" : "list"
    }, {
      "target" : "class",
      "value" : "Error",
      "type" : "list"
    }, {
      "target" : "toasterPosition",
      "value" : "bottom right",
      "type" : "list"
    } ],
    "operation" : "toast"
  },
  "ErrorUpdateParty" : {
    "_id" : "wm-ErrorUpdateParty-wm.NotificationVariable-1475614261982",
    "name" : "ErrorUpdateParty",
    "owner" : "Page",
    "category" : "wm.NotificationVariable",
    "dataBinding" : [ {
      "target" : "content",
      "value" : "inline",
      "type" : "list"
    }, {
      "target" : "text",
      "value" : "An error occurred while saving the party details",
      "type" : "string"
    }, {
      "target" : "duration",
      "value" : "5000",
      "type" : "list"
    }, {
      "target" : "class",
      "value" : "Error",
      "type" : "list"
    }, {
      "target" : "toasterPosition",
      "value" : "bottom right",
      "type" : "list"
    } ],
    "operation" : "toast"
  },
  "ErrorUpdatePartyInterest" : {
    "_id" : "wm-ErrorUpdatePartyInterest-wm.NotificationVariable-1475649543821",
    "name" : "ErrorUpdatePartyInterest",
    "owner" : "Page",
    "category" : "wm.NotificationVariable",
    "dataBinding" : [ {
      "target" : "content",
      "value" : "inline",
      "type" : "list"
    }, {
      "target" : "text",
      "value" : "An error occurred while updating the party interest details",
      "type" : "string"
    }, {
      "target" : "duration",
      "value" : "5000",
      "type" : "list"
    }, {
      "target" : "class",
      "value" : "Error",
      "type" : "list"
    }, {
      "target" : "toasterPosition",
      "value" : "bottom right",
      "type" : "list"
    } ],
    "operation" : "toast"
  },
  "ErrorValidation" : {
    "_id" : "wm-ErrorValidation-wm.NotificationVariable-1475818233634",
    "name" : "ErrorValidation",
    "owner" : "Page",
    "category" : "wm.NotificationVariable",
    "dataBinding" : [ {
      "target" : "content",
      "value" : "inline",
      "type" : "list"
    }, {
      "target" : "duration",
      "value" : "5000",
      "type" : "list"
    }, {
      "target" : "class",
      "value" : "Error",
      "type" : "list"
    }, {
      "target" : "toasterPosition",
      "value" : "bottom right",
      "type" : "list"
    } ],
    "operation" : "toast"
  },
  "ExistingParties" : {
    "_id" : "wm-ExistingParties-wm.ServiceVariable-1475745001220",
    "name" : "ExistingParties",
    "owner" : "Page",
    "category" : "wm.ServiceVariable",
    "dataBinding" : [ ],
    "type" : "com.portal.platform.models.query.QryPartiesResponse",
    "service" : "platform",
    "operation" : "executeQryParties",
    "operationId" : "QueryExecutionController_executeQryParties",
    "operationType" : "get",
    "serviceType" : "DataService",
    "dataSet" : [ ],
    "isList" : true,
    "maxResults" : 5,
    "designMaxResults" : 10,
    "startUpdate" : false,
    "autoUpdate" : false,
    "inFlightBehavior" : "executeLast",
    "transformationRequired" : false,
    "saveInPhonegap" : false,
    "controller" : "QueryExecution"
  },
  "InterestDD" : {
    "_id" : "wm-InterestDD-wm.ServiceVariable-1475610476609",
    "name" : "InterestDD",
    "owner" : "Page",
    "category" : "wm.ServiceVariable",
    "dataBinding" : [ ],
    "type" : "com.portal.platform.models.query.QryInterestTypesResponse",
    "service" : "platform",
    "operation" : "executeQryInterestTypes",
    "operationId" : "QueryExecutionController_executeQryInterestTypes",
    "operationType" : "get",
    "serviceType" : "DataService",
    "dataSet" : [ ],
    "isList" : true,
    "maxResults" : -1,
    "designMaxResults" : 10,
    "startUpdate" : true,
    "autoUpdate" : true,
    "inFlightBehavior" : "executeLast",
    "transformationRequired" : false,
    "saveInPhonegap" : false,
    "controller" : "QueryExecution"
  },
  "lvPartyAgent" : {
    "_id" : "wm-lvPartyAgent-wm.LiveVariable-1482733010536",
    "name" : "lvPartyAgent",
    "owner" : "Page",
    "category" : "wm.LiveVariable",
    "dataBinding" : [ ],
    "operation" : "read",
    "dataSet" : [ ],
    "type" : "PartyAgent",
    "isList" : false,
    "saveInPhonegap" : false,
    "maxResults" : -1,
    "designMaxResults" : 10,
    "inFlightBehavior" : "executeLast",
    "startUpdate" : true,
    "autoUpdate" : true,
    "transformationRequired" : false,
    "liveSource" : "platform",
    "ignoreCase" : true,
    "matchMode" : "start",
    "orderBy" : "careOf asc",
    "propertiesMap" : {
      "columns" : [ {
        "fieldName" : "stateByState",
        "type" : "string",
        "fullyQualifiedType" : "string",
        "columnName" : "state",
        "isPrimaryKey" : false,
        "notNull" : false,
        "length" : 2,
        "precision" : 0,
        "generator" : "assigned",
        "isRelated" : true,
        "relatedTableName" : "state",
        "relatedEntityName" : "State",
        "relatedColumnName" : "state",
        "relatedFieldName" : "stateByState.id",
        "isList" : false,
        "targetTable" : "state",
        "scale" : 0,
        "columns" : [ {
          "fieldName" : "id",
          "type" : "integer",
          "fullyQualifiedType" : "integer",
          "columnName" : "id",
          "isPrimaryKey" : true,
          "notNull" : true,
          "length" : 0,
          "precision" : 10,
          "generator" : "identity",
          "isRelated" : false,
          "scale" : 0
        }, {
          "fieldName" : "state",
          "type" : "string",
          "fullyQualifiedType" : "string",
          "columnName" : "state",
          "isPrimaryKey" : false,
          "notNull" : true,
          "length" : 2,
          "precision" : 0,
          "generator" : "assigned",
          "isRelated" : false,
          "scale" : 0
        }, {
          "fieldName" : "interestType",
          "type" : "string",
          "fullyQualifiedType" : "string",
          "columnName" : "interest_type",
          "isPrimaryKey" : false,
          "notNull" : false,
          "length" : 9,
          "precision" : 0,
          "generator" : "assigned",
          "isRelated" : false,
          "scale" : 0
        }, {
          "fieldName" : "frequency",
          "type" : "string",
          "fullyQualifiedType" : "string",
          "columnName" : "frequency",
          "isPrimaryKey" : false,
          "notNull" : false,
          "length" : 2,
          "precision" : 0,
          "generator" : "assigned",
          "isRelated" : false,
          "scale" : 0
        }, {
          "fieldName" : "certPeriod",
          "type" : "integer",
          "fullyQualifiedType" : "integer",
          "columnName" : "cert_period",
          "isPrimaryKey" : false,
          "notNull" : false,
          "length" : 0,
          "precision" : 10,
          "generator" : "assigned",
          "isRelated" : false,
          "scale" : 0
        }, {
          "fieldName" : "subPeriod",
          "type" : "integer",
          "fullyQualifiedType" : "integer",
          "columnName" : "sub_period",
          "isPrimaryKey" : false,
          "notNull" : false,
          "length" : 0,
          "precision" : 10,
          "generator" : "assigned",
          "isRelated" : false,
          "scale" : 0
        }, {
          "fieldName" : "subRate",
          "type" : "big_decimal",
          "fullyQualifiedType" : "big_decimal",
          "columnName" : "sub_rate",
          "isPrimaryKey" : false,
          "notNull" : false,
          "length" : 0,
          "precision" : 15,
          "generator" : "assigned",
          "isRelated" : false,
          "scale" : 9
        }, {
          "fieldName" : "termMonths",
          "type" : "integer",
          "fullyQualifiedType" : "integer",
          "columnName" : "term_months",
          "isPrimaryKey" : false,
          "notNull" : false,
          "length" : 0,
          "precision" : 10,
          "generator" : "assigned",
          "isRelated" : false,
          "scale" : 0
        }, {
          "fieldName" : "active",
          "type" : "boolean",
          "fullyQualifiedType" : "boolean",
          "columnName" : "active",
          "isPrimaryKey" : false,
          "notNull" : true,
          "length" : 0,
          "precision" : 0,
          "generator" : "assigned",
          "isRelated" : false,
          "scale" : 0
        }, {
          "fieldName" : "roundingThreshold",
          "type" : "float",
          "fullyQualifiedType" : "float",
          "columnName" : "rounding_threshold",
          "isPrimaryKey" : false,
          "notNull" : true,
          "length" : 0,
          "precision" : 3,
          "generator" : "assigned",
          "isRelated" : false,
          "defaultValue" : "0",
          "scale" : 2
        } ]
      }, {
        "fieldName" : "id",
        "type" : "integer",
        "fullyQualifiedType" : "integer",
        "columnName" : "id",
        "isPrimaryKey" : true,
        "notNull" : true,
        "length" : 0,
        "precision" : 10,
        "generator" : "identity",
        "isRelated" : false,
        "scale" : 0
      }, {
        "fieldName" : "class_",
        "type" : "string",
        "fullyQualifiedType" : "string",
        "columnName" : "class",
        "isPrimaryKey" : false,
        "notNull" : true,
        "length" : 50,
        "precision" : 0,
        "generator" : "assigned",
        "isRelated" : false,
        "scale" : 0
      }, {
        "fieldName" : "careOf",
        "type" : "string",
        "fullyQualifiedType" : "string",
        "columnName" : "care_of",
        "isPrimaryKey" : false,
        "notNull" : false,
        "length" : 150,
        "precision" : 0,
        "generator" : "assigned",
        "isRelated" : false,
        "scale" : 0
      }, {
        "fieldName" : "address",
        "type" : "string",
        "fullyQualifiedType" : "string",
        "columnName" : "address",
        "isPrimaryKey" : false,
        "notNull" : false,
        "length" : 100,
        "precision" : 0,
        "generator" : "assigned",
        "isRelated" : false,
        "scale" : 0
      }, {
        "fieldName" : "city",
        "type" : "string",
        "fullyQualifiedType" : "string",
        "columnName" : "city",
        "isPrimaryKey" : false,
        "notNull" : false,
        "length" : 50,
        "precision" : 0,
        "generator" : "assigned",
        "isRelated" : false,
        "scale" : 0
      }, {
        "fieldName" : "zip",
        "type" : "string",
        "fullyQualifiedType" : "string",
        "columnName" : "zip",
        "isPrimaryKey" : false,
        "notNull" : false,
        "length" : 10,
        "precision" : 0,
        "generator" : "assigned",
        "isRelated" : false,
        "scale" : 0
      } ],
      "entityName" : "PartyAgent",
      "fullyQualifiedName" : "com.portal.platform.PartyAgent",
      "tableType" : "TABLE",
      "primaryFields" : [ "id" ]
    },
    "bindCount" : 1,
    "tableName" : "party_agent",
    "tableType" : "TABLE",
    "properties" : [ "stateByState" ],
    "relatedTables" : [ {
      "columnName" : "stateByState",
      "relationName" : "stateByState",
      "type" : "State",
      "watchOn" : "PlatformStateData",
      "package" : "com.portal.platform.PartyAgent"
    } ],
    "filterFields" : { },
    "package" : "com.portal.platform.PartyAgent"
  },
  "nvPayFeeSuccess" : {
    "_id" : "wm-nvPayFeeSuccess-wm.NotificationVariable-1483523702172",
    "name" : "nvPayFeeSuccess",
    "owner" : "Page",
    "category" : "wm.NotificationVariable",
    "dataBinding" : [ {
      "target" : "content",
      "value" : "inline",
      "type" : "string"
    }, {
      "target" : "text",
      "value" : "Successfully added court fee",
      "type" : "string"
    }, {
      "target" : "duration",
      "value" : "5000",
      "type" : "number"
    }, {
      "target" : "class",
      "value" : "Success",
      "type" : "string"
    }, {
      "target" : "toasterPosition",
      "value" : "bottom right",
      "type" : "string"
    } ],
    "operation" : "toast"
  },
  "ServiceFlag" : {
    "_id" : "wm-ServiceFlag-wm.Variable-1477645669509",
    "name" : "ServiceFlag",
    "owner" : "Page",
    "category" : "wm.Variable",
    "dataBinding" : [ ],
    "dataSet" : [ {
      "name" : "Sheriff",
      "dataValue" : "Sheriff"
    }, {
      "name" : "Clerk",
      "dataValue" : "Clerk"
    }, {
      "name" : "Both",
      "dataValue" : "Both"
    } ],
    "type" : "entry",
    "isList" : true,
    "saveInPhonegap" : false
  },
  "ServiceStatusDD" : {
    "_id" : "wm-ServiceStatusDD-wm.Variable-1475687479460",
    "name" : "ServiceStatusDD",
    "owner" : "Page",
    "category" : "wm.Variable",
    "dataBinding" : [ ],
    "dataSet" : [ {
      "name" : "Started",
      "dataValue" : "started"
    }, {
      "name" : "Served",
      "dataValue" : "served"
    }, {
      "name" : "Not Served",
      "dataValue" : "not_served"
    } ],
    "type" : "entry",
    "isList" : true,
    "saveInPhonegap" : false
  },
  "ServiceTypes" : {
    "_id" : "wm-ServiceTypes-wm.Variable-1475610277739",
    "name" : "ServiceTypes",
    "owner" : "Page",
    "category" : "wm.Variable",
    "dataBinding" : [ ],
    "dataSet" : [ {
      "name" : "Regular",
      "dataValue" : "REGULAR"
    }, {
      "name" : "Certified",
      "dataValue" : "CERTIFIED"
    }, {
      "name" : "Personal",
      "dataValue" : "PERSONAL"
    }, {
      "name" : "Government",
      "dataValue" : "GOVERNMENT"
    } ],
    "type" : "entry",
    "isList" : true,
    "saveInPhonegap" : false
  },
  "SourcesDD" : {
    "_id" : "wm-SourcesDD-wm.ServiceVariable-1475610403753",
    "name" : "SourcesDD",
    "owner" : "Page",
    "category" : "wm.ServiceVariable",
    "dataBinding" : [ ],
    "type" : "com.portal.platform.models.query.QrySourcesResponse",
    "service" : "platform",
    "operation" : "executeQrySources",
    "operationId" : "QueryExecutionController_executeQrySources",
    "operationType" : "get",
    "serviceType" : "DataService",
    "dataSet" : [ ],
    "isList" : true,
    "maxResults" : -1,
    "designMaxResults" : 10,
    "startUpdate" : true,
    "autoUpdate" : true,
    "inFlightBehavior" : "executeLast",
    "transformationRequired" : false,
    "saveInPhonegap" : false,
    "controller" : "QueryExecution"
  },
  "StatesDD" : {
    "_id" : "wm-StatesDD-wm.ServiceVariable-1475610353661",
    "name" : "StatesDD",
    "owner" : "Page",
    "category" : "wm.ServiceVariable",
    "dataBinding" : [ ],
    "type" : "com.portal.platform.models.query.QryStatesResponse",
    "service" : "platform",
    "operation" : "executeQryStates",
    "operationId" : "QueryExecutionController_executeQryStates",
    "operationType" : "get",
    "serviceType" : "DataService",
    "dataSet" : [ ],
    "isList" : true,
    "maxResults" : -1,
    "designMaxResults" : 10,
    "orderBy" : "state asc",
    "startUpdate" : true,
    "autoUpdate" : true,
    "inFlightBehavior" : "executeLast",
    "transformationRequired" : false,
    "saveInPhonegap" : false,
    "controller" : "QueryExecution"
  },
  "SuccessAddNewParty" : {
    "_id" : "wm-SuccessAddNewParty-wm.NotificationVariable-1475750408558",
    "name" : "SuccessAddNewParty",
    "owner" : "Page",
    "category" : "wm.NotificationVariable",
    "dataBinding" : [ {
      "target" : "content",
      "value" : "inline",
      "type" : "list"
    }, {
      "target" : "text",
      "value" : "Successfully added the new party",
      "type" : "string"
    }, {
      "target" : "duration",
      "value" : "5000",
      "type" : "list"
    }, {
      "target" : "class",
      "value" : "Success",
      "type" : "list"
    }, {
      "target" : "toasterPosition",
      "value" : "bottom right",
      "type" : "list"
    } ],
    "operation" : "toast"
  },
  "SuccessDeletePartyInterest" : {
    "_id" : "wm-SuccessDeletePartyInterest-wm.NotificationVariable-1475656817544",
    "name" : "SuccessDeletePartyInterest",
    "owner" : "Page",
    "category" : "wm.NotificationVariable",
    "dataBinding" : [ {
      "target" : "content",
      "value" : "inline",
      "type" : "list"
    }, {
      "target" : "text",
      "value" : "Successfully deleted the party interest",
      "type" : "string"
    }, {
      "target" : "duration",
      "value" : "5000",
      "type" : "list"
    }, {
      "target" : "class",
      "value" : "Success",
      "type" : "list"
    }, {
      "target" : "toasterPosition",
      "value" : "bottom right",
      "type" : "list"
    } ],
    "operation" : "toast"
  },
  "SuccessLinkExistingParty" : {
    "_id" : "wm-SuccessLinkExistingParty-wm.NotificationVariable-1475752115272",
    "name" : "SuccessLinkExistingParty",
    "owner" : "Page",
    "category" : "wm.NotificationVariable",
    "dataBinding" : [ {
      "target" : "content",
      "value" : "inline",
      "type" : "list"
    }, {
      "target" : "text",
      "value" : "Successfully linked existing party",
      "type" : "string"
    }, {
      "target" : "duration",
      "value" : "5000",
      "type" : "list"
    }, {
      "target" : "class",
      "value" : "Success",
      "type" : "list"
    }, {
      "target" : "toasterPosition",
      "value" : "bottom right",
      "type" : "list"
    } ],
    "operation" : "toast"
  },
  "SuccessUpdateParty" : {
    "_id" : "wm-SuccessUpdateParty-wm.NotificationVariable-1475614261981",
    "name" : "SuccessUpdateParty",
    "owner" : "Page",
    "category" : "wm.NotificationVariable",
    "dataBinding" : [ {
      "target" : "content",
      "value" : "inline",
      "type" : "list"
    }, {
      "target" : "text",
      "value" : "Party details updated successfully",
      "type" : "string"
    }, {
      "target" : "duration",
      "value" : "5000",
      "type" : "list"
    }, {
      "target" : "class",
      "value" : "Success",
      "type" : "list"
    }, {
      "target" : "toasterPosition",
      "value" : "bottom right",
      "type" : "list"
    } ],
    "operation" : "toast"
  },
  "SuccessUpdatePartyInterest" : {
    "_id" : "wm-SuccessUpdatePartyInterest-wm.NotificationVariable-1475649543821",
    "name" : "SuccessUpdatePartyInterest",
    "owner" : "Page",
    "category" : "wm.NotificationVariable",
    "dataBinding" : [ {
      "target" : "content",
      "value" : "inline",
      "type" : "list"
    }, {
      "target" : "text",
      "value" : "Party Interest updated successfully",
      "type" : "string"
    }, {
      "target" : "duration",
      "value" : "5000",
      "type" : "list"
    }, {
      "target" : "class",
      "value" : "Success",
      "type" : "list"
    }, {
      "target" : "toasterPosition",
      "value" : "bottom right",
      "type" : "list"
    } ],
    "operation" : "toast"
  },
  "svAddNewParty" : {
    "_id" : "wm-svAddNewParty-wm.ServiceVariable-1475750408557",
    "name" : "svAddNewParty",
    "owner" : "Page",
    "category" : "wm.ServiceVariable",
    "dataBinding" : [ {
      "target" : "new_party",
      "value" : true,
      "type" : "boolean"
    }, {
      "target" : "name",
      "value" : "bind:Widgets.textExistingPartyName.datavalue",
      "type" : "string"
    }, {
      "target" : "care_of",
      "value" : "bind:Widgets.textExistingPartyCO.datavalue",
      "type" : "string"
    }, {
      "target" : "piq",
      "value" : "bind:Widgets.checkboxExistingPIQ.datavalue",
      "type" : "boolean"
    }, {
      "target" : "address",
      "value" : "bind:Widgets.textExistingPartyAddress.datavalue",
      "type" : "string"
    }, {
      "target" : "city",
      "value" : "bind:Widgets.textExistingPartyCity.datavalue",
      "type" : "string"
    }, {
      "target" : "zip",
      "value" : "bind:Widgets.textExistingPartyZip.datavalue",
      "type" : "string"
    }, {
      "target" : "source1",
      "value" : "bind:(Widgets.ExistingPartySource1.datavalue == null) ? '' : Widgets.ExistingPartySource1.datavalue",
      "type" : "string"
    }, {
      "target" : "service_type",
      "value" : "bind:Widgets.selectExistingPartyService.datavalue",
      "type" : "string"
    }, {
      "target" : "interest_type1",
      "value" : "bind:Widgets.ExistingPartyInterest1.datavalue",
      "type" : "string"
    }, {
      "target" : "interest_type2",
      "value" : "bind:(Widgets.ExistingPartyInterest2.datavalue == null) ? '' : Widgets.ExistingPartyInterest2.datavalue",
      "type" : "string"
    }, {
      "target" : "interest_type3",
      "value" : "bind:(Widgets.ExistingPartyInterest3.datavalue == null) ? '' : Widgets.ExistingPartyInterest3.datavalue",
      "type" : "string"
    }, {
      "target" : "class_party",
      "value" : "bind:Widgets.selectExistingPartyClass.datavalue",
      "type" : "string"
    }, {
      "target" : "state",
      "value" : "bind:Widgets.selectExistingPartyState.datavalue",
      "type" : "string"
    }, {
      "target" : "source2",
      "value" : "bind:(Widgets.ExistingPartySource2.datavalue == null) ? '' : Widgets.ExistingPartySource2.datavalue",
      "type" : "string"
    } ],
    "type" : "java.lang.Void",
    "service" : "platform",
    "operation" : "executeProcAddNewParty",
    "operationId" : "ProcedureExecutionController_executeProcAddNewParty",
    "operationType" : "get",
    "serviceType" : "DataService",
    "dataSet" : [ ],
    "isList" : true,
    "maxResults" : 20,
    "designMaxResults" : 10,
    "onSuccess" : "Variables.SuccessAddNewParty.invoke();Variables.svQryParties.invoke();Widgets.dialogAddInterestParty.close()",
    "onError" : "svAddNewPartyonError($event, $scope)",
    "startUpdate" : false,
    "autoUpdate" : false,
    "inFlightBehavior" : "executeLast",
    "transformationRequired" : false,
    "saveInPhonegap" : false,
    "controller" : "ProcedureExecution"
  },
  "svDeletePartyInterest" : {
    "_id" : "wm-svDeletePartyInterest-wm.ServiceVariable-1475656620488",
    "name" : "svDeletePartyInterest",
    "owner" : "Page",
    "category" : "wm.ServiceVariable",
    "dataBinding" : [ ],
    "type" : "com.wavemaker.commons.wrapper.IntegerWrapper",
    "service" : "platform",
    "operation" : "executeQryDeleteCertificateParty",
    "operationId" : "QueryExecutionController_executeQryDeleteCertificateParty",
    "operationType" : "delete",
    "serviceType" : "DataService",
    "dataSet" : [ ],
    "isList" : false,
    "maxResults" : 20,
    "designMaxResults" : 10,
    "onSuccess" : "Variables.SuccessDeletePartyInterest.invoke();Variables.svQryParties.invoke();Widgets.dialogDeletePartyInterest.close()",
    "onError" : "svDeletePartyInterestonError($event, $scope)",
    "startUpdate" : false,
    "autoUpdate" : false,
    "inFlightBehavior" : "executeLast",
    "transformationRequired" : false,
    "saveInPhonegap" : false,
    "controller" : "QueryExecution"
  },
  "svLinkExistingParty" : {
    "_id" : "wm-svLinkExistingParty-wm.ServiceVariable-1475752115270",
    "name" : "svLinkExistingParty",
    "owner" : "Page",
    "category" : "wm.ServiceVariable",
    "dataBinding" : [ {
      "target" : "new_party",
      "value" : false,
      "type" : "boolean"
    }, {
      "target" : "service_type",
      "value" : "bind:Widgets.selectExistingPartyService.datavalue",
      "type" : "string"
    }, {
      "target" : "interest_type1",
      "value" : "bind:Widgets.ExistingPartyInterest1.datavalue",
      "type" : "string"
    }, {
      "target" : "interest_type2",
      "value" : "bind:Widgets.ExistingPartyInterest2.datavalue",
      "type" : "string"
    }, {
      "target" : "interest_type3",
      "value" : "bind:Widgets.ExistingPartyInterest3.datavalue",
      "type" : "string"
    } ],
    "type" : "java.lang.Void",
    "service" : "platform",
    "operation" : "executeProcAddExistingParty",
    "operationId" : "ProcedureExecutionController_executeProcAddExistingParty",
    "operationType" : "get",
    "serviceType" : "DataService",
    "dataSet" : [ ],
    "isList" : true,
    "maxResults" : 20,
    "designMaxResults" : 10,
    "onSuccess" : "Variables.SuccessLinkExistingParty.invoke();Variables.svQryParties.invoke();Widgets.dialogAddInterestParty.close()",
    "onError" : "svLinkExistingPartyonError($event, $scope)",
    "startUpdate" : false,
    "autoUpdate" : false,
    "inFlightBehavior" : "executeLast",
    "transformationRequired" : false,
    "saveInPhonegap" : false,
    "controller" : "ProcedureExecution"
  },
  "svPayFeeExecute" : {
    "_id" : "wm-svPayFeeExecute-wm.ServiceVariable-1483523532580",
    "name" : "svPayFeeExecute",
    "owner" : "Page",
    "category" : "wm.ServiceVariable",
    "dataBinding" : [ {
      "target" : "preview",
      "value" : "0",
      "type" : "integer"
    }, {
      "target" : "service_type",
      "value" : "bind:Widgets.form1.formWidgets.selectType1.datavalue",
      "type" : "string"
    }, {
      "target" : "service",
      "value" : "bind:Widgets.form1.formWidgets.selectService1.datavalue",
      "type" : "integer"
    }, {
      "target" : "payment_date",
      "value" : "bind:Widgets.form1.formWidgets.paymentDate1.datavalue",
      "type" : "string"
    }, {
      "target" : "amount",
      "value" : "bind:Widgets.form1.formWidgets.textAmount1.datavalue",
      "type" : "number"
    }, {
      "target" : "logged_in_user",
      "value" : "bind:Variables.loggedInUser.dataSet.name",
      "type" : "string"
    }, {
      "target" : "records",
      "value" : "0",
      "type" : "integer"
    } ],
    "type" : "com.portal.platform.models.procedure.ProcPayCourtFeeResponseContent",
    "service" : "platform",
    "operation" : "executeProcPayCourtFee",
    "operationId" : "ProcedureExecutionController_executeProcPayCourtFee",
    "operationType" : "get",
    "serviceType" : "DataService",
    "dataSet" : [ ],
    "isList" : true,
    "maxResults" : 20,
    "designMaxResults" : 10,
    "onSuccess" : "Variables.nvPayFeeSuccess.invoke();Widgets.dialog5.close();svPayFeeExecuteonSuccess($event, $scope)",
    "onError" : "svPayFeeExecuteonError($event, $scope)",
    "startUpdate" : false,
    "autoUpdate" : false,
    "inFlightBehavior" : "executeLast",
    "transformationRequired" : false,
    "saveInPhonegap" : false,
    "controller" : "ProcedureExecution"
  },
  "svPayFeePreview" : {
    "_id" : "wm-svPayFeePreview-wm.ServiceVariable-1483513919066",
    "name" : "svPayFeePreview",
    "owner" : "Page",
    "category" : "wm.ServiceVariable",
    "dataBinding" : [ {
      "target" : "preview",
      "value" : "1",
      "type" : "integer"
    }, {
      "target" : "service_type",
      "value" : "bind:Widgets.form1.formWidgets.selectType1.datavalue",
      "type" : "string"
    }, {
      "target" : "service",
      "value" : "bind:Widgets.form1.formWidgets.selectService1.datavalue",
      "type" : "integer"
    }, {
      "target" : "amount",
      "value" : 0,
      "type" : "number"
    }, {
      "target" : "logged_in_user",
      "value" : "bind:Variables.loggedInUser.dataSet.name",
      "type" : "string"
    }, {
      "target" : "records",
      "value" : "0",
      "type" : "integer"
    } ],
    "type" : "com.portal.platform.models.procedure.ProcPayCourtFeeResponseContent",
    "service" : "platform",
    "operation" : "executeProcPayCourtFee",
    "operationId" : "ProcedureExecutionController_executeProcPayCourtFee",
    "operationType" : "get",
    "serviceType" : "DataService",
    "dataSet" : [ ],
    "isList" : true,
    "maxResults" : 20,
    "designMaxResults" : 10,
    "onSuccess" : "svPayFeePreviewonSuccess($event, $scope)",
    "startUpdate" : false,
    "autoUpdate" : false,
    "inFlightBehavior" : "executeLast",
    "transformationRequired" : false,
    "saveInPhonegap" : false,
    "controller" : "ProcedureExecution"
  },
  "svPayType" : {
    "_id" : "wm-svPayType-wm.Variable-1483444854583",
    "name" : "svPayType",
    "owner" : "Page",
    "category" : "wm.Variable",
    "dataBinding" : [ ],
    "dataSet" : [ {
      "dataValue" : "Clerk"
    }, {
      "dataValue" : "Sheriff"
    } ],
    "type" : "string",
    "isList" : true,
    "saveInPhonegap" : false
  },
  "svPortalPropertyAddress" : {
    "_id" : "wm-svPortalPropertyData-wm.ServiceVariable-1478072104009",
    "name" : "svPortalPropertyAddress",
    "owner" : "Page",
    "category" : "wm.ServiceVariable",
    "dataBinding" : [ {
      "target" : "property_id",
      "value" : "bind:$parent.Widgets.SearchResultLiveList.selecteditem.property_id",
      "type" : "integer"
    } ],
    "type" : "com.portal.platform.models.query.QryPortalPropertyDataResponse",
    "service" : "platform",
    "operation" : "executeQryPortalPropertyData",
    "operationId" : "QueryExecutionController_executeQryPortalPropertyData",
    "operationType" : "get",
    "serviceType" : "DataService",
    "dataSet" : [ ],
    "isList" : true,
    "maxResults" : 20,
    "designMaxResults" : 10,
    "startUpdate" : true,
    "autoUpdate" : true,
    "inFlightBehavior" : "doNotExecute",
    "transformationRequired" : false,
    "saveInPhonegap" : false,
    "controller" : "QueryExecution"
  },
  "svQryDataProperty" : {
    "_id" : "wm-svQryDataProperty-wm.ServiceVariable-1480575808179",
    "name" : "svQryDataProperty",
    "owner" : "Page",
    "category" : "wm.ServiceVariable",
    "dataBinding" : [ {
      "target" : "property_id",
      "value" : "bind:$parent.Widgets.SearchResultLiveList.selecteditem.property_id",
      "type" : "integer"
    } ],
    "type" : "com.portal.platform.models.query.QryDataPropertyResponse",
    "service" : "platform",
    "operation" : "executeQryDataProperty",
    "operationId" : "QueryExecutionController_executeQryDataProperty",
    "operationType" : "get",
    "serviceType" : "DataService",
    "dataSet" : [ ],
    "isList" : true,
    "maxResults" : -1,
    "designMaxResults" : 10,
    "startUpdate" : true,
    "autoUpdate" : true,
    "inFlightBehavior" : "executeLast",
    "transformationRequired" : false,
    "saveInPhonegap" : false,
    "controller" : "QueryExecution"
  },
  "svQryParties" : {
    "_id" : "wm-svQryParties-wm.ServiceVariable-1475494406170",
    "name" : "svQryParties",
    "owner" : "Page",
    "category" : "wm.ServiceVariable",
    "dataBinding" : [ {
      "target" : "selected_certificate_id",
      "value" : "bind:$parent.Widgets.SearchResultLiveList.selecteditem.certificate_id",
      "type" : "integer"
    } ],
    "type" : "com.portal.platform.models.query.QryPartiesByCertificateIdResponse",
    "service" : "platform",
    "operation" : "executeQryPartiesByCertificateId",
    "operationId" : "QueryExecutionController_executeQryPartiesByCertificateId",
    "operationType" : "get",
    "serviceType" : "DataService",
    "dataSet" : [ ],
    "isList" : true,
    "maxResults" : -1,
    "designMaxResults" : 10,
    "orderBy" : "display_order asc",
    "startUpdate" : true,
    "autoUpdate" : true,
    "inFlightBehavior" : "executeLast",
    "transformationRequired" : false,
    "saveInPhonegap" : false,
    "controller" : "QueryExecution"
  },
  "svService" : {
    "_id" : "wm-svService-wm.Variable-1483444948685",
    "name" : "svService",
    "owner" : "Page",
    "category" : "wm.Variable",
    "dataBinding" : [ ],
    "dataSet" : [ {
      "dataValue" : "1"
    }, {
      "dataValue" : "2"
    }, {
      "dataValue" : "3"
    } ],
    "type" : "string",
    "isList" : true,
    "saveInPhonegap" : false
  },
  "svUpdateParty" : {
    "_id" : "wm-svUpdateParty-wm.ServiceVariable-1475614042762",
    "name" : "svUpdateParty",
    "owner" : "Page",
    "category" : "wm.ServiceVariable",
    "dataBinding" : [ {
      "target" : "class_party",
      "value" : "bind:Widgets.selectClass.datavalue",
      "type" : "string"
    }, {
      "target" : "piq",
      "value" : "bind:Widgets.checkboxPIQ.datavalue",
      "type" : "boolean"
    }, {
      "target" : "name",
      "value" : "bind:Widgets.textPartyName.datavalue",
      "type" : "string"
    }, {
      "target" : "care_of",
      "value" : "bind:Widgets.textCO.datavalue",
      "type" : "string"
    }, {
      "target" : "address",
      "value" : "bind:Widgets.textAddress.datavalue",
      "type" : "string"
    }, {
      "target" : "city",
      "value" : "bind:Widgets.textCity.datavalue",
      "type" : "string"
    }, {
      "target" : "state",
      "value" : "bind:Widgets.selectState.datavalue",
      "type" : "string"
    }, {
      "target" : "zip",
      "value" : "bind:Widgets.textZip.datavalue",
      "type" : "string"
    }, {
      "target" : "source1",
      "value" : "bind:Widgets.selectSource1.datavalue",
      "type" : "string"
    }, {
      "target" : "source2",
      "value" : "bind:Widgets.selectSource2.datavalue",
      "type" : "string"
    }, {
      "target" : "selected_party_id",
      "value" : "bind:Widgets.labelPartyID.caption",
      "type" : "integer"
    } ],
    "type" : "integer",
    "service" : "platform",
    "operation" : "executeQryUpdatePartyDetails",
    "operationId" : "QueryExecutionController_executeQryUpdatePartyDetails",
    "operationType" : "put",
    "serviceType" : "DataService",
    "dataSet" : [ ],
    "isList" : false,
    "maxResults" : 20,
    "designMaxResults" : 10,
    "onSuccess" : "Variables.SuccessUpdateParty.invoke();Variables.svQryParties.invoke();Widgets.dialogUpdateParty.close()",
    "onError" : "svUpdatePartyonError($event, $scope)",
    "startUpdate" : false,
    "autoUpdate" : false,
    "inFlightBehavior" : "executeLast",
    "transformationRequired" : false,
    "saveInPhonegap" : false,
    "controller" : "QueryExecution"
  },
  "svUpdatePartyInterest" : {
    "_id" : "wm-svUpdatePartyInterest-wm.ServiceVariable-1475649543816",
    "name" : "svUpdatePartyInterest",
    "owner" : "Page",
    "category" : "wm.ServiceVariable",
    "dataBinding" : [ {
      "target" : "interest_type1",
      "value" : "bind:Widgets.selectPartyInterestType1.datavalue",
      "type" : "string"
    }, {
      "target" : "interest_type2",
      "value" : "bind:Widgets.selectPartyInterestType2.datavalue",
      "type" : "string"
    }, {
      "target" : "interest_type3",
      "value" : "bind:Widgets.selectPartyInterestType3.datavalue",
      "type" : "string"
    }, {
      "target" : "letter1",
      "value" : "bind:Widgets.PartyInterestLetter1.datavalue",
      "type" : "string"
    }, {
      "target" : "letter2",
      "value" : "bind:Widgets.PartyInterestLetter2.datavalue",
      "type" : "string"
    }, {
      "target" : "service1_status",
      "value" : "bind:Widgets.PartyInterestStatus1.datavalue",
      "type" : "string"
    }, {
      "target" : "service1_reference",
      "value" : "bind:Widgets.PartyInterestReference1.datavalue",
      "type" : "string"
    }, {
      "target" : "service2_status",
      "value" : "bind:Widgets.PartyInterestStatus2.datavalue",
      "type" : "string"
    }, {
      "target" : "service2_reference",
      "value" : "bind:Widgets.PartyInterestReference2.datavalue",
      "type" : "string"
    }, {
      "target" : "service3_status",
      "value" : "bind:Widgets.PartyInterestStatus3.datavalue",
      "type" : "string"
    }, {
      "target" : "service3_reference",
      "value" : "bind:Widgets.PartyInterestReference3.datavalue",
      "type" : "string"
    }, {
      "target" : "selected_certificate_party_id",
      "value" : "bind:selectedPartyInterest.id",
      "type" : "integer"
    }, {
      "target" : "service_type_1",
      "value" : "bind:Widgets.PartyInterestServiceType_1.datavalue",
      "type" : "string"
    }, {
      "target" : "service_type_2",
      "value" : "bind:Widgets.PartyInterestServiceType_2.datavalue",
      "type" : "string"
    }, {
      "target" : "service_type_3",
      "value" : "bind:Widgets.PartyInterestServiceType_3.datavalue",
      "type" : "string"
    } ],
    "type" : "com.wavemaker.commons.wrapper.IntegerWrapper",
    "service" : "platform",
    "operation" : "executeQryUpdateCertificateParty",
    "operationId" : "QueryExecutionController_executeQryUpdateCertificateParty",
    "operationType" : "put",
    "serviceType" : "DataService",
    "dataSet" : [ ],
    "isList" : false,
    "maxResults" : 20,
    "designMaxResults" : 10,
    "onSuccess" : "Variables.SuccessUpdatePartyInterest.invoke();Variables.svQryParties.invoke();Widgets.dialogUpdatePartyInterest.close()",
    "onError" : "svUpdatePartyInterestonError($event, $scope)",
    "startUpdate" : false,
    "autoUpdate" : false,
    "inFlightBehavior" : "executeLast",
    "transformationRequired" : false,
    "saveInPhonegap" : false,
    "controller" : "QueryExecution"
  }
}