{
  "svPortalAuctionData" : {
    "_id" : "wm-svPortalAuctionData-wm.ServiceVariable-1473858393647",
    "name" : "svPortalAuctionData",
    "owner" : "Page",
    "category" : "wm.ServiceVariable",
    "dataBinding" : [ {
      "target" : "property_id",
      "value" : "bind:$parent.Widgets.SearchResultLiveList.selecteditem.property_id",
      "type" : "integer"
    } ],
    "type" : "com.portal.platform.models.query.QryPortalAuctionDataResponse",
    "service" : "platform",
    "operation" : "executeQryPortalAuctionData",
    "operationId" : "QueryExecutionController_executeQryPortalAuctionData",
    "operationType" : "get",
    "serviceType" : "DataService",
    "dataSet" : [ ],
    "isList" : true,
    "maxResults" : 20,
    "designMaxResults" : 10,
    "startUpdate" : false,
    "autoUpdate" : true,
    "inFlightBehavior" : "executeLast",
    "transformationRequired" : false,
    "saveInPhonegap" : false,
    "controller" : "QueryExecution"
  }
}