{
  "PlatformGradeData" : {
    "_id" : "wm-PlatformGradeData-wm.LiveVariable-1478176448341",
    "name" : "PlatformGradeData",
    "owner" : "Page",
    "category" : "wm.LiveVariable",
    "dataBinding" : [ ],
    "operation" : "read",
    "dataSet" : [ ],
    "type" : "Grade",
    "isList" : true,
    "saveInPhonegap" : false,
    "maxResults" : 20,
    "designMaxResults" : 10,
    "inFlightBehavior" : "executeLast",
    "startUpdate" : true,
    "autoUpdate" : true,
    "transformationRequired" : false,
    "liveSource" : "platform",
    "ignoreCase" : true,
    "matchMode" : "start",
    "propertiesMap" : {
      "columns" : [ {
        "fieldName" : "county",
        "type" : "integer",
        "fullyQualifiedType" : "integer",
        "columnName" : "county_id",
        "isPrimaryKey" : false,
        "notNull" : true,
        "length" : 0,
        "precision" : 10,
        "generator" : "assigned",
        "isRelated" : true,
        "relatedTableName" : "county",
        "relatedEntityName" : "County",
        "relatedColumnName" : "countyId",
        "relatedFieldName" : "county.id",
        "isList" : false,
        "targetTable" : "county",
        "scale" : 0,
        "columns" : [ {
          "fieldName" : "state",
          "type" : "integer",
          "fullyQualifiedType" : "integer",
          "columnName" : "state_id",
          "isPrimaryKey" : false,
          "notNull" : true,
          "length" : 0,
          "precision" : 10,
          "generator" : "assigned",
          "isRelated" : true,
          "relatedColumnName" : "stateId",
          "targetTable" : "state",
          "scale" : 0
        }, {
          "fieldName" : "id",
          "type" : "integer",
          "fullyQualifiedType" : "integer",
          "columnName" : "id",
          "isPrimaryKey" : true,
          "notNull" : true,
          "length" : 0,
          "precision" : 10,
          "generator" : "identity",
          "isRelated" : false,
          "scale" : 0
        }, {
          "fieldName" : "countyName",
          "type" : "string",
          "fullyQualifiedType" : "string",
          "columnName" : "county_name",
          "isPrimaryKey" : false,
          "notNull" : true,
          "length" : 50,
          "precision" : 0,
          "generator" : "assigned",
          "isRelated" : false,
          "scale" : 0
        }, {
          "fieldName" : "areaLookup",
          "type" : "string",
          "fullyQualifiedType" : "string",
          "columnName" : "area_lookup",
          "isPrimaryKey" : false,
          "notNull" : true,
          "length" : 10,
          "precision" : 0,
          "generator" : "assigned",
          "isRelated" : false,
          "scale" : 0
        }, {
          "fieldName" : "areaLength",
          "type" : "integer",
          "fullyQualifiedType" : "integer",
          "columnName" : "area_length",
          "isPrimaryKey" : false,
          "notNull" : false,
          "length" : 0,
          "precision" : 10,
          "generator" : "assigned",
          "isRelated" : false,
          "scale" : 0
        }, {
          "fieldName" : "gis",
          "type" : "string",
          "fullyQualifiedType" : "string",
          "columnName" : "gis",
          "isPrimaryKey" : false,
          "notNull" : false,
          "length" : 250,
          "precision" : 0,
          "generator" : "assigned",
          "isRelated" : false,
          "scale" : 0
        }, {
          "fieldName" : "assessor",
          "type" : "string",
          "fullyQualifiedType" : "string",
          "columnName" : "assessor",
          "isPrimaryKey" : false,
          "notNull" : false,
          "length" : 250,
          "precision" : 0,
          "generator" : "assigned",
          "isRelated" : false,
          "scale" : 0
        }, {
          "fieldName" : "newlinePhoto",
          "type" : "string",
          "fullyQualifiedType" : "string",
          "columnName" : "newline_photo",
          "isPrimaryKey" : false,
          "notNull" : false,
          "length" : 250,
          "precision" : 0,
          "generator" : "assigned",
          "isRelated" : false,
          "scale" : 0
        }, {
          "fieldName" : "treasurer",
          "type" : "string",
          "fullyQualifiedType" : "string",
          "columnName" : "treasurer",
          "isPrimaryKey" : false,
          "notNull" : false,
          "length" : 250,
          "precision" : 0,
          "generator" : "assigned",
          "isRelated" : false,
          "scale" : 0
        }, {
          "fieldName" : "recorder",
          "type" : "string",
          "fullyQualifiedType" : "string",
          "columnName" : "recorder",
          "isPrimaryKey" : false,
          "notNull" : false,
          "length" : 250,
          "precision" : 0,
          "generator" : "assigned",
          "isRelated" : false,
          "scale" : 0
        }, {
          "fieldName" : "clerk",
          "type" : "string",
          "fullyQualifiedType" : "string",
          "columnName" : "clerk",
          "isPrimaryKey" : false,
          "notNull" : false,
          "length" : 250,
          "precision" : 0,
          "generator" : "assigned",
          "isRelated" : false,
          "scale" : 0
        }, {
          "fieldName" : "clerkAddress",
          "type" : "string",
          "fullyQualifiedType" : "string",
          "columnName" : "clerk_address",
          "isPrimaryKey" : false,
          "notNull" : false,
          "length" : 2147483647,
          "precision" : 0,
          "generator" : "assigned",
          "isRelated" : false,
          "scale" : 0
        }, {
          "fieldName" : "clerkCity",
          "type" : "string",
          "fullyQualifiedType" : "string",
          "columnName" : "clerk_city",
          "isPrimaryKey" : false,
          "notNull" : false,
          "length" : 50,
          "precision" : 0,
          "generator" : "assigned",
          "isRelated" : false,
          "scale" : 0
        }, {
          "fieldName" : "clerkPhone",
          "type" : "string",
          "fullyQualifiedType" : "string",
          "columnName" : "clerk_phone",
          "isPrimaryKey" : false,
          "notNull" : false,
          "length" : 50,
          "precision" : 0,
          "generator" : "assigned",
          "isRelated" : false,
          "scale" : 0
        }, {
          "fieldName" : "searchFee",
          "type" : "double",
          "fullyQualifiedType" : "double",
          "columnName" : "search_fee",
          "isPrimaryKey" : false,
          "notNull" : false,
          "length" : 0,
          "precision" : 19,
          "generator" : "assigned",
          "isRelated" : false,
          "scale" : 4
        }, {
          "fieldName" : "takeNoticeAmount",
          "type" : "double",
          "fullyQualifiedType" : "double",
          "columnName" : "take_notice_amount",
          "isPrimaryKey" : false,
          "notNull" : false,
          "length" : 0,
          "precision" : 19,
          "generator" : "assigned",
          "isRelated" : false,
          "scale" : 4
        }, {
          "fieldName" : "takeNoticeAccrualAmount",
          "type" : "double",
          "fullyQualifiedType" : "double",
          "columnName" : "take_notice_accrual_amount",
          "isPrimaryKey" : false,
          "notNull" : false,
          "length" : 0,
          "precision" : 19,
          "generator" : "assigned",
          "isRelated" : false,
          "scale" : 4
        }, {
          "fieldName" : "redemptionFee",
          "type" : "double",
          "fullyQualifiedType" : "double",
          "columnName" : "redemption_fee",
          "isPrimaryKey" : false,
          "notNull" : false,
          "length" : 0,
          "precision" : 19,
          "generator" : "assigned",
          "isRelated" : false,
          "scale" : 4
        }, {
          "fieldName" : "redemptionBillAmount",
          "type" : "double",
          "fullyQualifiedType" : "double",
          "columnName" : "redemption_bill_amount",
          "isPrimaryKey" : false,
          "notNull" : false,
          "length" : 0,
          "precision" : 19,
          "generator" : "assigned",
          "isRelated" : false,
          "scale" : 4
        }, {
          "fieldName" : "filingCost",
          "type" : "double",
          "fullyQualifiedType" : "double",
          "columnName" : "filing_cost",
          "isPrimaryKey" : false,
          "notNull" : false,
          "length" : 0,
          "precision" : 19,
          "generator" : "assigned",
          "isRelated" : false,
          "scale" : 4
        }, {
          "fieldName" : "filingRevenue",
          "type" : "double",
          "fullyQualifiedType" : "double",
          "columnName" : "filing_revenue",
          "isPrimaryKey" : false,
          "notNull" : false,
          "length" : 0,
          "precision" : 19,
          "generator" : "assigned",
          "isRelated" : false,
          "scale" : 4
        }, {
          "fieldName" : "sheriffCost",
          "type" : "double",
          "fullyQualifiedType" : "double",
          "columnName" : "sheriff_cost",
          "isPrimaryKey" : false,
          "notNull" : false,
          "length" : 0,
          "precision" : 19,
          "generator" : "assigned",
          "isRelated" : false,
          "scale" : 4
        }, {
          "fieldName" : "clerkCost",
          "type" : "double",
          "fullyQualifiedType" : "double",
          "columnName" : "clerk_cost",
          "isPrimaryKey" : false,
          "notNull" : false,
          "length" : 0,
          "precision" : 19,
          "generator" : "assigned",
          "isRelated" : false,
          "scale" : 4
        }, {
          "fieldName" : "publicationCost",
          "type" : "double",
          "fullyQualifiedType" : "double",
          "columnName" : "publication_cost",
          "isPrimaryKey" : false,
          "notNull" : false,
          "length" : 0,
          "precision" : 19,
          "generator" : "assigned",
          "isRelated" : false,
          "scale" : 4
        }, {
          "fieldName" : "assessorPhoto",
          "type" : "string",
          "fullyQualifiedType" : "string",
          "columnName" : "assessor_photo",
          "isPrimaryKey" : false,
          "notNull" : false,
          "length" : 250,
          "precision" : 0,
          "generator" : "assigned",
          "isRelated" : false,
          "scale" : 0
        }, {
          "fieldName" : "redemptionInfo",
          "type" : "text",
          "fullyQualifiedType" : "text",
          "columnName" : "redemption_info",
          "isPrimaryKey" : false,
          "notNull" : false,
          "length" : 2147483647,
          "precision" : 0,
          "generator" : "assigned",
          "isRelated" : false,
          "scale" : 0
        } ]
      }, {
        "fieldName" : "township",
        "type" : "integer",
        "fullyQualifiedType" : "integer",
        "columnName" : "township_id",
        "isPrimaryKey" : false,
        "notNull" : true,
        "length" : 0,
        "precision" : 10,
        "generator" : "assigned",
        "isRelated" : true,
        "relatedTableName" : "township",
        "relatedEntityName" : "Township",
        "relatedColumnName" : "townshipId",
        "relatedFieldName" : "township.id",
        "isList" : false,
        "targetTable" : "township",
        "scale" : 0,
        "columns" : [ {
          "fieldName" : "county",
          "type" : "integer",
          "fullyQualifiedType" : "integer",
          "columnName" : "county_id",
          "isPrimaryKey" : false,
          "notNull" : true,
          "length" : 0,
          "precision" : 10,
          "generator" : "assigned",
          "isRelated" : true,
          "relatedColumnName" : "countyId",
          "targetTable" : "county",
          "scale" : 0
        }, {
          "fieldName" : "id",
          "type" : "integer",
          "fullyQualifiedType" : "integer",
          "columnName" : "ID",
          "isPrimaryKey" : true,
          "notNull" : true,
          "length" : 0,
          "precision" : 10,
          "generator" : "identity",
          "isRelated" : false,
          "scale" : 0
        }, {
          "fieldName" : "townshipName",
          "type" : "string",
          "fullyQualifiedType" : "string",
          "columnName" : "township_name",
          "isPrimaryKey" : false,
          "notNull" : true,
          "length" : 50,
          "precision" : 0,
          "generator" : "assigned",
          "isRelated" : false,
          "scale" : 0
        }, {
          "fieldName" : "volumeLow",
          "type" : "integer",
          "fullyQualifiedType" : "integer",
          "columnName" : "volume_low",
          "isPrimaryKey" : false,
          "notNull" : true,
          "length" : 0,
          "precision" : 10,
          "generator" : "assigned",
          "isRelated" : false,
          "scale" : 0
        }, {
          "fieldName" : "volumeHigh",
          "type" : "integer",
          "fullyQualifiedType" : "integer",
          "columnName" : "volume_high",
          "isPrimaryKey" : false,
          "notNull" : true,
          "length" : 0,
          "precision" : 10,
          "generator" : "assigned",
          "isRelated" : false,
          "scale" : 0
        }, {
          "fieldName" : "auctionDay",
          "type" : "integer",
          "fullyQualifiedType" : "integer",
          "columnName" : "auction_day",
          "isPrimaryKey" : false,
          "notNull" : false,
          "length" : 0,
          "precision" : 10,
          "generator" : "assigned",
          "isRelated" : false,
          "scale" : 0
        } ]
      }, {
        "fieldName" : "id",
        "type" : "integer",
        "fullyQualifiedType" : "integer",
        "columnName" : "id",
        "isPrimaryKey" : true,
        "notNull" : true,
        "length" : 0,
        "precision" : 10,
        "generator" : "identity",
        "isRelated" : false,
        "scale" : 0
      }, {
        "fieldName" : "lookup",
        "type" : "string",
        "fullyQualifiedType" : "string",
        "columnName" : "lookup",
        "isPrimaryKey" : false,
        "notNull" : true,
        "length" : 10,
        "precision" : 0,
        "generator" : "assigned",
        "isRelated" : false,
        "scale" : 0
      }, {
        "fieldName" : "grade",
        "type" : "character",
        "fullyQualifiedType" : "character",
        "columnName" : "grade",
        "isPrimaryKey" : false,
        "notNull" : true,
        "length" : 1,
        "precision" : 0,
        "generator" : "assigned",
        "isRelated" : false,
        "scale" : 0
      }, {
        "fieldName" : "note",
        "type" : "string",
        "fullyQualifiedType" : "string",
        "columnName" : "note",
        "isPrimaryKey" : false,
        "notNull" : false,
        "length" : 250,
        "precision" : 0,
        "generator" : "assigned",
        "isRelated" : false,
        "scale" : 0
      } ],
      "entityName" : "Grade",
      "fullyQualifiedName" : "com.portal.platform.Grade",
      "tableType" : "TABLE",
      "primaryFields" : [ "id" ]
    },
    "isDefault" : true,
    "bindCount" : 3,
    "tableName" : "grade",
    "tableType" : "TABLE",
    "properties" : [ "county", "township" ],
    "relatedTables" : [ {
      "columnName" : "county",
      "relationName" : "county",
      "type" : "County",
      "watchOn" : "PlatformCountyData",
      "package" : "com.portal.platform.Grade"
    }, {
      "columnName" : "township",
      "relationName" : "township",
      "type" : "Township",
      "watchOn" : "PlatformTownshipData",
      "package" : "com.portal.platform.Grade"
    } ],
    "package" : "com.portal.platform.Grade"
  }
}